# Blender v2.76 (sub 0) OBJ File: ''
# www.blender.org
mtllib box.mtl
o ShapeIndexedFaceSet.022_ShapeIndexedFaceSet
v 0.000000 0.000000 0.000000
v -59.531258 -26.407255 -71.129280
v -53.906254 -36.718655 -56.133041
v -53.906254 -30.156153 -56.133041
v -53.906258 -36.718655 -77.695541
v -55.781624 -23.593655 -77.695541
v -59.531254 -29.219570 -56.133041
v -57.655888 -23.593653 -56.133041
v -56.718758 -34.842922 -77.695541
v -59.531258 -29.219572 -77.695541
v -54.843941 -23.593655 -72.066414
v -56.718754 -34.842922 -56.133041
v -54.843937 -23.593653 -59.883682
v -53.906258 -30.156155 -77.695541
v -58.593575 -23.593655 -72.066414
v -58.593571 -23.593653 -59.883682
v -59.531258 -26.407255 -77.695541
v -54.843941 -36.718655 -77.695541
v -55.781620 -23.593653 -56.133041
v -59.531254 -27.343836 -56.133041
v -54.843937 -36.718655 -56.133041
v -57.655891 -23.593655 -77.695541
v -54.843941 -26.407255 -77.695541
v -54.843937 -26.407253 -56.133041
v -55.781624 -35.780788 -77.695541
v -55.781620 -35.780788 -56.133041
vn -0.707400 -0.706800 -0.000000
vn 1.000000 0.000000 -0.000000
vn 0.000000 0.000000 1.000000
vn 0.000000 0.000000 -1.000000
vn -0.894400 -0.447300 0.000000
vn -1.000000 -0.000000 0.000000
vn 0.000000 1.000000 0.000000
vn 0.989900 0.141400 -0.000000
vn -0.948700 0.316200 0.000000
vn 0.000000 -1.000000 0.000000
vn -0.966100 0.257700 0.016100
vn -0.872800 0.436500 0.218200
vn -0.824200 0.549400 -0.137300
vn 0.937100 0.312300 -0.156100
vn 0.963100 0.240900 -0.120400
vn 0.954400 0.238700 0.179100
vn 0.923100 0.307600 0.230800
vn -0.707200 -0.707000 0.000000
usemtl Shape.022
s off
f 12//1 25//1 26//1
f 4//2 3//2 5//2
f 3//3 4//3 7//3
f 7//3 4//3 8//3
f 6//4 5//4 9//4
f 9//5 7//5 10//5
f 7//6 2//6 10//6
f 6//4 9//4 10//4
f 6//7 8//7 11//7
f 3//3 7//3 12//3
f 7//5 9//5 12//5
f 4//8 11//8 13//8
f 11//7 8//7 13//7
f 4//2 5//2 14//2
f 5//4 6//4 14//4
f 11//8 4//8 14//8
f 8//7 6//7 15//7
f 15//9 2//9 16//9
f 8//7 15//7 16//7
f 10//6 2//6 17//6
f 6//4 10//4 17//4
f 2//9 15//9 17//9
f 5//10 3//10 18//10
f 9//4 5//4 18//4
f 8//3 4//3 19//3
f 13//7 8//7 19//7
f 2//6 7//6 20//6
f 7//3 8//3 20//3
f 16//11 2//11 20//11
f 8//12 16//12 20//12
f 3//3 12//3 21//3
f 18//10 3//10 21//10
f 15//7 6//7 22//7
f 6//4 17//4 22//4
f 17//13 15//13 22//13
f 6//14 11//14 23//14
f 14//4 6//4 23//4
f 11//15 14//15 23//15
f 4//16 13//16 24//16
f 19//3 4//3 24//3
f 13//17 19//17 24//17
f 12//1 9//1 25//1
f 9//4 18//4 25//4
f 18//18 21//18 25//18
f 25//18 21//18 26//18
f 21//3 12//3 26//3
o ShapeIndexedFaceSet.021_ShapeIndexedFaceSet.022
v 0.000000 0.000000 0.000000
v -45.461414 -35.781521 -77.695541
v 38.902023 -37.655876 -40.195549
v 38.902023 -35.781517 -40.195549
v 45.461399 -37.655880 -77.695549
v -30.452969 -39.531151 -40.195545
v -30.452969 -34.843651 -40.195545
v 46.406242 -34.843655 -72.064674
v -30.452972 -39.531155 -77.695541
v 30.443876 -39.531151 -40.195549
v 30.452957 -39.531155 -77.695549
v -46.388084 -38.593288 -48.634510
v -46.406258 -34.843655 -72.064667
v -45.461411 -35.781517 -40.195545
v 46.406246 -38.593288 -59.881584
v 30.443876 -34.843651 -40.195549
v 30.452957 -34.843655 -77.695549
v -46.406258 -38.593288 -72.064667
v 46.406246 -34.843655 -59.881584
v -46.388084 -34.843655 -48.634514
v -30.452972 -34.843655 -77.695541
v -45.461411 -37.655876 -40.195545
v 46.406242 -38.593288 -72.064674
v 45.461399 -35.781521 -77.695549
v -45.461414 -37.655880 -77.695541
v 40.755367 -34.843655 -48.634521
v 45.461403 -35.781521 -56.133785
v 40.755367 -38.593288 -48.634518
v 45.461403 -37.655880 -56.133785
v -46.406254 -38.593288 -59.881573
v -46.406254 -34.843655 -59.881577
v 30.452961 -39.531155 -48.634518
vn 0.058700 -0.998300 0.000000
vn 0.000000 0.000000 1.000000
vn 0.000000 -0.000000 -1.000000
vn 0.000000 -1.000000 0.000000
vn -0.000000 1.000000 -0.000000
vn -0.058700 -0.998300 0.000000
vn -0.986200 0.000000 -0.165500
vn 1.000000 0.000000 -0.000000
vn -0.994000 0.000000 0.109200
vn -0.061900 0.991200 0.117000
vn -0.061400 0.982800 -0.174000
vn -0.123000 -0.984800 0.122900
vn 0.986200 0.000000 -0.165500
vn 0.121900 -0.975600 -0.182900
vn 0.061400 0.982800 -0.174000
vn -0.121900 -0.975600 -0.182900
vn 0.109200 0.985000 0.133500
vn 0.359700 0.915400 0.180700
vn 0.924700 0.000000 0.380600
vn 0.796700 0.507600 0.327900
vn 0.969700 0.000000 0.244500
vn 0.213900 -0.964600 0.154100
vn 0.359600 -0.915500 0.180700
vn 0.152200 -0.985400 0.076500
vn 0.796600 -0.507800 0.327900
vn -0.058800 -0.998300 0.000100
vn -1.000000 0.000000 0.000000
vn -1.000000 0.000000 0.001600
vn -0.000400 -1.000000 -0.000000
vn 0.058700 -0.998300 0.000100
usemtl Shape.021
s off
f 37//19 41//19 58//19
f 29//20 30//20 32//20
f 32//20 30//20 33//20
f 28//21 31//21 35//21
f 32//22 35//22 36//22
f 29//20 32//20 36//20
f 35//21 31//21 37//21
f 36//22 35//22 37//22
f 33//23 34//23 39//23
f 32//20 33//20 40//20
f 33//20 30//20 42//20
f 34//23 33//23 42//23
f 31//21 28//21 43//21
f 39//23 34//23 43//23
f 35//24 32//24 44//24
f 39//25 28//25 44//25
f 41//26 34//26 45//26
f 34//23 42//23 45//23
f 33//23 39//23 46//23
f 38//27 40//27 46//27
f 40//28 33//28 46//28
f 28//29 39//29 47//29
f 43//21 28//21 47//21
f 39//23 43//23 47//23
f 38//30 32//30 48//30
f 40//27 38//27 48//27
f 32//20 40//20 48//20
f 31//31 34//31 49//31
f 37//32 31//32 49//32
f 34//26 41//26 49//26
f 41//19 37//19 49//19
f 34//31 31//31 50//31
f 31//21 43//21 50//21
f 43//33 34//33 50//33
f 28//21 35//21 51//21
f 44//25 28//25 51//25
f 35//34 44//34 51//34
f 42//35 30//35 52//35
f 30//36 45//36 52//36
f 45//23 42//23 52//23
f 30//37 29//37 53//37
f 45//38 30//38 53//38
f 41//39 45//39 53//39
f 29//40 36//40 54//40
f 41//41 29//41 54//41
f 36//42 41//42 54//42
f 29//43 41//43 55//43
f 53//37 29//37 55//37
f 41//39 53//39 55//39
f 32//44 38//44 56//44
f 44//24 32//24 56//24
f 39//45 44//45 56//45
f 38//46 46//46 56//46
f 56//46 46//46 57//46
f 46//23 39//23 57//23
f 39//45 56//45 57//45
f 36//47 37//47 58//47
f 41//48 36//48 58//48
o ShapeIndexedFaceSet.020_ShapeIndexedFaceSet.021
v 0.000000 0.000000 0.000000
v 54.843742 28.900564 -81.445190
v 60.468742 -30.150373 -78.633423
v 60.468742 -30.150373 -82.383057
v 60.468742 28.900564 -82.383057
v 60.468742 28.900564 -77.695557
v 54.843742 -30.150373 -77.695549
v 54.843742 -27.340628 -82.383049
v 54.843742 28.900564 -77.695557
v 60.468742 -28.277210 -77.695557
v 54.843742 27.963984 -82.383057
v 55.781425 -30.150373 -82.383049
v 54.843742 -30.150373 -81.445183
v 59.531059 -30.150373 -77.695557
v 55.781425 28.900564 -82.383057
vn 0.000000 0.000000 -1.000000
vn 1.000000 0.000000 0.000000
vn 0.000000 1.000000 0.000000
vn 0.000000 -1.000000 0.000000
vn -1.000000 -0.000000 0.000000
vn 0.000000 0.000000 1.000000
vn -0.688300 -0.229700 -0.688100
vn 0.666600 -0.333700 0.666500
vn -0.577200 0.577800 -0.577000
usemtl Shape.020
s off
f 63//49 69//49 73//49
f 61//50 62//50 63//50
f 63//51 60//51 64//51
f 61//50 63//50 64//50
f 62//52 61//52 65//52
f 63//49 62//49 66//49
f 65//53 60//53 66//53
f 64//51 60//51 67//51
f 65//54 64//54 67//54
f 60//53 65//53 67//53
f 61//50 64//50 68//50
f 64//54 65//54 68//54
f 63//49 66//49 69//49
f 66//53 60//53 69//53
f 62//52 65//52 70//52
f 66//49 62//49 70//49
f 66//55 70//55 71//55
f 65//53 66//53 71//53
f 70//52 65//52 71//52
f 65//52 61//52 72//52
f 61//56 68//56 72//56
f 68//54 65//54 72//54
f 60//51 63//51 73//51
f 69//57 60//57 73//57
o ShapeIndexedFaceSet.019_ShapeIndexedFaceSet.020
v 0.000000 0.000000 0.000000
v 46.406242 -40.468655 -77.695549
v -46.406258 -34.843655 -82.383041
v -46.406258 -40.468655 -82.383041
v -46.406258 -34.843655 -77.695541
v 46.406242 -34.843655 -82.383049
v -46.406258 -40.468655 -77.695541
v 46.406242 -40.468655 -82.383049
v 46.406242 -34.843655 -77.695549
vn 0.000000 1.000000 0.000000
vn -1.000000 0.000000 0.000000
vn 0.000000 0.000000 -1.000000
vn 0.000000 -1.000000 0.000000
vn 0.000000 0.000000 1.000000
vn 1.000000 0.000000 0.000000
usemtl Shape.019
s off
f 79//58 78//58 82//58
f 76//59 77//59 78//59
f 77//60 76//60 79//60
f 76//58 78//58 79//58
f 77//61 75//61 80//61
f 78//59 77//59 80//59
f 75//62 78//62 80//62
f 75//61 77//61 81//61
f 79//63 75//63 81//63
f 77//60 79//60 81//60
f 78//62 75//62 82//62
f 75//63 79//63 82//63
o ShapeIndexedFaceSet.018_ShapeIndexedFaceSet.019
v 0.000000 0.000000 0.000000
v -57.655888 -25.459291 -40.198662
v -54.843941 36.406345 -77.695549
v -53.906258 36.406345 -77.695549
v -55.781620 35.465637 -40.198666
v -59.531258 28.905245 -77.695541
v -54.843941 -23.584019 -72.063110
v -59.531254 28.899097 -40.198666
v -59.531258 -11.397804 -77.695541
v -54.843937 -11.391653 -40.198666
v -59.531254 -11.391653 -40.198666
v -53.906254 36.406345 -56.136532
v -57.655891 -22.643307 -77.695541
v -54.843937 -26.406153 -48.634144
v -58.593021 -26.406153 -51.448479
v -54.843937 12.956183 -39.258045
v -54.843941 -11.397804 -77.695541
v -54.843937 35.465637 -40.198666
v -56.718758 34.524921 -77.695549
v -59.531254 12.956183 -39.258045
v -53.906258 30.780519 -77.695549
v -55.781620 -25.459291 -40.198662
v -58.593025 -23.584019 -72.063110
v -53.906254 30.780521 -56.136532
v -55.781624 -22.643307 -77.695541
v -56.718754 34.524925 -41.139286
v -54.843937 4.532815 -39.258045
v -58.593021 -26.406153 -48.634144
v -59.531254 4.532815 -39.258045
v -54.843937 -26.406153 -51.448479
v -54.843937 36.406345 -56.136532
v -57.655888 32.649651 -40.198666
v -59.531254 28.905247 -56.136532
v -59.531254 -11.397803 -56.136532
v -55.781624 35.465633 -77.695549
vn -0.708500 0.705800 0.000000
vn 0.000000 -0.000000 -1.000000
vn -1.000000 0.000000 0.000000
vn 0.000000 1.000000 0.000000
vn 0.000000 0.998300 0.058900
vn 0.000000 0.041800 0.999100
vn 0.998300 0.002500 0.058900
vn 1.000000 0.000000 -0.000000
vn 0.998600 -0.022200 -0.048000
vn 0.000000 -0.993800 0.111500
vn 0.990900 -0.066000 0.117600
vn 0.000000 -0.986300 -0.164700
vn -0.968800 -0.161600 -0.188200
vn -0.996600 -0.081900 -0.011200
vn 0.000000 -0.990800 -0.135600
vn 0.999600 -0.013300 0.023700
vn 0.998500 0.000000 0.055500
vn 0.999900 -0.016400 -0.000000
vn 0.980800 -0.081800 -0.176900
vn -0.894300 0.447600 0.000000
vn 0.000000 0.000000 1.000000
vn 0.000000 -0.031300 0.999500
vn 0.662600 -0.044200 0.747700
vn 0.998700 -0.003000 0.050800
vn -0.983600 -0.131100 0.124000
vn -0.998100 -0.062400 0.000000
vn 0.000000 -1.000000 0.000000
vn -0.404500 -0.053900 0.912900
vn 0.999800 -0.017500 -0.002400
vn -0.708200 0.706000 0.000000
vn -0.083300 0.055500 0.995000
vn -0.117000 0.058500 0.991400
vn -0.802600 0.534200 0.265400
vn -0.894400 0.447200 0.000500
vn -0.894400 0.447200 0.000200
usemtl Shape.018
s off
f 101//64 87//64 117//64
f 85//65 86//65 88//65
f 90//66 88//66 91//66
f 88//65 86//65 91//65
f 90//66 91//66 93//66
f 86//67 85//67 94//67
f 91//65 86//65 95//65
f 95//65 86//65 99//65
f 94//68 87//68 100//68
f 87//69 98//69 100//69
f 98//70 94//70 100//70
f 85//65 88//65 101//65
f 90//66 93//66 102//66
f 98//69 87//69 102//69
f 86//71 94//71 103//71
f 99//65 86//65 103//65
f 89//72 99//72 103//72
f 84//73 96//73 104//73
f 96//74 92//74 104//74
f 95//75 89//75 105//75
f 91//76 95//76 105//76
f 97//77 91//77 105//77
f 89//78 97//78 105//78
f 92//79 96//79 106//79
f 94//80 98//80 106//80
f 103//71 94//71 106//71
f 96//81 103//81 106//81
f 89//75 95//75 107//75
f 99//82 89//82 107//82
f 95//65 99//65 107//65
f 87//64 101//64 108//64
f 101//83 88//83 108//83
f 98//84 102//84 109//84
f 84//85 104//85 109//85
f 104//86 92//86 109//86
f 92//87 106//87 109//87
f 106//80 98//80 109//80
f 84//88 93//88 110//88
f 96//73 84//73 110//73
f 91//89 97//89 110//89
f 97//90 96//90 110//90
f 93//91 84//91 111//91
f 102//66 93//66 111//66
f 84//85 109//85 111//85
f 109//84 102//84 111//84
f 97//78 89//78 112//78
f 96//90 97//90 112//90
f 89//92 103//92 112//92
f 103//81 96//81 112//81
f 85//93 87//93 113//93
f 94//67 85//67 113//67
f 87//68 94//68 113//68
f 102//94 87//94 114//94
f 90//95 102//95 114//95
f 87//96 108//96 114//96
f 108//97 90//97 114//97
f 88//66 90//66 115//66
f 90//98 108//98 115//98
f 108//83 88//83 115//83
f 93//66 91//66 116//66
f 110//89 93//89 116//89
f 91//89 110//89 116//89
f 87//93 85//93 117//93
f 85//65 101//65 117//65
o ShapeIndexedFaceSet.017_ShapeIndexedFaceSet.018
v 0.000000 0.000000 0.000000
v -59.531254 -26.406153 -37.383041
v -60.468754 12.968847 -40.195545
v -59.531254 12.968847 -40.195545
v -60.468754 -26.406153 -40.195541
v -60.468754 12.968847 -37.383045
v -59.531254 12.968847 -37.383045
v -59.531254 -26.406153 -40.195541
v -60.468754 -26.406153 -37.383041
vn -1.000000 0.000000 0.000000
vn 0.000000 -0.000000 -1.000000
vn 0.000000 1.000000 0.000000
vn 1.000000 0.000000 0.000000
vn 0.000000 0.000000 1.000000
vn 0.000000 -1.000000 0.000000
usemtl Shape.017
s off
f 123//99 122//99 126//99
f 120//100 121//100 122//100
f 121//101 120//101 123//101
f 120//99 122//99 123//99
f 119//102 121//102 124//102
f 123//103 119//103 124//103
f 121//101 123//101 124//101
f 121//102 119//102 125//102
f 122//100 121//100 125//100
f 119//104 122//104 125//104
f 122//104 119//104 126//104
f 119//103 123//103 126//103
o ShapeIndexedFaceSet.016_ShapeIndexedFaceSet.017
v 0.000000 0.000000 0.000000
v -41.717289 -21.715532 -39.258045
v -54.837147 12.968847 -40.195545
v -59.531258 4.528044 -40.195545
v 26.718750 12.028410 -40.195553
v -54.837147 12.968847 -39.258045
v -55.774281 -26.406153 -40.195541
v 26.718750 12.968847 -39.258053
v -59.531258 -22.652115 -39.258041
v -41.717289 -21.715532 -40.195545
v -59.531258 4.528044 -39.258045
v -59.531258 -22.652115 -40.195541
v -52.017307 -26.406153 -39.258045
v 26.718750 12.968847 -40.195553
v 26.718750 12.028410 -39.258053
v -5.160657 -3.908906 -40.195549
v -52.017307 -26.406153 -40.195545
v -57.648548 -25.461863 -39.258041
v -5.160657 -3.908906 -39.258049
v -55.774281 -26.406153 -39.258041
v -57.648548 -25.461863 -40.195541
v -3.286391 -2.972324 -40.195549
v -3.286391 -2.972324 -39.258049
vn 0.447200 -0.894500 0.000000
vn -0.000000 0.000000 -1.000000
vn -0.873900 0.486000 0.000000
vn 0.000000 0.000000 1.000000
vn 0.000000 1.000000 0.000000
vn -1.000000 -0.000000 0.000000
vn 0.414400 -0.910100 0.000000
vn 1.000000 0.000000 0.000000
vn 0.437900 -0.899000 0.000000
vn 0.000000 -1.000000 0.000000
vn -0.830700 -0.556700 0.000000
vn -0.449900 -0.893100 0.000000
vn 0.447200 -0.894400 0.000000
vn 0.009300 -0.000500 -1.000000
vn 0.447000 -0.894500 0.000000
vn 0.002300 0.000500 1.000000
usemtl Shape.016
s off
f 148//105 141//105 149//105
f 130//106 129//106 131//106
f 129//107 130//107 132//107
f 130//106 131//106 133//106
f 132//108 128//108 134//108
f 129//109 132//109 134//109
f 128//108 132//108 135//108
f 133//106 131//106 136//106
f 132//107 130//107 137//107
f 135//108 132//108 137//108
f 130//110 135//110 137//110
f 130//106 133//106 138//106
f 135//110 130//110 138//110
f 128//108 135//108 139//108
f 136//111 128//111 139//111
f 131//106 129//106 140//106
f 129//109 134//109 140//109
f 134//112 131//112 140//112
f 131//112 134//112 141//112
f 134//108 128//108 141//108
f 128//113 136//113 142//113
f 136//106 131//106 142//106
f 133//106 136//106 143//106
f 139//114 133//114 143//114
f 136//111 139//111 143//111
f 135//115 138//115 144//115
f 139//108 135//108 144//108
f 141//108 128//108 145//108
f 128//113 142//113 145//113
f 133//114 139//114 146//114
f 144//116 133//116 146//116
f 139//108 144//108 146//108
f 138//106 133//106 147//106
f 133//116 144//116 147//116
f 144//115 138//115 147//115
f 131//117 141//117 148//117
f 142//118 131//118 148//118
f 145//119 142//119 148//119
f 145//119 148//119 149//119
f 141//120 145//120 149//120
o ShapeIndexedFaceSet.015_ShapeIndexedFaceSet.016
v 0.000000 0.000000 0.000000
v 30.465992 -15.152665 -37.383053
v -28.593754 12.968847 -38.320545
v -28.593754 12.029696 -38.320545
v 40.781246 12.968847 -38.320553
v 40.781246 -18.906153 -38.320553
v 40.781246 12.968847 -37.383053
v -28.593754 12.968847 -37.383045
v 40.781246 -18.906153 -37.383053
v -21.089899 8.279328 -37.383049
v 38.900188 -18.906153 -38.320553
v -21.089899 8.279328 -38.320549
v 38.900188 -18.906153 -37.383053
v -28.593754 12.029696 -37.383045
v 30.465992 -15.152665 -38.320553
v -0.466183 -1.096589 -38.320549
v -0.466183 -1.096589 -37.383049
vn -0.413700 -0.910400 0.000000
vn -0.000000 0.000000 -1.000000
vn 0.000000 1.000000 0.000000
vn 1.000000 0.000000 0.000000
vn -1.000000 0.000000 0.000000
vn 0.000000 -0.000000 1.000000
vn 0.000000 -1.000000 0.000000
vn -0.447100 -0.894500 0.000000
vn -0.406600 -0.913600 0.000000
vn -0.000900 -0.000600 -1.000000
vn -0.413900 -0.910300 0.000000
vn 0.000000 0.000600 1.000000
usemtl Shape.015
s off
f 165//121 151//121 166//121
f 153//122 152//122 154//122
f 153//122 154//122 155//122
f 154//123 152//123 156//123
f 155//124 154//124 156//124
f 152//125 153//125 157//125
f 156//123 152//123 157//123
f 151//126 156//126 157//126
f 156//126 151//126 158//126
f 155//124 156//124 158//124
f 151//126 157//126 159//126
f 153//122 155//122 160//122
f 155//127 158//127 160//127
f 159//128 153//128 161//128
f 153//122 160//122 161//122
f 158//126 151//126 162//126
f 151//129 160//129 162//129
f 160//127 158//127 162//127
f 157//125 153//125 163//125
f 153//128 159//128 163//128
f 159//126 157//126 163//126
f 160//129 151//129 164//129
f 161//122 160//122 164//122
f 161//130 164//130 165//130
f 159//131 161//131 165//131
f 164//121 151//121 165//121
f 159//131 165//131 166//131
f 151//132 159//132 166//132
o ShapeIndexedFaceSet.014_ShapeIndexedFaceSet.015
v 0.000000 0.000000 0.000000
v -59.531254 -29.219753 -56.133041
v -46.406254 -40.468651 -40.195541
v -46.406254 -34.842827 -40.195545
v -46.406254 -40.468655 -56.133041
v -55.781071 -35.778858 -40.195541
v -54.843204 -26.406153 -56.133041
v -58.593388 -26.406153 -40.195541
v -54.843204 -36.716270 -56.133041
v -46.406254 -34.842831 -56.133045
v -54.843204 -26.406153 -40.195541
v -59.531254 -29.219753 -40.195541
v -48.281986 -40.468651 -42.070724
v -58.593388 -26.406153 -56.133041
v -56.716366 -34.842831 -52.382675
v -48.281986 -40.468655 -56.133041
v -59.531254 -27.346313 -47.696274
v -54.843204 -36.716267 -41.133133
v -56.716366 -34.842827 -43.008316
v -59.531254 -27.346313 -56.133041
v -57.655521 -32.969387 -56.133041
v -47.344120 -40.468651 -40.195541
v -59.531254 -28.283722 -40.195541
v -57.655521 -32.969383 -40.195541
v -52.968754 -37.653671 -40.195541
v -55.781071 -35.778862 -56.133041
vn -0.829900 -0.553700 -0.068800
vn 1.000000 0.000000 0.000000
vn -0.000000 0.000000 1.000000
vn 0.000000 0.000000 -1.000000
vn 0.707100 0.707100 -0.000000
vn 0.000000 1.000000 0.000000
vn -0.000000 -1.000000 0.000000
vn -0.496400 -0.868100 0.000000
vn -1.000000 0.000000 0.000000
vn -0.708000 0.706200 0.000000
vn -0.706900 -0.707300 0.000000
vn -0.707400 -0.706800 0.000000
vn -0.894300 -0.447400 0.000000
vn -0.894000 -0.448100 0.000000
vn -0.893200 0.446200 0.055800
vn -0.828400 -0.552700 0.091500
vn -0.534600 -0.801900 0.267000
vn -0.483600 -0.869900 0.097100
vn -0.436700 -0.872700 0.218400
usemtl Shape.014
s off
f 181//133 187//133 192//133
f 170//134 169//134 171//134
f 169//135 170//135 172//135
f 171//136 168//136 173//136
f 172//135 170//135 174//135
f 168//136 171//136 175//136
f 170//134 171//134 176//134
f 173//137 170//137 176//137
f 171//136 173//136 176//136
f 170//137 173//137 177//137
f 174//135 170//135 177//135
f 173//138 174//138 177//138
f 172//135 174//135 178//135
f 171//139 169//139 179//139
f 173//136 168//136 180//136
f 174//138 173//138 180//138
f 175//136 171//136 182//136
f 171//139 179//139 182//139
f 179//140 175//140 182//140
f 168//141 178//141 183//141
f 174//142 180//142 183//142
f 172//143 175//143 184//143
f 175//140 179//140 184//140
f 181//144 172//144 185//144
f 180//136 168//136 186//136
f 168//141 183//141 186//141
f 183//142 180//142 186//142
f 168//136 175//136 187//136
f 178//145 168//145 187//145
f 181//146 185//146 187//146
f 169//135 172//135 188//135
f 179//139 169//139 188//139
f 178//135 174//135 189//135
f 183//141 178//141 189//141
f 174//147 183//147 189//147
f 172//135 178//135 190//135
f 185//148 172//148 190//148
f 178//145 187//145 190//145
f 187//146 185//146 190//146
f 172//149 184//149 191//149
f 184//150 179//150 191//150
f 188//135 172//135 191//135
f 179//151 188//151 191//151
f 175//143 172//143 192//143
f 172//144 181//144 192//144
f 187//136 175//136 192//136
o ShapeIndexedFaceSet.013_ShapeIndexedFaceSet.014
v 0.000000 0.000000 0.000000
v 59.531246 -27.342184 -40.195553
v 54.843742 -7.657990 -77.695557
v 54.843746 5.468846 -60.813946
v 54.843746 -35.781151 -40.195553
v 59.531242 -29.215717 -77.695557
v 58.593380 5.468847 -48.634521
v 57.655968 5.468846 -74.880119
v 54.843742 -30.152485 -77.695549
v 55.781612 2.650474 -40.195553
v 59.531242 -9.527484 -77.695557
v 59.531246 -7.653950 -40.195553
v 55.781612 -35.781155 -56.133785
v 54.843746 5.468847 -49.570553
v 57.655972 -32.966816 -40.195553
v 55.781609 5.468846 -74.880119
v 54.843746 -7.653950 -40.195553
v 57.655972 3.591278 -40.195553
v 58.593380 5.468846 -61.757320
v 54.843746 -35.781155 -56.133785
v 56.719021 -34.840347 -41.135254
v 57.655968 -30.152485 -77.695549
v 59.531246 -28.278952 -43.010990
v 56.719021 -34.840351 -56.133785
v 55.781612 -35.781151 -40.195553
v 59.531242 -29.215717 -71.128654
v 56.719021 3.591278 -40.195553
v 56.719017 -7.657990 -77.695557
v 59.531246 -7.653950 -42.071285
v 56.719021 5.468847 -48.634521
v 55.781612 3.591278 -42.071285
v 59.531246 -8.594754 -60.813946
vn 0.997800 0.066300 -0.003300
vn -1.000000 0.000000 0.000000
vn -0.000000 1.000000 -0.000000
vn -0.000000 -0.000000 -1.000000
vn 0.000000 0.000000 1.000000
vn 1.000000 0.000000 -0.000000
vn -0.994200 0.085200 -0.066300
vn 0.000000 0.209700 -0.977800
vn -0.988000 0.089900 0.125900
vn 0.976000 0.162800 0.144600
vn 0.988100 0.136800 -0.070600
vn 0.997500 0.071300 -0.000000
vn 0.000000 -1.000000 0.000000
vn 0.000000 -0.967600 -0.252600
vn 0.438600 -0.878100 -0.191100
vn 0.943500 -0.314600 0.104700
vn 0.705400 -0.702900 -0.091300
vn 0.894400 -0.447200 -0.000000
vn 0.708400 -0.705800 0.000000
vn 0.894400 -0.447300 0.000000
vn 0.802500 -0.534400 0.265400
vn 0.894500 -0.447200 0.000000
vn 0.930900 -0.365100 0.012200
vn 0.000000 0.976100 0.217200
vn 0.132200 0.198800 -0.971100
vn -0.107800 0.970400 0.215900
vn -0.873600 0.434900 0.218200
vn -0.535300 0.801200 0.267500
vn -0.667800 0.665400 0.333700
vn 0.997800 0.066300 -0.003700
vn 1.000000 -0.000200 0.000000
usemtl Shape.013
s off
f 211//152 221//152 224//152
f 196//153 195//153 197//153
f 196//154 199//154 200//154
f 197//153 195//153 201//153
f 195//155 198//155 201//155
f 197//156 194//156 202//156
f 194//157 198//157 203//157
f 198//155 195//155 203//155
f 202//156 194//156 204//156
f 194//157 203//157 204//157
f 196//153 197//153 206//153
f 199//154 196//154 206//154
f 194//156 197//156 207//156
f 195//158 196//158 208//158
f 196//154 200//154 208//154
f 200//159 195//159 208//159
f 197//156 202//156 209//156
f 206//153 197//153 209//153
f 202//160 206//160 209//160
f 202//156 204//156 210//156
f 204//161 199//161 210//161
f 200//154 199//154 211//154
f 203//162 200//162 211//162
f 199//163 204//163 211//163
f 197//153 201//153 212//153
f 205//164 197//164 212//164
f 201//165 205//165 212//165
f 201//155 198//155 214//155
f 198//166 205//166 214//166
f 205//165 201//165 214//165
f 198//157 194//157 215//157
f 194//167 207//167 215//167
f 205//168 198//168 216//168
f 198//169 207//169 216//169
f 213//170 205//170 216//170
f 207//171 213//171 216//171
f 197//164 205//164 217//164
f 207//156 197//156 217//156
f 205//170 213//170 217//170
f 213//172 207//172 217//172
f 207//173 198//173 218//173
f 198//157 215//157 218//157
f 215//174 207//174 218//174
f 202//156 210//156 219//156
f 210//175 199//175 219//175
f 195//159 200//159 220//159
f 203//155 195//155 220//155
f 200//176 203//176 220//176
f 204//157 203//157 221//157
f 211//163 204//163 221//163
f 199//154 206//154 222//154
f 219//175 199//175 222//175
f 206//177 219//177 222//177
f 206//178 202//178 223//178
f 219//179 206//179 223//179
f 202//180 219//180 223//180
f 203//181 211//181 224//181
f 221//182 203//182 224//182
o ShapeIndexedFaceSet.012_ShapeIndexedFaceSet.013
v 0.000000 0.000000 0.000000
v -53.905525 39.218479 -82.383049
v -53.905521 30.781347 -40.195545
v -46.406254 34.531898 -40.195545
v -46.406258 34.531895 -82.383049
v -48.281895 40.156349 -40.195545
v -46.406258 40.156345 -82.383049
v -53.905525 32.657078 -82.383049
v -54.843754 36.405800 -43.011898
v -54.843754 30.781347 -56.135616
v -52.968117 40.156345 -77.687752
v -46.406254 38.280617 -40.195545
v -53.905521 37.343666 -41.137081
v -49.219303 40.156349 -40.195545
v -54.843754 30.781347 -40.195545
v -53.905521 30.781347 -56.135616
v -54.843754 36.405796 -52.385983
v -52.968117 32.657078 -82.383049
v -47.344486 40.156345 -52.385983
v -52.968117 40.156345 -82.383049
v -52.968113 37.343666 -40.195545
v -53.905525 39.218479 -77.687752
v -54.843754 32.657082 -40.195545
v -46.406258 40.156345 -77.687752
v -54.843754 32.657078 -56.135616
vn -1.000000 0.000000 0.000000
vn 0.447300 -0.894400 0.000000
vn 0.000000 0.000000 1.000000
vn 1.000000 0.000000 -0.000000
vn -0.000000 0.000000 -1.000000
vn -0.999400 0.000000 -0.035700
vn -0.000000 1.000000 -0.000000
vn -0.521600 0.851600 0.052200
vn 0.000000 -1.000000 0.000000
vn 0.000000 -0.997500 -0.071300
vn -0.948600 0.316400 -0.000000
vn 0.274200 -0.959900 -0.058800
vn 0.706100 0.706000 0.054300
vn -0.707300 0.706900 0.000000
vn -0.515200 0.686700 0.512900
vn -0.740100 0.671600 0.034400
vn -0.706800 0.706500 0.036200
vn -0.910200 0.248700 0.331100
vn -0.681800 0.272900 0.678800
vn 0.803000 0.595200 0.029800
vn -0.999200 0.028600 -0.028600
usemtl Shape.012
s off
f 234//183 241//183 249//183
f 228//184 227//184 229//184
f 227//185 228//185 230//185
f 228//186 229//186 231//186
f 229//187 226//187 231//187
f 226//187 229//187 232//187
f 226//188 232//188 234//188
f 230//189 231//189 235//189
f 230//185 228//185 236//185
f 228//186 231//186 236//186
f 235//190 237//190 238//190
f 227//185 230//185 238//185
f 230//189 235//189 238//189
f 234//191 227//191 239//191
f 233//183 234//183 239//183
f 227//185 238//185 239//185
f 229//184 227//184 240//184
f 227//191 234//191 240//191
f 234//192 232//192 240//192
f 233//193 226//193 241//193
f 234//183 233//183 241//183
f 232//187 229//187 242//187
f 229//194 240//194 242//194
f 240//192 232//192 242//192
f 231//189 230//189 243//189
f 230//195 236//195 243//195
f 231//187 226//187 244//187
f 235//189 231//189 244//189
f 226//196 235//196 244//196
f 238//197 237//197 245//197
f 239//185 238//185 245//185
f 226//193 233//193 246//193
f 235//196 226//196 246//196
f 233//198 237//198 246//198
f 237//199 235//199 246//199
f 237//200 233//200 247//200
f 233//183 239//183 247//183
f 245//201 237//201 247//201
f 239//185 245//185 247//185
f 236//186 231//186 248//186
f 231//189 243//189 248//189
f 243//202 236//202 248//202
f 226//188 234//188 249//188
f 241//203 226//203 249//203
o ShapeIndexedFaceSet.011_ShapeIndexedFaceSet.012
v 0.000000 0.000000 0.000000
v -60.468758 30.771893 -78.633408
v -53.906258 -38.593655 -78.633408
v -53.906258 -38.593655 -82.383041
v -53.906258 39.218845 -82.383049
v -60.468758 -31.083559 -82.383041
v -53.906258 39.218845 -77.695549
v -60.468758 -31.083559 -77.695541
v -60.468758 30.771893 -82.383041
v -53.906258 -37.649181 -77.695541
v -59.530891 33.590084 -77.695549
v -57.655800 -37.649181 -77.695541
v -57.655800 37.329895 -82.383049
v -57.655800 -37.649181 -82.383041
v -56.719215 38.274372 -77.695549
v -60.468758 28.905794 -77.695541
v -59.530891 34.526939 -82.383049
v -59.530891 -33.901749 -82.383041
v -59.530891 34.526939 -78.633415
v -55.781349 -38.593655 -82.383041
v -54.844124 39.218845 -82.383049
v -59.530891 -33.901749 -77.695541
v -55.781349 -38.593655 -78.633408
v -57.655800 37.329895 -77.695549
v -56.719215 38.274372 -82.383049
v -54.844124 39.218845 -77.695549
v -58.593666 -35.775463 -82.383041
v -58.593666 -35.775463 -77.695541
vn -0.894200 -0.447600 0.000000
vn 1.000000 0.000000 0.000000
vn 0.000000 -0.000000 -1.000000
vn -1.000000 0.000000 0.000000
vn -0.000000 0.000000 1.000000
vn 0.000000 -0.704600 0.709600
vn -0.913300 0.182900 0.363900
vn -0.970200 0.242300 0.000000
vn -0.948800 -0.315800 0.000000
vn -0.943000 0.235500 0.235300
vn -0.831200 0.556000 0.000000
vn 0.000000 -1.000000 0.000000
vn -0.450000 -0.893000 0.000000
vn 0.000000 1.000000 0.000000
vn -0.710100 0.704100 0.000000
vn -0.815900 0.409100 0.408600
vn -0.449900 0.893100 0.000000
vn -0.025500 0.000000 -0.999700
vn -0.894400 -0.447400 0.000000
usemtl Shape.011
s off
f 276//204 261//204 277//204
f 252//205 253//205 254//205
f 254//206 253//206 255//206
f 252//205 254//205 256//205
f 251//207 255//207 257//207
f 255//207 251//207 258//207
f 254//206 255//206 258//206
f 252//205 256//205 259//205
f 256//208 257//208 259//208
f 257//208 256//208 260//208
f 252//209 259//209 261//209
f 259//208 257//208 261//208
f 254//206 258//206 262//206
f 255//206 253//206 263//206
f 260//208 256//208 264//208
f 251//207 257//207 265//207
f 260//210 251//210 265//210
f 257//208 260//208 265//208
f 258//211 251//211 266//211
f 262//206 258//206 266//206
f 257//212 255//212 267//212
f 255//206 263//206 267//206
f 251//213 260//213 268//213
f 266//211 251//211 268//211
f 262//214 266//214 268//214
f 253//215 252//215 269//215
f 263//206 253//206 269//206
f 261//216 263//216 269//216
f 256//217 254//217 270//217
f 254//206 262//206 270//206
f 261//208 257//208 271//208
f 257//212 267//212 271//212
f 252//209 261//209 272//209
f 269//215 252//215 272//215
f 261//216 269//216 272//216
f 260//208 264//208 273//208
f 264//218 262//218 273//218
f 268//219 260//219 273//219
f 262//214 268//214 273//214
f 262//218 264//218 274//218
f 270//206 262//206 274//206
f 264//220 270//220 274//220
f 264//208 256//208 275//208
f 256//217 270//217 275//217
f 270//220 264//220 275//220
f 263//204 261//204 276//204
f 267//221 263//221 276//221
f 271//222 267//222 276//222
f 271//222 276//222 277//222
f 261//208 271//208 277//208
o ShapeIndexedFaceSet.010_ShapeIndexedFaceSet.011
v 0.000000 0.000000 0.000000
v -53.906258 -32.969387 -82.383041
v -46.406254 -40.468655 -56.133041
v -46.406254 -34.844204 -56.133045
v -46.406258 -40.468655 -82.383041
v -53.906254 -36.718197 -56.133041
v -53.906258 -39.530422 -82.383041
v -46.406258 -34.844204 -82.383041
v -52.968754 -32.031155 -56.133041
v -48.281254 -40.468655 -56.133041
v -52.968758 -32.031155 -79.569443
v -53.906254 -32.031155 -56.133041
v -51.093758 -40.468655 -82.383041
v -53.906258 -39.530422 -77.691139
v -52.968754 -37.655605 -56.133041
v -53.906258 -32.031155 -79.569443
v -51.093758 -40.468655 -78.629005
v -52.968758 -32.969387 -82.383041
vn 0.261600 0.915600 -0.305300
vn 1.000000 -0.000000 -0.000000
vn 0.000000 0.000000 1.000000
vn -0.000000 0.000000 -1.000000
vn -1.000000 0.000000 0.000000
vn 0.394000 0.919100 -0.000000
vn 0.000000 -1.000000 -0.000000
vn 0.000000 1.000000 0.000000
vn -0.316400 -0.948600 0.000000
vn -0.512200 -0.853400 0.096500
vn -0.704100 -0.704200 0.091900
vn 0.000000 0.948600 -0.316300
vn -0.304800 -0.951700 0.038100
vn -0.316500 -0.948600 0.000000
usemtl Shape.010
s off
f 288//223 285//223 295//223
f 281//224 280//224 282//224
f 280//225 281//225 283//225
f 279//226 282//226 284//226
f 283//227 279//227 284//227
f 281//224 282//224 285//224
f 282//226 279//226 285//226
f 283//225 281//225 286//225
f 281//228 285//228 286//228
f 282//229 280//229 287//229
f 280//225 283//225 287//225
f 286//228 285//228 288//228
f 286//230 288//230 289//230
f 279//227 283//227 289//227
f 283//225 286//225 289//225
f 284//226 282//226 290//226
f 282//229 287//229 290//229
f 283//227 284//227 291//227
f 284//231 290//231 291//231
f 287//225 283//225 292//225
f 291//232 287//232 292//232
f 283//233 291//233 292//233
f 288//234 279//234 293//234
f 289//230 288//230 293//230
f 279//227 289//227 293//227
f 290//229 287//229 294//229
f 287//235 291//235 294//235
f 291//236 290//236 294//236
f 285//226 279//226 295//226
f 279//234 288//234 295//234
o ShapeIndexedFaceSet.009_ShapeIndexedFaceSet.010
v 0.000000 0.000000 0.000000
v 57.648167 37.343845 -77.695557
v -46.406254 40.156345 -82.383049
v -46.406254 34.531345 -82.383049
v 58.593739 34.531345 -82.383057
v -46.406254 34.531345 -77.695549
v -46.406254 40.156345 -77.695549
v 52.961399 40.156345 -82.383057
v 58.593739 34.531345 -77.695557
v 52.961399 40.156345 -77.695557
v 56.712868 38.280979 -82.383057
v 58.593739 35.469028 -82.383057
v 56.712868 38.280979 -77.695557
v 58.593739 35.469028 -77.695557
v 57.648167 37.343845 -82.383057
vn 0.892900 0.450300 0.000000
vn -0.000000 0.000000 -1.000000
vn -1.000000 0.000000 0.000000
vn 0.000000 -1.000000 0.000000
vn 0.000000 0.000000 1.000000
vn 0.000000 1.000000 0.000000
vn 0.447100 0.894500 0.000000
vn 1.000000 0.000000 0.000000
vn 0.707800 0.706400 0.000000
usemtl Shape.009
s off
f 297//237 307//237 310//237
f 299//238 298//238 300//238
f 298//239 299//239 301//239
f 299//240 300//240 301//240
f 301//241 297//241 302//241
f 298//239 301//239 302//239
f 300//238 298//238 303//238
f 298//242 302//242 303//242
f 297//241 301//241 304//241
f 301//240 300//240 304//240
f 302//241 297//241 305//241
f 303//242 302//242 305//242
f 303//243 305//243 306//243
f 300//238 303//238 306//238
f 300//238 306//238 307//238
f 304//244 300//244 307//244
f 305//241 297//241 308//241
f 306//243 305//243 308//243
f 297//245 306//245 308//245
f 297//241 304//241 309//241
f 307//237 297//237 309//237
f 304//244 307//244 309//244
f 306//245 297//245 310//245
f 307//238 306//238 310//238
o ShapeIndexedFaceSet.008_ShapeIndexedFaceSet.009
v 0.000000 0.000000 0.000000
v 57.655144 32.657078 -56.133057
v 46.406242 39.218113 -77.693718
v 46.406242 34.531345 -77.693718
v 60.468742 28.906345 -82.383057
v 54.842922 28.906347 -56.133057
v 49.219849 40.156345 -56.133057
v 59.529957 34.531345 -82.383057
v 46.406246 34.531345 -56.133053
v 55.780323 28.906345 -82.383057
v 49.219845 40.156345 -77.693718
v 53.905514 37.343845 -56.133057
v 57.655144 28.906347 -56.133057
v 47.345032 40.156345 -56.133057
v 52.969475 34.531345 -82.383057
v 60.468742 30.781712 -77.691154
v 54.842918 28.906345 -80.507324
v 59.529957 34.531345 -77.691154
v 46.406246 38.280979 -56.133057
v 56.717735 34.531345 -56.133057
v 47.345028 40.156345 -77.693718
v 60.468742 28.906345 -77.691154
v 53.905510 30.781712 -82.383057
v 46.406242 39.218113 -66.447021
v 60.468742 30.781712 -82.383057
v 52.969475 32.657078 -82.383057
vn 0.000000 0.000000 -1.000000
vn 0.000000 0.000000 1.000000
vn -1.000000 0.000000 0.000000
vn -0.554700 -0.832000 0.000000
vn 0.000000 -1.000000 0.000000
vn 0.478900 0.877800 0.000000
vn 0.000000 1.000000 0.000000
vn -0.581300 0.000000 -0.813700
vn 0.000000 0.640300 -0.768100
vn 0.991600 0.000000 0.129400
vn -0.596300 -0.745400 -0.298000
vn 0.514500 0.857200 0.022400
vn 0.964700 0.241500 0.104900
vn 0.970100 0.242900 0.000000
vn 0.888300 0.444300 0.115900
vn 0.704200 0.704100 0.091900
vn -0.706900 0.707300 0.000000
vn -0.359000 0.359200 -0.861500
vn 1.000000 0.000000 0.000000
vn -0.615600 -0.615400 -0.492300
vn -0.893500 0.447300 0.040600
vn -0.609800 -0.304400 -0.731800
usemtl Shape.008
s off
f 325//246 333//246 336//246
f 316//247 312//247 317//247
f 313//248 314//248 319//248
f 314//249 316//249 319//249
f 316//247 317//247 319//247
f 315//250 316//250 320//250
f 318//246 315//246 320//246
f 317//251 318//251 321//251
f 317//247 312//247 322//247
f 312//247 316//247 323//247
f 316//250 315//250 323//250
f 319//247 317//247 324//247
f 317//252 321//252 324//252
f 314//253 313//253 325//253
f 318//246 320//246 325//246
f 321//254 318//254 325//254
f 312//255 323//255 326//255
f 316//249 314//249 327//249
f 314//256 320//256 327//256
f 320//250 316//250 327//250
f 318//251 317//251 328//251
f 317//257 322//257 328//257
f 312//258 326//258 328//258
f 326//259 318//259 328//259
f 313//248 319//248 329//248
f 319//247 324//247 329//247
f 322//247 312//247 330//247
f 312//260 328//260 330//260
f 328//261 322//261 330//261
f 313//262 324//262 331//262
f 324//252 321//252 331//252
f 325//263 313//263 331//263
f 321//254 325//254 331//254
f 323//250 315//250 332//250
f 315//264 326//264 332//264
f 326//255 323//255 332//255
f 320//265 314//265 333//265
f 325//246 320//246 333//246
f 324//262 313//262 334//262
f 313//248 329//248 334//248
f 329//266 324//266 334//266
f 315//246 318//246 335//246
f 318//259 326//259 335//259
f 326//264 315//264 335//264
f 314//253 325//253 336//253
f 333//267 314//267 336//267
o ShapeIndexedFaceSet.007_ShapeIndexedFaceSet.008
v 0.000000 0.000000 0.000000
v 56.717735 -34.844021 -56.133053
v 46.406242 -34.844021 -82.383049
v 53.905510 -30.156155 -82.383049
v 57.655140 -37.655331 -82.383049
v 46.406246 -40.468655 -56.133053
v 46.406246 -34.844021 -56.133053
v 57.655144 -30.156153 -56.133053
v 46.406242 -40.468655 -82.383049
v 60.468742 -30.156155 -82.383057
v 53.905514 -30.156153 -58.008785
v 48.282440 -40.468655 -56.133053
v 51.096035 -40.468655 -82.383049
v 57.655140 -37.655331 -77.691147
v 60.468742 -31.093929 -78.629021
v 54.842922 -36.718563 -56.133053
v 57.655144 -32.969479 -56.133053
v 53.904133 -39.529869 -77.691147
v 59.529957 -33.906246 -77.691147
v 59.529957 -33.906246 -82.383049
v 53.905514 -31.093927 -56.133053
v 51.096035 -40.468655 -77.691147
v 60.468742 -30.156155 -78.629021
v 53.904133 -39.529869 -82.383049
v 60.468742 -31.093929 -82.383057
v 54.842922 -30.156153 -57.070919
v 56.717735 -30.156153 -56.133053
v 55.780323 -38.593105 -77.691147
v 55.780323 -38.593105 -82.383049
vn 0.447400 -0.894400 0.000000
vn 0.000000 0.000000 -1.000000
vn -1.000000 0.000000 0.000000
vn -0.530100 0.848000 0.000000
vn 0.000000 0.000000 1.000000
vn -0.000000 1.000000 0.000000
vn 0.000000 -1.000000 0.000000
vn 0.701800 -0.701900 0.122000
vn 0.493700 -0.863700 0.101900
vn 0.992300 0.000000 0.124100
vn 0.894400 -0.447300 0.000000
vn 0.890200 -0.445200 0.096800
vn 0.953300 -0.286400 0.095400
vn 0.948500 -0.316600 0.000000
vn 0.316800 -0.947600 0.041300
vn 0.317100 -0.948400 0.000000
vn 1.000000 0.000000 0.000000
vn -0.408300 0.816500 0.408100
vn -0.408300 0.816500 0.408300
vn -0.267400 0.801800 0.534500
vn 0.446000 -0.891700 0.077500
vn 0.445400 -0.892000 0.077300
vn 0.446700 -0.894700 0.000000
usemtl Shape.007
s off
f 341//268 364//268 365//268
f 339//269 340//269 341//269
f 339//270 342//270 343//270
f 340//271 339//271 343//271
f 342//272 338//272 343//272
f 343//272 338//272 344//272
f 339//269 341//269 345//269
f 342//270 339//270 345//270
f 341//269 340//269 346//269
f 340//273 344//273 346//273
f 340//271 343//271 347//271
f 344//273 340//273 347//273
f 338//272 342//272 348//272
f 342//274 345//274 348//274
f 348//274 345//274 349//274
f 345//269 341//269 349//269
f 338//272 348//272 352//272
f 350//275 338//275 352//275
f 348//276 350//276 352//276
f 344//272 338//272 353//272
f 351//277 344//277 353//277
f 350//278 341//278 355//278
f 338//279 350//279 355//279
f 353//279 338//279 355//279
f 351//280 353//280 355//280
f 341//269 346//269 356//269
f 355//278 341//278 356//278
f 351//281 355//281 356//281
f 343//272 344//272 357//272
f 348//274 349//274 358//274
f 354//282 348//282 358//282
f 349//283 354//283 358//283
f 346//273 344//273 359//273
f 344//277 351//277 359//277
f 351//284 346//284 359//284
f 349//269 341//269 360//269
f 354//283 349//283 360//283
f 346//284 351//284 361//284
f 356//269 346//269 361//269
f 351//281 356//281 361//281
f 347//285 343//285 362//285
f 344//273 347//273 362//273
f 343//286 357//286 362//286
f 362//287 357//287 363//287
f 357//272 344//272 363//272
f 344//273 362//273 363//273
f 341//268 350//268 364//268
f 350//288 348//288 364//288
f 348//289 354//289 364//289
f 354//290 360//290 364//290
f 364//290 360//290 365//290
f 360//269 341//269 365//269
o ShapeIndexedFaceSet.006_ShapeIndexedFaceSet.007
v 0.000000 0.000000 0.000000
v -46.406258 38.281345 -72.064674
v 38.892941 35.468849 -40.195553
v 45.461403 35.468845 -56.133785
v 30.452961 39.218849 -40.195553
v -45.452328 35.468849 -40.195545
v 45.461399 35.468845 -77.695557
v 30.452957 39.218845 -77.695557
v -45.461414 35.468845 -77.695549
v -30.452969 39.218849 -40.195549
v -30.452972 39.218845 -77.695549
v 46.406246 38.281345 -59.881588
v -45.452328 38.281349 -40.195545
v 45.461399 38.281345 -77.695557
v 38.892941 38.281349 -40.195553
v -45.461414 38.281345 -77.695549
v -46.388084 35.468845 -48.634514
v 46.406242 35.468845 -72.064682
v -46.388084 38.281345 -48.634514
v -46.406258 35.468845 -72.064674
v 46.406242 38.281345 -72.064682
v 45.461403 38.281345 -56.133785
v 46.406246 35.468845 -59.881584
v -46.406254 38.281345 -59.881577
v -46.406254 35.468845 -59.881577
vn -1.000000 0.000000 0.001600
vn 0.000000 -1.000000 0.000000
vn 0.000000 0.000000 1.000000
vn 0.000000 -0.000000 -1.000000
vn -0.000000 1.000000 0.000000
vn -0.058700 0.998300 -0.000000
vn 0.058700 0.998300 -0.000000
vn 0.924600 0.000000 0.381000
vn -0.986200 0.000000 -0.165500
vn -0.062300 0.998000 -0.010500
vn -0.993900 0.000000 0.110200
vn 0.986200 0.000000 -0.165500
vn -0.062400 0.998000 0.006900
vn 0.062300 0.998000 -0.010500
vn 1.000000 0.000000 -0.000000
vn 0.969700 0.000000 0.244500
vn 0.085000 0.996200 0.021400
vn 0.110300 0.992900 0.045500
vn -0.058800 0.998300 0.000100
vn -1.000000 0.000000 0.000000
usemtl Shape.006
s off
f 382//291 389//291 390//291
f 369//292 368//292 371//292
f 368//293 370//293 371//293
f 369//292 371//292 372//292
f 373//294 372//294 374//294
f 372//292 371//292 374//292
f 371//293 370//293 375//293
f 370//295 373//295 375//295
f 375//295 373//295 376//295
f 373//294 374//294 376//294
f 367//296 375//296 376//296
f 373//297 370//297 377//297
f 371//293 375//293 378//293
f 372//294 373//294 379//294
f 368//298 369//298 380//298
f 370//293 368//293 380//293
f 374//299 367//299 381//299
f 376//294 374//294 381//294
f 367//300 376//300 381//300
f 374//292 371//292 382//292
f 371//301 378//301 382//301
f 369//292 372//292 383//292
f 372//302 379//302 383//302
f 378//303 375//303 384//303
f 382//301 378//301 384//301
f 367//299 374//299 385//299
f 374//292 382//292 385//292
f 373//297 377//297 386//297
f 379//304 373//304 386//304
f 377//305 383//305 386//305
f 383//302 379//302 386//302
f 369//306 377//306 387//306
f 377//307 370//307 387//307
f 380//298 369//298 387//298
f 370//308 380//308 387//308
f 377//306 369//306 388//306
f 369//292 383//292 388//292
f 383//305 377//305 388//305
f 375//296 367//296 389//296
f 384//309 375//309 389//309
f 382//291 384//291 389//291
f 367//310 385//310 389//310
f 389//310 385//310 390//310
f 385//292 382//292 390//292
o ShapeIndexedFaceSet.005_ShapeIndexedFaceSet.006
v 0.000000 0.000000 0.000000
v 53.906246 33.593849 -40.195557
v 40.781246 38.281345 -56.133053
v 47.343746 40.156345 -56.133057
v 53.906246 32.656345 -56.133057
v 40.781246 35.468849 -40.195553
v 49.218197 40.156349 -40.195557
v 53.906246 37.343845 -52.382690
v 40.781246 35.468845 -56.133053
v 40.781246 38.281349 -40.195553
v 52.968380 32.656349 -40.195557
v 53.906246 37.343849 -43.008331
v 49.218197 40.156345 -56.133057
v 53.906246 36.406345 -56.133057
v 52.968380 32.656345 -56.133057
v 52.968380 37.343849 -40.195557
v 48.279045 40.156349 -40.195557
v 53.906246 32.656349 -40.195557
v 47.343746 40.156345 -52.382690
v 53.906246 36.406349 -41.133148
v 52.968380 37.343845 -56.133057
vn 0.000000 0.000000 -1.000000
vn 0.000000 0.000000 1.000000
vn 1.000000 -0.000000 0.000000
vn -1.000000 0.000000 0.000000
vn -0.274700 0.961500 0.000000
vn -0.224900 -0.974400 0.000000
vn 0.514500 0.857500 0.000000
vn 0.000000 1.000000 -0.000000
vn 0.000000 -1.000000 0.000000
vn 0.588300 0.784500 0.196200
vn -0.242600 0.970000 0.018600
vn 0.784400 0.196200 0.588500
vn 0.801700 0.534700 0.267300
vn 0.593300 0.791200 -0.148400
vn 0.696200 0.696400 -0.174100
usemtl Shape.005
s off
f 404//311 403//311 411//311
f 393//311 394//311 395//311
f 396//312 392//312 397//312
f 392//313 395//313 398//313
f 393//311 395//311 399//311
f 396//314 393//314 399//314
f 394//315 393//315 400//315
f 393//314 396//314 400//314
f 396//312 397//312 400//312
f 392//312 396//312 401//312
f 396//316 399//316 401//316
f 392//313 398//313 402//313
f 398//317 397//317 402//317
f 395//311 394//311 403//311
f 394//318 397//318 403//318
f 397//317 398//317 403//317
f 398//313 395//313 404//313
f 395//311 403//311 404//311
f 399//311 395//311 405//311
f 395//319 401//319 405//319
f 401//316 399//316 405//316
f 397//312 392//312 406//312
f 402//320 397//320 406//320
f 397//318 394//318 407//318
f 400//312 397//312 407//312
f 395//313 392//313 408//313
f 392//312 401//312 408//312
f 401//319 395//319 408//319
f 394//315 400//315 409//315
f 407//318 394//318 409//318
f 400//321 407//321 409//321
f 392//313 402//313 410//313
f 406//322 392//322 410//322
f 402//323 406//323 410//323
f 403//324 398//324 411//324
f 398//325 404//325 411//325
o ShapeIndexedFaceSet.004_ShapeIndexedFaceSet.005
v 0.000000 0.000000 0.000000
v 56.718746 34.528774 -56.133789
v 57.655880 5.468847 -40.195553
v 55.781612 5.468847 -40.195553
v 59.531242 8.282171 -77.695557
v 54.843925 8.282171 -77.695557
v 53.906246 36.406349 -40.195557
v 59.531246 27.963341 -40.195557
v 59.531242 28.902124 -77.695557
v 54.843925 28.902124 -77.695557
v 59.531246 10.156714 -40.195553
v 54.843929 5.468847 -49.570553
v 53.906246 36.406345 -56.133789
v 57.655876 5.468846 -74.880119
v 53.906246 30.779696 -40.195557
v 57.655880 32.651211 -40.195557
v 58.593014 5.468847 -48.634521
v 54.843929 8.282173 -40.195553
v 55.781609 5.468846 -74.880119
v 53.906246 30.779696 -56.133789
v 54.843929 36.406349 -40.195557
v 54.843929 36.406345 -56.133789
v 54.843929 5.468846 -60.813946
v 58.593014 5.468846 -61.757320
v 59.531246 28.902126 -62.697025
v 56.718746 34.528778 -42.071289
v 59.531242 8.282172 -66.444824
v 59.531246 9.220958 -48.634521
v 55.781612 35.467564 -40.195557
v 55.781612 35.467560 -56.133789
vn 0.707500 0.706700 -0.000000
vn 0.000000 0.000000 1.000000
vn 1.000000 0.000000 -0.000000
vn 0.000000 0.000000 -1.000000
vn 0.000000 -1.000000 -0.000000
vn 0.000000 0.944400 -0.328700
vn -0.999100 0.000000 -0.043400
vn 0.000000 -0.707400 -0.706800
vn -1.000000 0.000000 0.000000
vn 0.923600 -0.369500 0.102600
vn -0.944500 -0.314800 0.094500
vn -0.999100 -0.041600 0.012500
vn -0.999300 -0.037000 0.000000
vn 0.000000 1.000000 0.000000
vn -0.926700 -0.370700 -0.061800
vn -0.999300 -0.035900 -0.006000
vn 0.803300 -0.592900 -0.057400
vn 0.948600 -0.316400 0.000000
vn 0.894500 0.447100 -0.000000
vn 0.928400 0.371400 0.015500
vn 0.894700 0.446700 0.000100
vn 0.970100 -0.242600 0.012800
vn 0.969800 -0.242500 0.026900
vn 0.824600 0.548800 0.137300
vn 0.707700 0.706500 0.000000
vn 0.704700 0.703500 -0.091700
vn 0.704500 0.703700 -0.091800
usemtl Shape.004
s off
f 433//326 440//326 441//326
f 415//327 414//327 418//327
f 418//327 414//327 419//327
f 419//328 416//328 420//328
f 416//329 417//329 420//329
f 420//329 417//329 421//329
f 419//327 414//327 422//327
f 416//328 419//328 422//328
f 414//330 415//330 423//330
f 420//331 421//331 424//331
f 421//332 417//332 424//332
f 417//333 416//333 425//333
f 414//330 423//330 425//330
f 415//327 418//327 426//327
f 418//334 424//334 426//334
f 418//327 419//327 427//327
f 422//335 414//335 428//335
f 414//330 425//330 428//330
f 423//336 415//336 429//336
f 415//327 426//327 429//327
f 426//337 423//337 429//337
f 417//333 425//333 430//333
f 425//330 423//330 430//330
f 424//332 417//332 431//332
f 423//338 426//338 431//338
f 426//334 424//334 431//334
f 424//339 418//339 432//339
f 418//327 427//327 432//327
f 420//331 424//331 433//331
f 424//339 432//339 433//339
f 417//340 430//340 434//340
f 430//330 423//330 434//330
f 431//341 417//341 434//341
f 423//338 431//338 434//338
f 425//342 416//342 435//342
f 416//343 428//343 435//343
f 428//330 425//330 435//330
f 419//328 420//328 436//328
f 420//344 413//344 436//344
f 427//345 419//345 436//345
f 427//346 436//346 437//346
f 436//344 413//344 437//344
f 416//328 422//328 438//328
f 428//343 416//343 438//343
f 428//347 438//347 439//347
f 422//348 428//348 439//348
f 438//328 422//328 439//328
f 432//327 427//327 440//327
f 433//326 432//326 440//326
f 427//349 437//349 440//349
f 437//350 413//350 440//350
f 413//351 420//351 441//351
f 420//352 433//352 441//352
f 440//350 413//350 441//350
o ShapeIndexedFaceSet.003_ShapeIndexedFaceSet.004
v 0.000000 0.000000 0.000000
v -53.897812 -39.528488 -37.383041
v -60.468754 -26.406153 -40.195541
v -60.468754 -31.094570 -40.195541
v 40.781246 -26.406153 -40.195553
v 40.781246 -40.468651 -40.195549
v 40.781246 -26.406153 -37.383053
v -60.468754 -26.406153 -37.383041
v 40.781246 -40.468651 -37.383049
v -51.093021 -40.468651 -40.195541
v -51.093021 -40.468651 -37.383041
v -57.654053 -37.653671 -37.383041
v -57.654053 -37.653671 -40.195541
v -60.468754 -31.094570 -37.383041
v -59.527218 -33.905418 -40.195541
v -59.527218 -33.905418 -37.383041
v -53.897812 -39.528488 -40.195541
v -55.780888 -38.591080 -40.195541
v -55.780888 -38.591080 -37.383041
vn -0.445600 -0.895200 0.000000
vn -0.000000 0.000000 -1.000000
vn 0.000000 1.000000 0.000000
vn 1.000000 -0.000000 0.000000
vn -1.000000 0.000000 0.000000
vn 0.000000 0.000000 1.000000
vn 0.000000 -1.000000 0.000000
vn -0.317800 -0.948200 0.000000
vn -0.894500 -0.447000 0.000000
vn -0.948200 -0.317600 0.000000
vn -0.447500 -0.894300 0.000000
usemtl Shape.003
s off
f 459//353 443//353 460//353
f 445//354 444//354 446//354
f 445//354 446//354 447//354
f 446//355 444//355 448//355
f 447//356 446//356 448//356
f 444//357 445//357 449//357
f 448//355 444//355 449//355
f 443//358 448//358 449//358
f 448//358 443//358 450//358
f 447//356 448//356 450//356
f 445//354 447//354 451//354
f 447//359 450//359 451//359
f 451//359 450//359 452//359
f 450//358 443//358 452//358
f 443//360 451//360 452//360
f 443//358 449//358 453//358
f 445//354 451//354 454//354
f 449//357 445//357 455//357
f 453//358 449//358 455//358
f 445//354 454//354 456//354
f 454//361 453//361 456//361
f 455//362 445//362 456//362
f 453//358 455//358 457//358
f 456//361 453//361 457//361
f 455//362 456//362 457//362
f 451//360 443//360 458//360
f 454//354 451//354 458//354
f 454//354 458//354 459//354
f 453//363 454//363 459//363
f 458//353 443//353 459//353
f 453//363 459//363 460//363
f 443//358 453//358 460//358
o ShapeIndexedFaceSet.002_ShapeIndexedFaceSet.003
v 0.000000 0.000000 0.000000
v 53.903584 -36.718559 -41.133144
v 40.781246 -35.780788 -56.133053
v 40.781246 -37.655331 -56.133053
v 54.843746 -31.093927 -56.133053
v 41.721409 -35.780785 -40.195553
v 48.280514 -40.468655 -56.133053
v 53.903584 -30.156153 -44.883511
v 46.407070 -40.468651 -40.195553
v 54.843746 -31.093927 -40.195553
v 54.843746 -36.718563 -52.382687
v 40.781246 -34.844021 -51.445095
v 40.781246 -38.593105 -48.632317
v 53.903584 -30.156153 -52.382687
v 48.280514 -40.468651 -42.070736
v 40.781246 -37.655327 -40.195553
v 53.903584 -36.718563 -56.133053
v 46.407070 -40.468655 -56.133053
v 54.843746 -36.718559 -43.008327
v 40.781246 -34.844021 -48.632320
v 52.966175 -37.655327 -40.195553
v 54.843746 -30.156153 -52.382687
v 53.903584 -31.093927 -40.195553
v 53.903584 -31.093927 -56.133053
v 40.781246 -38.593105 -51.445091
v 40.781246 -36.718559 -40.195553
v 54.843746 -32.969479 -56.133053
v 54.843746 -30.156153 -44.883511
v 52.966175 -37.655331 -56.133053
v 47.344479 -40.468651 -40.195553
v 54.843746 -32.031700 -40.195553
vn 0.000000 0.000000 1.000000
vn 0.000000 0.000000 -1.000000
vn 1.000000 0.000000 0.000000
vn -1.000000 0.000000 0.000000
vn -0.342300 0.921400 -0.184100
vn -0.336400 0.941700 0.000000
vn 0.000000 -1.000000 0.000000
vn 0.496100 -0.868300 0.000000
vn -0.445100 -0.890000 0.098900
vn -0.316300 -0.948700 0.000000
vn -0.369000 0.918400 0.143100
vn 0.816400 -0.407300 0.409300
vn 0.500500 -0.864500 0.046200
vn 0.000000 0.970100 -0.242600
vn 0.000000 1.000000 0.000000
vn -0.353000 0.917500 0.183500
vn 0.000000 0.980600 0.196200
vn -0.327400 0.916700 -0.229200
vn -0.440300 -0.880400 -0.176100
vn -0.697600 0.699400 0.155400
vn 0.942500 -0.236400 -0.236300
vn 0.514300 -0.856500 -0.043500
vn 0.696000 -0.696500 -0.174500
vn 0.436800 -0.872800 0.218000
vn 0.863300 -0.259700 0.432800
vn 0.801800 -0.267700 0.534200
usemtl Shape.002
s off
f 470//364 481//364 491//364
f 464//365 463//365 465//365
f 464//365 465//365 467//365
f 466//364 469//364 470//364
f 465//366 470//366 471//366
f 463//367 464//367 472//367
f 472//367 464//367 473//367
f 463//368 472//368 474//368
f 472//369 468//369 474//369
f 469//370 467//370 475//370
f 467//371 471//371 475//371
f 469//364 466//364 476//364
f 473//372 469//372 476//372
f 472//367 473//367 476//367
f 467//365 465//365 477//365
f 464//365 467//365 478//365
f 467//370 469//370 478//370
f 469//373 473//373 478//373
f 471//366 470//366 479//366
f 475//371 471//371 479//371
f 466//374 468//374 480//374
f 468//369 472//369 480//369
f 472//367 476//367 480//367
f 470//364 469//364 481//364
f 479//375 462//375 481//375
f 475//376 479//376 481//376
f 470//366 465//366 482//366
f 465//377 474//377 482//377
f 474//378 468//378 482//378
f 468//379 466//379 483//379
f 470//380 468//380 483//380
f 466//364 470//364 483//364
f 465//365 463//365 484//365
f 463//381 474//381 484//381
f 474//377 465//377 484//377
f 473//367 464//367 485//367
f 464//382 478//382 485//382
f 478//373 473//373 485//373
f 476//364 466//364 486//364
f 466//383 480//383 486//383
f 480//367 476//367 486//367
f 465//366 471//366 487//366
f 477//365 465//365 487//365
f 471//384 477//384 487//384
f 468//380 470//380 488//380
f 470//366 482//366 488//366
f 482//378 468//378 488//378
f 471//385 467//385 489//385
f 467//365 477//365 489//365
f 477//386 471//386 489//386
f 469//370 475//370 490//370
f 481//364 469//364 490//364
f 475//387 481//387 490//387
f 462//388 479//388 491//388
f 479//366 470//366 491//366
f 481//389 462//389 491//389
o ShapeIndexedFaceSet.001_ShapeIndexedFaceSet.002
v 0.000000 0.000000 0.000000
v 51.093288 -40.468651 -40.195553
v 60.468746 -31.089890 -37.383053
v 59.528309 -33.898811 -37.383053
v 40.781246 12.968847 -37.383053
v 60.468746 12.968847 -40.195557
v 40.781246 -40.468651 -40.195549
v 40.781246 -40.468651 -37.383049
v 60.468746 12.968847 -37.383057
v 60.468746 -31.089890 -40.195553
v 40.781246 12.968847 -38.320736
v 54.843472 12.968847 -40.195553
v 40.781246 -26.403124 -40.195553
v 57.653217 -37.654499 -37.383053
v 57.653217 -37.654499 -40.195553
v 51.093288 -40.468651 -37.383053
v 53.903034 -39.527115 -40.195553
v 59.528309 -33.898811 -40.195553
v 53.903034 -39.527115 -37.383053
v 58.593655 -35.776653 -38.320736
vn 0.894700 -0.446700 -0.001400
vn 0.000000 0.000000 1.000000
vn 0.000000 -0.000000 -1.000000
vn 0.000000 -1.000000 0.000000
vn -1.000000 -0.000000 0.000000
vn 0.000000 1.000000 0.000000
vn 1.000000 0.000000 0.000000
vn 0.948300 -0.317500 0.000000
vn -0.132000 0.047100 -0.990100
vn 0.446700 -0.894700 0.000000
vn 0.317700 -0.948200 0.000000
vn 0.894700 -0.446700 0.002800
vn 0.894100 -0.447800 0.000000
vn 0.895200 -0.445600 0.000000
usemtl Shape.001
s off
f 506//390 509//390 511//390
f 495//391 494//391 496//391
f 497//392 493//392 498//392
f 495//391 496//391 499//391
f 498//393 493//393 499//393
f 496//394 498//394 499//394
f 496//391 494//391 500//391
f 497//395 496//395 500//395
f 494//396 497//396 500//396
f 494//397 495//397 501//397
f 493//392 497//392 501//392
f 497//396 494//396 501//396
f 496//395 497//395 502//395
f 498//394 496//394 502//394
f 497//392 498//392 503//392
f 502//395 497//395 503//395
f 498//394 502//394 504//394
f 503//392 498//392 504//392
f 502//398 503//398 504//398
f 495//391 499//391 505//391
f 493//392 501//392 506//392
f 499//393 493//393 507//393
f 505//391 499//391 507//391
f 493//392 506//392 508//392
f 506//399 505//399 508//399
f 507//400 493//400 508//400
f 501//397 495//397 509//397
f 506//392 501//392 509//392
f 505//391 507//391 510//391
f 508//399 505//399 510//399
f 507//400 508//400 510//400
f 495//401 505//401 511//401
f 505//402 506//402 511//402
f 509//403 495//403 511//403
o ShapeIndexedFaceSet_ShapeIndexedFaceSet.001
v 0.000000 0.000000 0.000000
v 60.468742 12.968847 -37.383057
v -52.963428 40.156349 -40.195545
v -56.704254 38.277496 -40.195545
v -52.963428 40.156349 -37.383045
v -60.468750 12.968847 -37.383045
v 60.468742 12.968847 -40.195557
v 52.963421 40.156349 -37.383057
v -60.468750 12.968847 -40.195545
v 52.963421 40.156349 -40.195557
v 59.521702 34.527771 -40.195557
v -60.468750 30.778044 -37.383045
v 60.468742 30.778044 -37.383057
v -60.468750 30.778044 -40.195545
v 57.651287 37.343391 -37.383057
v -57.651295 37.343391 -37.383045
v 60.468742 30.778044 -40.195557
v -59.521709 34.527771 -40.195545
v 56.716084 38.277496 -40.195557
v 59.521702 34.527771 -37.383057
v -59.521709 34.527771 -37.383045
v 56.716084 38.277496 -37.383057
v -56.704254 38.277496 -37.383045
v -57.651295 37.343391 -40.195545
v 57.651287 37.343391 -40.195557
vn 0.706700 0.707500 0.000000
vn -0.448800 0.893600 0.000000
vn 0.000000 -0.000000 1.000000
vn 0.000000 0.000000 -1.000000
vn 0.000000 -1.000000 0.000000
vn 0.000000 1.000000 0.000000
vn -1.000000 0.000000 0.000000
vn 1.000000 0.000000 0.000000
vn 0.969600 0.244900 0.000000
vn -0.969600 0.244900 0.000000
vn 0.447700 0.894200 0.000000
vn 0.833000 0.553300 0.000000
vn -0.833000 0.553300 0.000000
vn -0.702200 0.712000 0.000000
usemtl Shape
s off
f 530//404 526//404 536//404
f 514//405 515//405 516//405
f 513//406 516//406 517//406
f 515//407 514//407 518//407
f 513//408 517//408 518//408
f 514//409 516//409 519//409
f 516//406 513//406 519//406
f 515//407 518//407 520//407
f 518//408 517//408 520//408
f 518//407 514//407 521//407
f 514//409 519//409 521//409
f 518//407 521//407 522//407
f 517//406 516//406 523//406
f 520//410 517//410 523//410
f 513//411 518//411 524//411
f 519//406 513//406 524//406
f 515//407 520//407 525//407
f 520//410 523//410 525//410
f 519//406 524//406 526//406
f 523//406 516//406 527//406
f 518//407 522//407 528//407
f 524//411 518//411 528//411
f 522//412 524//412 528//412
f 515//407 525//407 529//407
f 525//413 523//413 529//413
f 521//414 519//414 530//414
f 522//407 521//407 530//407
f 524//412 522//412 531//412
f 522//415 526//415 531//415
f 526//406 524//406 531//406
f 523//406 527//406 532//406
f 529//413 523//413 532//413
f 527//416 529//416 532//416
f 519//406 526//406 533//406
f 530//414 519//414 533//414
f 526//404 530//404 533//404
f 516//405 515//405 534//405
f 515//417 527//417 534//417
f 527//406 516//406 534//406
f 527//417 515//417 535//417
f 515//407 529//407 535//407
f 529//416 527//416 535//416
f 526//415 522//415 536//415
f 522//407 530//407 536//407
