+ OpenMP (ON)
+ Parameters
	 input                                       14029_Plastic_Fruit_Crate_v1_L1.obj
	 resolution                                  100000
	 max. depth                                  20
	 max. concavity                              0.003
	 plane down-sampling                         4
	 convex-hull down-sampling                   4
	 alpha                                       0.05
	 beta                                        0.05
	 gamma                                       0.0015
	 pca                                         0
	 mode                                        0
	 max. vertices per convex-hull               256
	 min. volume to add vertices to convex-hulls 0
	 output                                      tmp.wrl
+ Load mesh 

+ Voxelization
	 dim = 64	-> 11826 voxels
	 dim = 129	-> 52184 voxels
	 time 0.0218627s
+ Compute primitive set
	 # primitives               52184
	 # inside surface           163
	 # on surface               52021
	 time 0.00120052s
+ Approximate Convex Decomposition
	 Subdivision level 1
	 -> Part[0] C = 0.901082, E = 0.0995946, VS = 52021, VC = 0, VI = 163
		 [Regular sampling] Number of clipping planes 67
			 Plane 0000 T=0.927 C=0.900 B=0.004 S=0.022 D=0.490210 W=0.490210 [1.0, 0.0, 0.0](1.0, 0.0, 0.0, 59.531) 
			 Plane 0034 T=0.903 C=0.900 B=0.003 S=0.000 D=0.000000 W=0.490210 [1.0, 0.0, 0.0](0.0, 1.0, 0.0, 35.781) 
			 Plane 0035 T=0.902 C=0.900 B=0.002 S=0.000 D=0.000000 W=0.490210 [1.0, 0.0, 0.0](0.0, 1.0, 0.0, 32.031) 
			 Plane 0036 T=0.902 C=0.900 B=0.002 S=0.000 D=0.000000 W=0.490210 [1.0, 0.0, 0.0](0.0, 1.0, 0.0, 28.281) 
			 Plane 0037 T=0.902 C=0.900 B=0.002 S=0.000 D=0.000000 W=0.490210 [1.0, 0.0, 0.0](0.0, 1.0, 0.0, 24.531) 
			 Plane 0038 T=0.902 C=0.900 B=0.001 S=0.000 D=0.000000 W=0.490210 [1.0, 0.0, 0.0](0.0, 1.0, 0.0, 20.781) 
			 Plane 0039 T=0.902 C=0.901 B=0.001 S=0.000 D=0.000000 W=0.490210 [1.0, 0.0, 0.0](0.0, 1.0, 0.0, 17.031) 
			 Plane 0040 T=0.902 C=0.900 B=0.001 S=0.000 D=0.000000 W=0.490210 [1.0, 0.0, 0.0](0.0, 1.0, 0.0, 13.281) 
			 Plane 0042 T=0.901 C=0.901 B=0.001 S=0.000 D=0.000000 W=0.490210 [1.0, 0.0, 0.0](0.0, 1.0, 0.0, 5.781) 
			 Plane 0043 T=0.901 C=0.900 B=0.000 S=0.000 D=0.000000 W=0.490210 [1.0, 0.0, 0.0](0.0, 1.0, 0.0, 2.031) 
			 Plane 0044 T=0.901 C=0.900 B=0.000 S=0.000 D=0.000000 W=0.490210 [1.0, 0.0, 0.0](0.0, 1.0, 0.0, -1.719) 
			 Plane 0045 T=0.900 C=0.900 B=0.000 S=0.000 D=0.000000 W=0.490210 [1.0, 0.0, 0.0](0.0, 1.0, 0.0, -5.469) 
			 Plane 0056 T=0.891 C=0.889 B=0.002 S=0.000 D=0.000000 W=0.490210 [1.0, 0.0, 0.0](0.0, 0.0, 1.0, -42.071) 
			 Plane 0057 T=0.891 C=0.889 B=0.001 S=0.000 D=0.000000 W=0.490210 [1.0, 0.0, 0.0](0.0, 0.0, 1.0, -45.821) 
			 Plane 0058 T=0.890 C=0.889 B=0.001 S=0.000 D=0.000000 W=0.490210 [1.0, 0.0, 0.0](0.0, 0.0, 1.0, -49.571) 
			 Plane 0059 T=0.890 C=0.889 B=0.000 S=0.000 D=0.000000 W=0.490210 [1.0, 0.0, 0.0](0.0, 0.0, 1.0, -53.321) 

			 Best  0059 T=0.890 C=0.889 B=0.000 S=0.000 (0.0, 0.0, 1.0, -53.321)

		 [Refining] Number of clipping planes 9
			 Plane 0005 T=0.891 C=0.891 B=0.000 S=0.000 D=0.000000 W=0.490210 [1.0, 0.0, 0.0](0.0, 0.0, 1.0, -54.258) 
			 Plane 0006 T=0.891 C=0.891 B=0.000 S=0.000 D=0.000000 W=0.490210 [1.0, 0.0, 0.0](0.0, 0.0, 1.0, -55.196) 
			 Plane 0007 T=0.891 C=0.891 B=0.000 S=0.000 D=0.000000 W=0.490210 [1.0, 0.0, 0.0](0.0, 0.0, 1.0, -56.133) 

			 Best  0007 T=0.891 C=0.891 B=0.000 S=0.000 (0.0, 0.0, 1.0, -56.133)

	 Subdivision level 2
	 -> Part[0] C = 0.362699, E = 0.0501429, VS = 26191, VC = 3, VI = 45
		 [Regular sampling] Number of clipping planes 60
			 Plane 0030 T=0.362 C=0.362 B=0.001 S=0.000 D=0.000000 W=0.817001 [0.0, 0.0, 1.0](1.0, 0.0, 0.0, -52.969) 
			 Plane 0000 T=0.362 C=0.361 B=0.001 S=0.000 D=0.000000 W=0.817001 [0.0, 0.0, 1.0](1.0, 0.0, 0.0, 59.531) 
			 Plane 0004 T=0.360 C=0.359 B=0.001 S=0.000 D=0.000000 W=0.817001 [0.0, 0.0, 1.0](1.0, 0.0, 0.0, 44.531) 
			 Plane 0005 T=0.360 C=0.359 B=0.000 S=0.000 D=0.000000 W=0.817001 [0.0, 0.0, 1.0](1.0, 0.0, 0.0, 40.781) 
			 Plane 0007 T=0.360 C=0.359 B=0.000 S=0.000 D=0.000000 W=0.817001 [0.0, 0.0, 1.0](1.0, 0.0, 0.0, 33.281) 
			 Plane 0011 T=0.359 C=0.359 B=0.000 S=0.000 D=0.000000 W=0.817001 [0.0, 0.0, 1.0](1.0, 0.0, 0.0, 18.281) 
			 Plane 0012 T=0.359 C=0.359 B=0.000 S=0.000 D=0.000000 W=0.817001 [0.0, 0.0, 1.0](1.0, 0.0, 0.0, 14.531) 
			 Plane 0048 T=0.359 C=0.359 B=0.000 S=0.000 D=0.000000 W=0.817001 [0.0, 0.0, 1.0](0.0, 1.0, 0.0, -16.719) 

			 Best  0048 T=0.359 C=0.359 B=0.000 S=0.000 (0.0, 1.0, 0.0, -16.719)

		 [Refining] Number of clipping planes 9
			 Plane 0005 T=0.362 C=0.362 B=0.000 S=0.000 D=0.000000 W=0.817001 [0.0, 0.0, 1.0](0.0, 1.0, 0.0, -17.656) 
			 Plane 0000 T=0.362 C=0.362 B=0.000 S=0.000 D=0.000000 W=0.817001 [0.0, 0.0, 1.0](0.0, 1.0, 0.0, -12.969) 

			 Best  0000 T=0.362 C=0.362 B=0.000 S=0.000 (0.0, 1.0, 0.0, -12.969)

	 -> Part[1] C = 0.528454, E = 0.0494518, VS = 25830, VC = 3, VI = 112
		 [Regular sampling] Number of clipping planes 62
			 Plane 0000 T=0.527 C=0.526 B=0.001 S=0.000 D=0.000000 W=0.837020 [0.0, 0.0, 1.0](1.0, 0.0, 0.0, 59.531) 
			 Plane 0004 T=0.524 C=0.524 B=0.001 S=0.000 D=0.000000 W=0.837020 [0.0, 0.0, 1.0](1.0, 0.0, 0.0, 44.531) 
			 Plane 0005 T=0.523 C=0.523 B=0.001 S=0.000 D=0.000000 W=0.837020 [0.0, 0.0, 1.0](1.0, 0.0, 0.0, 40.781) 
			 Plane 0017 T=0.523 C=0.523 B=0.000 S=0.000 D=0.000000 W=0.837020 [0.0, 0.0, 1.0](1.0, 0.0, 0.0, -4.219) 
			 Plane 0022 T=0.523 C=0.523 B=0.000 S=0.000 D=0.000000 W=0.837020 [0.0, 0.0, 1.0](1.0, 0.0, 0.0, -22.969) 

			 Best  0022 T=0.523 C=0.523 B=0.000 S=0.000 (1.0, 0.0, 0.0, -22.969)

		 [Refining] Number of clipping planes 9
			 Plane 0005 T=0.526 C=0.526 B=0.000 S=0.000 D=0.000000 W=0.837020 [0.0, 0.0, 1.0](1.0, 0.0, 0.0, -23.906) 
			 Plane 0006 T=0.526 C=0.526 B=0.000 S=0.000 D=0.000000 W=0.837020 [0.0, 0.0, 1.0](1.0, 0.0, 0.0, -24.844) 

			 Best  0006 T=0.526 C=0.526 B=0.000 S=0.000 (1.0, 0.0, 0.0, -24.844)

	 Subdivision level 3
	 -> Part[0] C = 0.246612, E = 0.0276895, VS = 14463, VC = 1, VI = 5
		 [Regular sampling] Number of clipping planes 53
			 Plane 0027 T=0.210 C=0.208 B=0.000 S=0.002 D=0.187555 W=0.187555 [1.0, 0.0, 0.0](1.0, 0.0, 0.0, -41.719) 
			 Plane 0028 T=0.210 C=0.207 B=0.000 S=0.002 D=0.187555 W=0.187555 [1.0, 0.0, 0.0](1.0, 0.0, 0.0, -45.469) 
			 Plane 0003 T=0.208 C=0.206 B=0.000 S=0.002 D=0.187555 W=0.187555 [1.0, 0.0, 0.0](1.0, 0.0, 0.0, 48.281) 
			 Plane 0004 T=0.206 C=0.203 B=0.000 S=0.002 D=0.187555 W=0.187555 [1.0, 0.0, 0.0](1.0, 0.0, 0.0, 44.531) 

			 Best  0004 T=0.206 C=0.203 B=0.000 S=0.002 (1.0, 0.0, 0.0, 44.531)

		 [Refining] Number of clipping planes 9
			 Plane 0005 T=0.211 C=0.208 B=0.000 S=0.002 D=0.187555 W=0.187555 [1.0, 0.0, 0.0](1.0, 0.0, 0.0, 43.594) 
			 Plane 0008 T=0.211 C=0.208 B=0.000 S=0.002 D=0.187555 W=0.187555 [1.0, 0.0, 0.0](1.0, 0.0, 0.0, 40.781) 

			 Best  0008 T=0.211 C=0.208 B=0.000 S=0.002 (1.0, 0.0, 0.0, 40.781)

	 -> Part[1] C = 0.11514, E = 0.0224534, VS = 11728, VC = 2, VI = 40
		 [Regular sampling] Number of clipping planes 46
			 Plane 0023 T=0.099 C=0.096 B=0.000 S=0.004 D=0.618572 W=0.618572 [1.0, 0.0, 0.0](1.0, 0.0, 0.0, -26.719) 
			 Plane 0024 T=0.099 C=0.095 B=0.000 S=0.004 D=0.618572 W=0.618572 [1.0, 0.0, 0.0](1.0, 0.0, 0.0, -30.469) 
			 Plane 0025 T=0.098 C=0.094 B=0.000 S=0.004 D=0.618572 W=0.618572 [1.0, 0.0, 0.0](1.0, 0.0, 0.0, -34.219) 
			 Plane 0027 T=0.097 C=0.094 B=0.000 S=0.004 D=0.618572 W=0.618572 [1.0, 0.0, 0.0](1.0, 0.0, 0.0, -41.719) 
			 Plane 0028 T=0.097 C=0.093 B=0.000 S=0.004 D=0.618572 W=0.618572 [1.0, 0.0, 0.0](1.0, 0.0, 0.0, -45.469) 
			 Plane 0006 T=0.097 C=0.093 B=0.000 S=0.004 D=0.618572 W=0.618572 [1.0, 0.0, 0.0](1.0, 0.0, 0.0, 37.031) 

			 Best  0006 T=0.097 C=0.093 B=0.000 S=0.004 (1.0, 0.0, 0.0, 37.031)

		 [Refining] Number of clipping planes 9
			 Plane 0005 T=0.101 C=0.097 B=0.000 S=0.004 D=0.618572 W=0.618572 [1.0, 0.0, 0.0](1.0, 0.0, 0.0, 36.094) 
			 Plane 0000 T=0.100 C=0.097 B=0.000 S=0.004 D=0.618572 W=0.618572 [1.0, 0.0, 0.0](1.0, 0.0, 0.0, 40.781) 

			 Best  0000 T=0.100 C=0.097 B=0.000 S=0.004 (1.0, 0.0, 0.0, 40.781)

	 -> Part[2] C = 0.376315, E = 0.0312467, VS = 16321, VC = 2, VI = 108
		 [Regular sampling] Number of clipping planes 52
			 Plane 0026 T=0.207 C=0.207 B=0.000 S=0.000 D=0.000000 W=0.920586 [0.0, 0.0, 1.0](0.0, 1.0, 0.0, 28.281) 
			 Plane 0027 T=0.206 C=0.206 B=0.000 S=0.000 D=0.000000 W=0.920586 [0.0, 0.0, 1.0](0.0, 1.0, 0.0, 24.531) 
			 Plane 0028 T=0.205 C=0.204 B=0.000 S=0.000 D=0.000000 W=0.920586 [0.0, 0.0, 1.0](0.0, 1.0, 0.0, 20.781) 
			 Plane 0029 T=0.205 C=0.204 B=0.000 S=0.000 D=0.000000 W=0.920586 [0.0, 0.0, 1.0](0.0, 1.0, 0.0, 17.031) 
			 Plane 0030 T=0.204 C=0.204 B=0.000 S=0.000 D=0.000000 W=0.920586 [0.0, 0.0, 1.0](0.0, 1.0, 0.0, 13.281) 
			 Plane 0033 T=0.203 C=0.203 B=0.000 S=0.000 D=0.000000 W=0.920586 [0.0, 0.0, 1.0](0.0, 1.0, 0.0, 2.031) 
			 Plane 0034 T=0.203 C=0.203 B=0.000 S=0.000 D=0.000000 W=0.920586 [0.0, 0.0, 1.0](0.0, 1.0, 0.0, -1.719) 

			 Best  0034 T=0.203 C=0.203 B=0.000 S=0.000 (0.0, 1.0, 0.0, -1.719)

		 [Refining] Number of clipping planes 9
			 Plane 0005 T=0.208 C=0.208 B=0.000 S=0.000 D=0.000000 W=0.920586 [0.0, 0.0, 1.0](0.0, 1.0, 0.0, -2.656) 
			 Plane 0006 T=0.208 C=0.208 B=0.000 S=0.000 D=0.000000 W=0.920586 [0.0, 0.0, 1.0](0.0, 1.0, 0.0, -3.594) 
			 Plane 0007 T=0.208 C=0.208 B=0.000 S=0.000 D=0.000000 W=0.920586 [0.0, 0.0, 1.0](0.0, 1.0, 0.0, -4.531) 
			 Plane 0008 T=0.208 C=0.208 B=0.000 S=0.000 D=0.000000 W=0.920586 [0.0, 0.0, 1.0](0.0, 1.0, 0.0, -5.469) 

			 Best  0008 T=0.208 C=0.208 B=0.000 S=0.000 (0.0, 1.0, 0.0, -5.469)

	 -> Part[3] C = 0.149385, E = 0.0182051, VS = 9509, VC = 1, VI = 4
		 [Regular sampling] Number of clipping planes 39
			 Plane 0000 T=0.148 C=0.148 B=0.000 S=0.000 D=0.000000 W=0.859300 [0.0, 1.0, 0.0](1.0, 0.0, 0.0, -25.781) 
			 Plane 0020 T=0.089 C=0.083 B=0.000 S=0.006 D=0.859300 W=0.859300 [0.0, 1.0, 0.0](0.0, 1.0, 0.0, 2.031) 
			 Plane 0019 T=0.089 C=0.082 B=0.000 S=0.006 D=0.859300 W=0.859300 [0.0, 1.0, 0.0](0.0, 1.0, 0.0, 5.781) 

			 Best  0019 T=0.089 C=0.082 B=0.000 S=0.006 (0.0, 1.0, 0.0, 5.781)

		 [Refining] Number of clipping planes 9
			 Plane 0005 T=0.092 C=0.086 B=0.000 S=0.006 D=0.859300 W=0.859300 [0.0, 1.0, 0.0](0.0, 1.0, 0.0, 4.844) 
			 Plane 0006 T=0.092 C=0.086 B=0.000 S=0.006 D=0.859300 W=0.859300 [0.0, 1.0, 0.0](0.0, 1.0, 0.0, 3.906) 
			 Plane 0008 T=0.092 C=0.086 B=0.000 S=0.006 D=0.859300 W=0.859300 [0.0, 1.0, 0.0](0.0, 1.0, 0.0, 2.031) 

			 Best  0008 T=0.092 C=0.086 B=0.000 S=0.006 (0.0, 1.0, 0.0, 2.031)

	 Subdivision level 4
	 -> Part[0] C = 0.031077, E = 0.00704156, VS = 3678, VC = 0, VI = 0
		 [Regular sampling] Number of clipping planes 26
			 Plane 0000 T=0.029 C=0.029 B=0.000 S=0.000 D=0.000000 W=0.778458 [0.0, 1.0, 0.0](1.0, 0.0, 0.0, 59.531) 
			 Plane 0013 T=0.026 C=0.024 B=0.000 S=0.001 D=0.778458 W=0.778458 [0.0, 1.0, 0.0](0.0, 1.0, 0.0, 13.281) 
			 Plane 0002 T=0.023 C=0.023 B=0.000 S=0.000 D=0.000000 W=0.778458 [0.0, 1.0, 0.0](1.0, 0.0, 0.0, 52.031) 
			 Plane 0021 T=0.022 C=0.022 B=0.000 S=0.000 D=0.000000 W=0.778458 [0.0, 1.0, 0.0](0.0, 0.0, 1.0, -38.321) 
			 Plane 0022 T=0.021 C=0.021 B=0.000 S=0.000 D=0.000000 W=0.778458 [0.0, 1.0, 0.0](0.0, 0.0, 1.0, -42.071) 

			 Best  0022 T=0.021 C=0.021 B=0.000 S=0.000 (0.0, 0.0, 1.0, -42.071)

		 [Refining] Number of clipping planes 9
			 Plane 0000 T=0.023 C=0.023 B=0.000 S=0.000 D=0.000000 W=0.778458 [0.0, 1.0, 0.0](0.0, 0.0, 1.0, -38.321) 
			 Plane 0005 T=0.023 C=0.023 B=0.000 S=0.000 D=0.000000 W=0.778458 [0.0, 1.0, 0.0](0.0, 0.0, 1.0, -43.008) 
			 Plane 0002 T=0.021 C=0.021 B=0.000 S=0.000 D=0.000000 W=0.778458 [0.0, 1.0, 0.0](0.0, 0.0, 1.0, -40.196) 

			 Best  0002 T=0.021 C=0.021 B=0.000 S=0.000 (0.0, 0.0, 1.0, -40.196)

	 -> Part[1] C = 0.176952, E = 0.020648, VS = 10785, VC = 1, VI = 5
		 [Regular sampling] Number of clipping planes 47
			 Plane 0000 T=0.175 C=0.173 B=0.000 S=0.001 D=0.154862 W=0.154862 [1.0, 0.0, 0.0](1.0, 0.0, 0.0, 39.844) 
			 Plane 0024 T=0.127 C=0.125 B=0.000 S=0.001 D=0.154862 W=0.154862 [1.0, 0.0, 0.0](1.0, 0.0, 0.0, -50.156) 
			 Plane 0029 T=0.125 C=0.125 B=0.000 S=0.000 D=0.000000 W=0.154862 [1.0, 0.0, 0.0](0.0, 1.0, 0.0, 32.031) 
			 Plane 0031 T=0.119 C=0.119 B=0.000 S=0.000 D=0.000000 W=0.154862 [1.0, 0.0, 0.0](0.0, 1.0, 0.0, 24.531) 

			 Best  0031 T=0.119 C=0.119 B=0.000 S=0.000 (0.0, 1.0, 0.0, 24.531)

		 [Refining] Number of clipping planes 9
			 Plane 0005 T=0.123 C=0.123 B=0.000 S=0.000 D=0.000000 W=0.154862 [1.0, 0.0, 0.0](0.0, 1.0, 0.0, 23.594) 
			 Plane 0002 T=0.121 C=0.121 B=0.000 S=0.000 D=0.000000 W=0.154862 [1.0, 0.0, 0.0](0.0, 1.0, 0.0, 26.406) 

			 Best  0002 T=0.121 C=0.121 B=0.000 S=0.000 (0.0, 1.0, 0.0, 26.406)

	 -> Part[2] C = 0.0143504, E = 0.00437657, VS = 2286, VC = 0, VI = 0
		 [Regular sampling] Number of clipping planes 19
			 Plane 0000 T=0.013 C=0.013 B=0.000 S=0.000 D=0.000000 W=0.810868 [0.0, 1.0, 0.0](1.0, 0.0, 0.0, 59.531) 
			 Plane 0010 T=0.011 C=0.011 B=0.000 S=0.001 D=0.810868 W=0.810868 [0.0, 1.0, 0.0](0.0, 1.0, 0.0, -28.906) 
			 Plane 0011 T=0.011 C=0.011 B=0.000 S=0.001 D=0.810868 W=0.810868 [0.0, 1.0, 0.0](0.0, 1.0, 0.0, -32.656) 
			 Plane 0002 T=0.010 C=0.010 B=0.000 S=0.000 D=0.000000 W=0.810868 [0.0, 1.0, 0.0](1.0, 0.0, 0.0, 52.031) 
			 Plane 0015 T=0.009 C=0.009 B=0.000 S=0.000 D=0.000000 W=0.810868 [0.0, 1.0, 0.0](0.0, 0.0, 1.0, -42.071) 

			 Best  0015 T=0.009 C=0.009 B=0.000 S=0.000 (0.0, 0.0, 1.0, -42.071)

		 [Refining] Number of clipping planes 9
			 Plane 0005 T=0.010 C=0.010 B=0.000 S=0.000 D=0.000000 W=0.810868 [0.0, 1.0, 0.0](0.0, 0.0, 1.0, -43.008) 
			 Plane 0002 T=0.009 C=0.009 B=0.000 S=0.000 D=0.000000 W=0.810868 [0.0, 1.0, 0.0](0.0, 0.0, 1.0, -40.196) 

			 Best  0002 T=0.009 C=0.009 B=0.000 S=0.000 (0.0, 0.0, 1.0, -40.196)

	 -> Part[3] C = 0.0822358, E = 0.0180768, VS = 9442, VC = 2, VI = 40
		 [Regular sampling] Number of clipping planes 40
			 Plane 0020 T=0.063 C=0.061 B=0.000 S=0.002 D=0.528686 W=0.528686 [1.0, 0.0, 0.0](1.0, 0.0, 0.0, -35.156) 
			 Plane 0021 T=0.061 C=0.059 B=0.000 S=0.002 D=0.528686 W=0.528686 [1.0, 0.0, 0.0](1.0, 0.0, 0.0, -38.906) 
			 Plane 0022 T=0.061 C=0.058 B=0.000 S=0.002 D=0.528686 W=0.528686 [1.0, 0.0, 0.0](1.0, 0.0, 0.0, -42.656) 
			 Plane 0023 T=0.060 C=0.058 B=0.000 S=0.002 D=0.528686 W=0.528686 [1.0, 0.0, 0.0](1.0, 0.0, 0.0, -46.406) 
			 Plane 0032 T=0.059 C=0.059 B=0.000 S=0.000 D=0.000000 W=0.528686 [1.0, 0.0, 0.0](0.0, 1.0, 0.0, -32.656) 
			 Plane 0036 T=0.057 C=0.057 B=0.000 S=0.000 D=0.000000 W=0.528686 [1.0, 0.0, 0.0](0.0, 0.0, 1.0, -42.071) 

			 Best  0036 T=0.057 C=0.057 B=0.000 S=0.000 (0.0, 0.0, 1.0, -42.071)

		 [Refining] Number of clipping planes 9
			 Plane 0005 T=0.060 C=0.060 B=0.000 S=0.000 D=0.000000 W=0.528686 [1.0, 0.0, 0.0](0.0, 0.0, 1.0, -43.008) 
			 Plane 0002 T=0.055 C=0.055 B=0.000 S=0.000 D=0.000000 W=0.528686 [1.0, 0.0, 0.0](0.0, 0.0, 1.0, -40.196) 

			 Best  0002 T=0.055 C=0.055 B=0.000 S=0.000 (0.0, 0.0, 1.0, -40.196)

	 -> Part[4] C = 0.118816, E = 0.0158177, VS = 8262, VC = 0, VI = 57
		 [Regular sampling] Number of clipping planes 43
			 Plane 0000 T=0.121 C=0.115 B=0.000 S=0.006 D=0.968696 W=0.968696 [1.0, 0.0, 0.0](1.0, 0.0, 0.0, 59.531) 
			 Plane 0022 T=0.120 C=0.114 B=0.000 S=0.006 D=0.968696 W=0.968696 [1.0, 0.0, 0.0](1.0, 0.0, 0.0, -22.969) 
			 Plane 0023 T=0.115 C=0.115 B=0.000 S=0.000 D=0.000000 W=0.968696 [1.0, 0.0, 0.0](0.0, 1.0, 0.0, 39.531) 
			 Plane 0024 T=0.114 C=0.114 B=0.000 S=0.000 D=0.000000 W=0.968696 [1.0, 0.0, 0.0](0.0, 1.0, 0.0, 35.781) 
			 Plane 0002 T=0.033 C=0.027 B=0.000 S=0.006 D=0.968696 W=0.968696 [1.0, 0.0, 0.0](1.0, 0.0, 0.0, 52.031) 
			 Plane 0025 T=0.030 C=0.030 B=0.000 S=0.000 D=0.000000 W=0.968696 [1.0, 0.0, 0.0](0.0, 1.0, 0.0, 32.031) 

			 Best  0025 T=0.030 C=0.030 B=0.000 S=0.000 (0.0, 1.0, 0.0, 32.031)

		 [Refining] Number of clipping planes 9
			 Plane 0005 T=0.033 C=0.033 B=0.000 S=0.000 D=0.000000 W=0.968696 [1.0, 0.0, 0.0](0.0, 1.0, 0.0, 31.094) 
			 Plane 0001 T=0.028 C=0.028 B=0.000 S=0.000 D=0.000000 W=0.968696 [1.0, 0.0, 0.0](0.0, 1.0, 0.0, 34.844) 
			 Plane 0002 T=0.028 C=0.028 B=0.000 S=0.000 D=0.000000 W=0.968696 [1.0, 0.0, 0.0](0.0, 1.0, 0.0, 33.906) 

			 Best  0002 T=0.028 C=0.028 B=0.000 S=0.000 (0.0, 1.0, 0.0, 33.906)

	 -> Part[5] C = 0.0888556, E = 0.015429, VS = 8059, VC = 2, VI = 51
		 [Regular sampling] Number of clipping planes 40
			 Plane 0020 T=0.083 C=0.079 B=0.000 S=0.004 D=0.950527 W=0.950527 [1.0, 0.0, 0.0](1.0, 0.0, 0.0, -15.469) 
			 Plane 0002 T=0.027 C=0.023 B=0.000 S=0.004 D=0.950527 W=0.950527 [1.0, 0.0, 0.0](1.0, 0.0, 0.0, 52.031) 
			 Plane 0030 T=0.024 C=0.024 B=0.000 S=0.000 D=0.000000 W=0.950527 [1.0, 0.0, 0.0](0.0, 1.0, 0.0, -32.656) 

			 Best  0030 T=0.024 C=0.024 B=0.000 S=0.000 (0.0, 1.0, 0.0, -32.656)

		 [Refining] Number of clipping planes 9
			 Plane 0005 T=0.023 C=0.023 B=0.000 S=0.000 D=0.000000 W=0.950527 [1.0, 0.0, 0.0](0.0, 1.0, 0.0, -33.594) 
			 Plane 0006 T=0.023 C=0.023 B=0.000 S=0.000 D=0.000000 W=0.950527 [1.0, 0.0, 0.0](0.0, 1.0, 0.0, -34.531) 

			 Best  0006 T=0.023 C=0.023 B=0.000 S=0.000 (0.0, 1.0, 0.0, -34.531)

	 -> Part[6] C = 0.0406979, E = 0.00891587, VS = 4657, VC = 1, VI = 3
		 [Regular sampling] Number of clipping planes 28
			 Plane 0014 T=0.021 C=0.019 B=0.000 S=0.002 D=0.917084 W=0.917084 [0.0, 1.0, 0.0](0.0, 1.0, 0.0, 24.531) 
			 Plane 0005 T=0.019 C=0.019 B=0.000 S=0.000 D=0.000000 W=0.917084 [0.0, 1.0, 0.0](1.0, 0.0, 0.0, -44.531) 
			 Plane 0006 T=0.016 C=0.016 B=0.000 S=0.000 D=0.000000 W=0.917084 [0.0, 1.0, 0.0](1.0, 0.0, 0.0, -48.281) 
			 Plane 0007 T=0.014 C=0.014 B=0.000 S=0.000 D=0.000000 W=0.917084 [0.0, 1.0, 0.0](1.0, 0.0, 0.0, -52.031) 

			 Best  0007 T=0.014 C=0.014 B=0.000 S=0.000 (1.0, 0.0, 0.0, -52.031)

		 [Refining] Number of clipping planes 9
			 Plane 0000 T=0.018 C=0.018 B=0.000 S=0.000 D=0.000000 W=0.917084 [0.0, 1.0, 0.0](1.0, 0.0, 0.0, -48.281) 
			 Plane 0005 T=0.015 C=0.015 B=0.000 S=0.000 D=0.000000 W=0.917084 [0.0, 1.0, 0.0](1.0, 0.0, 0.0, -52.969) 
			 Plane 0006 T=0.015 C=0.015 B=0.000 S=0.000 D=0.000000 W=0.917084 [0.0, 1.0, 0.0](1.0, 0.0, 0.0, -53.906) 

			 Best  0006 T=0.015 C=0.015 B=0.000 S=0.000 (1.0, 0.0, 0.0, -53.906)

	 -> Part[7] C = 0.0448829, E = 0.0092892, VS = 4852, VC = 0, VI = 1
		 [Regular sampling] Number of clipping planes 29
			 Plane 0015 T=0.028 C=0.026 B=0.000 S=0.002 D=0.936495 W=0.936495 [0.0, 1.0, 0.0](0.0, 1.0, 0.0, -17.656) 
			 Plane 0016 T=0.024 C=0.022 B=0.000 S=0.002 D=0.936495 W=0.936495 [0.0, 1.0, 0.0](0.0, 1.0, 0.0, -21.406) 
			 Plane 0017 T=0.021 C=0.019 B=0.000 S=0.002 D=0.936495 W=0.936495 [0.0, 1.0, 0.0](0.0, 1.0, 0.0, -25.156) 
			 Plane 0018 T=0.018 C=0.016 B=0.000 S=0.002 D=0.936495 W=0.936495 [0.0, 1.0, 0.0](0.0, 1.0, 0.0, -28.906) 
			 Plane 0019 T=0.016 C=0.014 B=0.000 S=0.002 D=0.936495 W=0.936495 [0.0, 1.0, 0.0](0.0, 1.0, 0.0, -32.656) 
			 Plane 0007 T=0.015 C=0.015 B=0.000 S=0.000 D=0.000000 W=0.936495 [0.0, 1.0, 0.0](1.0, 0.0, 0.0, -52.031) 

			 Best  0007 T=0.015 C=0.015 B=0.000 S=0.000 (1.0, 0.0, 0.0, -52.031)

		 [Refining] Number of clipping planes 9
			 Plane 0000 T=0.019 C=0.019 B=0.000 S=0.000 D=0.000000 W=0.936495 [0.0, 1.0, 0.0](1.0, 0.0, 0.0, -48.281) 
			 Plane 0005 T=0.015 C=0.015 B=0.000 S=0.000 D=0.000000 W=0.936495 [0.0, 1.0, 0.0](1.0, 0.0, 0.0, -52.969) 
			 Plane 0006 T=0.015 C=0.015 B=0.000 S=0.000 D=0.000000 W=0.936495 [0.0, 1.0, 0.0](1.0, 0.0, 0.0, -53.906) 

			 Best  0006 T=0.015 C=0.015 B=0.000 S=0.000 (1.0, 0.0, 0.0, -53.906)

	 Subdivision level 5
	 -> Part[0] C = 0.00336245, E = 0.0029158, VS = 1523, VC = 0, VI = 0
		 [Regular sampling] Number of clipping planes 22
			 Plane 0011 T=0.002 C=0.002 B=0.000 S=0.000 D=0.047230 W=0.047230 [0.0, 1.0, 0.0](0.0, 1.0, 0.0, 20.781) 
			 Plane 0021 T=0.002 C=0.002 B=0.000 S=0.000 D=0.000000 W=0.047230 [0.0, 1.0, 0.0](0.0, 0.0, 1.0, -38.321) 

			 Best  0021 T=0.002 C=0.002 B=0.000 S=0.000 (0.0, 0.0, 1.0, -38.321)

		 [Refining] Number of clipping planes 3
			 Plane 0000 T=0.002 C=0.002 B=0.000 S=0.000 D=0.000000 W=0.047230 [0.0, 1.0, 0.0](0.0, 0.0, 1.0, -38.321) 

			 Best  0000 T=0.002 C=0.002 B=0.000 S=0.000 (0.0, 0.0, 1.0, -38.321)

	 -> Part[1] C = 0.0180093, E = 0.00412577, VS = 2155, VC = 0, VI = 0
		 [Regular sampling] Number of clipping planes 25
			 Plane 0000 T=0.017 C=0.017 B=0.000 S=0.000 D=0.000000 W=0.907652 [0.0, 1.0, 0.0](1.0, 0.0, 0.0, 58.594) 
			 Plane 0013 T=0.013 C=0.012 B=0.000 S=0.001 D=0.907652 W=0.907652 [0.0, 1.0, 0.0](0.0, 1.0, 0.0, 9.531) 
			 Plane 0001 T=0.007 C=0.007 B=0.000 S=0.000 D=0.000000 W=0.907652 [0.0, 1.0, 0.0](1.0, 0.0, 0.0, 54.844) 

			 Best  0001 T=0.007 C=0.007 B=0.000 S=0.000 (1.0, 0.0, 0.0, 54.844)

		 [Refining] Number of clipping planes 9
			 Plane 0000 T=0.018 C=0.018 B=0.000 S=0.000 D=0.000000 W=0.907652 [0.0, 1.0, 0.0](1.0, 0.0, 0.0, 58.594) 
			 Plane 0005 T=0.007 C=0.007 B=0.000 S=0.000 D=0.000000 W=0.907652 [0.0, 1.0, 0.0](1.0, 0.0, 0.0, 53.906) 
			 Plane 0004 T=0.007 C=0.007 B=0.000 S=0.000 D=0.000000 W=0.907652 [0.0, 1.0, 0.0](1.0, 0.0, 0.0, 54.844) 

			 Best  0004 T=0.007 C=0.007 B=0.000 S=0.000 (1.0, 0.0, 0.0, 54.844)

	 -> Part[2] C = 0.0421204, E = 0.0114947, VS = 6004, VC = 1, VI = 5
		 [Regular sampling] Number of clipping planes 36
			 Plane 0018 T=0.035 C=0.034 B=0.000 S=0.001 D=0.572093 W=0.572093 [1.0, 0.0, 0.0](1.0, 0.0, 0.0, -27.656) 
			 Plane 0019 T=0.035 C=0.033 B=0.000 S=0.001 D=0.572093 W=0.572093 [1.0, 0.0, 0.0](1.0, 0.0, 0.0, -31.406) 
			 Plane 0020 T=0.034 C=0.033 B=0.000 S=0.001 D=0.572093 W=0.572093 [1.0, 0.0, 0.0](1.0, 0.0, 0.0, -35.156) 
			 Plane 0021 T=0.033 C=0.032 B=0.000 S=0.001 D=0.572093 W=0.572093 [1.0, 0.0, 0.0](1.0, 0.0, 0.0, -38.906) 
			 Plane 0022 T=0.033 C=0.032 B=0.000 S=0.001 D=0.572093 W=0.572093 [1.0, 0.0, 0.0](1.0, 0.0, 0.0, -42.656) 
			 Plane 0023 T=0.033 C=0.032 B=0.000 S=0.001 D=0.572093 W=0.572093 [1.0, 0.0, 0.0](1.0, 0.0, 0.0, -46.406) 
			 Plane 0032 T=0.031 C=0.031 B=0.000 S=0.000 D=0.000000 W=0.572093 [1.0, 0.0, 0.0](0.0, 0.0, 1.0, -42.071) 

			 Best  0032 T=0.031 C=0.031 B=0.000 S=0.000 (0.0, 0.0, 1.0, -42.071)

		 [Refining] Number of clipping planes 9
			 Plane 0005 T=0.032 C=0.032 B=0.000 S=0.000 D=0.000000 W=0.572093 [1.0, 0.0, 0.0](0.0, 0.0, 1.0, -43.008) 
			 Plane 0002 T=0.030 C=0.030 B=0.000 S=0.000 D=0.000000 W=0.572093 [1.0, 0.0, 0.0](0.0, 0.0, 1.0, -40.196) 

			 Best  0002 T=0.030 C=0.030 B=0.000 S=0.000 (0.0, 0.0, 1.0, -40.196)

	 -> Part[3] C = 0.0790316, E = 0.00915327, VS = 4781, VC = 0, VI = 0
		 [Regular sampling] Number of clipping planes 43
			 Plane 0000 T=0.078 C=0.076 B=0.000 S=0.001 D=0.306221 W=0.306221 [1.0, 0.0, 0.0](1.0, 0.0, 0.0, 39.844) 
			 Plane 0022 T=0.022 C=0.021 B=0.000 S=0.001 D=0.306221 W=0.306221 [1.0, 0.0, 0.0](1.0, 0.0, 0.0, -42.656) 
			 Plane 0023 T=0.020 C=0.019 B=0.000 S=0.001 D=0.306221 W=0.306221 [1.0, 0.0, 0.0](1.0, 0.0, 0.0, -46.406) 
			 Plane 0024 T=0.018 C=0.017 B=0.000 S=0.001 D=0.306221 W=0.306221 [1.0, 0.0, 0.0](1.0, 0.0, 0.0, -50.156) 
			 Plane 0025 T=0.016 C=0.015 B=0.000 S=0.001 D=0.306221 W=0.306221 [1.0, 0.0, 0.0](1.0, 0.0, 0.0, -53.906) 

			 Best  0025 T=0.016 C=0.015 B=0.000 S=0.001 (1.0, 0.0, 0.0, -53.906)

		 [Refining] Number of clipping planes 9
			 Plane 0000 T=0.019 C=0.018 B=0.000 S=0.001 D=0.306221 W=0.306221 [1.0, 0.0, 0.0](1.0, 0.0, 0.0, -50.156) 
			 Plane 0005 T=0.016 C=0.015 B=0.000 S=0.001 D=0.306221 W=0.306221 [1.0, 0.0, 0.0](1.0, 0.0, 0.0, -54.844) 

			 Best  0005 T=0.016 C=0.015 B=0.000 S=0.001 (1.0, 0.0, 0.0, -54.844)

	 -> Part[4] C = 0.00146601, E = 0.00181495, VS = 948, VC = 0, VI = 0
	 -> Part[5] C = 0.00799246, E = 0.00256161, VS = 1338, VC = 0, VI = 0
		 [Regular sampling] Number of clipping planes 18
			 Plane 0000 T=0.007 C=0.007 B=0.000 S=0.000 D=0.000000 W=0.820388 [0.0, 1.0, 0.0](1.0, 0.0, 0.0, 58.594) 
			 Plane 0009 T=0.004 C=0.004 B=0.000 S=0.000 D=0.820388 W=0.820388 [0.0, 1.0, 0.0](0.0, 1.0, 0.0, -28.906) 
			 Plane 0001 T=0.003 C=0.003 B=0.000 S=0.000 D=0.000000 W=0.820388 [0.0, 1.0, 0.0](1.0, 0.0, 0.0, 54.844) 

			 Best  0001 T=0.003 C=0.003 B=0.000 S=0.000 (1.0, 0.0, 0.0, 54.844)

		 [Refining] Number of clipping planes 9
			 Plane 0000 T=0.008 C=0.008 B=0.000 S=0.000 D=0.000000 W=0.820388 [0.0, 1.0, 0.0](1.0, 0.0, 0.0, 58.594) 
			 Plane 0005 T=0.003 C=0.003 B=0.000 S=0.000 D=0.000000 W=0.820388 [0.0, 1.0, 0.0](1.0, 0.0, 0.0, 53.906) 

			 Best  0005 T=0.003 C=0.003 B=0.000 S=0.000 (1.0, 0.0, 0.0, 53.906)

	 -> Part[6] C = 0.00770669, E = 0.0100225, VS = 5235, VC = 0, VI = 0
	 -> Part[7] C = 0.0475779, E = 0.00805434, VS = 4207, VC = 2, VI = 40
		 [Regular sampling] Number of clipping planes 40
			 Plane 0000 T=0.049 C=0.047 B=0.000 S=0.002 D=0.995198 W=0.995198 [1.0, 0.0, 0.0](1.0, 0.0, 0.0, 39.844) 
			 Plane 0020 T=0.017 C=0.015 B=0.000 S=0.002 D=0.995198 W=0.995198 [1.0, 0.0, 0.0](1.0, 0.0, 0.0, -35.156) 
			 Plane 0021 T=0.015 C=0.013 B=0.000 S=0.002 D=0.995198 W=0.995198 [1.0, 0.0, 0.0](1.0, 0.0, 0.0, -38.906) 
			 Plane 0022 T=0.014 C=0.012 B=0.000 S=0.002 D=0.995198 W=0.995198 [1.0, 0.0, 0.0](1.0, 0.0, 0.0, -42.656) 
			 Plane 0023 T=0.013 C=0.010 B=0.000 S=0.002 D=0.995198 W=0.995198 [1.0, 0.0, 0.0](1.0, 0.0, 0.0, -46.406) 

			 Best  0023 T=0.013 C=0.010 B=0.000 S=0.002 (1.0, 0.0, 0.0, -46.406)

		 [Refining] Number of clipping planes 9
			 Plane 0005 T=0.014 C=0.012 B=0.000 S=0.002 D=0.995198 W=0.995198 [1.0, 0.0, 0.0](1.0, 0.0, 0.0, -47.344) 
			 Plane 0002 T=0.014 C=0.012 B=0.000 S=0.002 D=0.995198 W=0.995198 [1.0, 0.0, 0.0](1.0, 0.0, 0.0, -44.531) 
			 Plane 0003 T=0.013 C=0.011 B=0.000 S=0.002 D=0.995198 W=0.995198 [1.0, 0.0, 0.0](1.0, 0.0, 0.0, -45.469) 
			 Plane 0004 T=0.013 C=0.011 B=0.000 S=0.002 D=0.995198 W=0.995198 [1.0, 0.0, 0.0](1.0, 0.0, 0.0, -46.406) 

			 Best  0004 T=0.013 C=0.011 B=0.000 S=0.002 (1.0, 0.0, 0.0, -46.406)

	 -> Part[8] C = 0.0182151, E = 0.0106083, VS = 5541, VC = 0, VI = 51
		 [Regular sampling] Number of clipping planes 32
			 Plane 0016 T=0.016 C=0.016 B=0.000 S=0.000 D=0.054517 W=0.054517 [1.0, 0.0, 0.0](1.0, 0.0, 0.0, -2.344) 
			 Plane 0002 T=0.015 C=0.015 B=0.000 S=0.000 D=0.054517 W=0.054517 [1.0, 0.0, 0.0](1.0, 0.0, 0.0, 50.156) 
			 Plane 0003 T=0.014 C=0.014 B=0.000 S=0.000 D=0.054517 W=0.054517 [1.0, 0.0, 0.0](1.0, 0.0, 0.0, 46.406) 
			 Plane 0004 T=0.014 C=0.014 B=0.000 S=0.000 D=0.054517 W=0.054517 [1.0, 0.0, 0.0](1.0, 0.0, 0.0, 42.656) 

			 Best  0004 T=0.014 C=0.014 B=0.000 S=0.000 (1.0, 0.0, 0.0, 42.656)

		 [Refining] Number of clipping planes 9
			 Plane 0005 T=0.015 C=0.015 B=0.000 S=0.000 D=0.054517 W=0.054517 [1.0, 0.0, 0.0](1.0, 0.0, 0.0, 41.719) 
			 Plane 0000 T=0.015 C=0.015 B=0.000 S=0.000 D=0.054517 W=0.054517 [1.0, 0.0, 0.0](1.0, 0.0, 0.0, 46.406) 

			 Best  0000 T=0.015 C=0.015 B=0.000 S=0.000 (1.0, 0.0, 0.0, 46.406)

	 -> Part[9] C = 0.0101978, E = 0.00520938, VS = 2721, VC = 0, VI = 6
		 [Regular sampling] Number of clipping planes 21
			 Plane 0000 T=0.009 C=0.009 B=0.000 S=0.000 D=0.817167 W=0.817167 [1.0, 0.0, 0.0](1.0, 0.0, 0.0, 59.531) 
			 Plane 0011 T=0.009 C=0.009 B=0.000 S=0.000 D=0.000000 W=0.817167 [1.0, 0.0, 0.0](0.0, 1.0, 0.0, 2.969) 
			 Plane 0004 T=0.007 C=0.007 B=0.000 S=0.000 D=0.000000 W=0.817167 [1.0, 0.0, 0.0](0.0, 1.0, 0.0, 29.219) 

			 Best  0004 T=0.007 C=0.007 B=0.000 S=0.000 (0.0, 1.0, 0.0, 29.219)

		 [Refining] Number of clipping planes 9
			 Plane 0005 T=0.007 C=0.007 B=0.000 S=0.000 D=0.000000 W=0.817167 [1.0, 0.0, 0.0](0.0, 1.0, 0.0, 28.281) 
			 Plane 0003 T=0.007 C=0.007 B=0.000 S=0.000 D=0.000000 W=0.817167 [1.0, 0.0, 0.0](0.0, 1.0, 0.0, 30.156) 

			 Best  0003 T=0.007 C=0.007 B=0.000 S=0.000 (0.0, 1.0, 0.0, 30.156)

	 -> Part[10] C = 0.00797609, E = 0.00428276, VS = 2237, VC = 1, VI = 5
		 [Regular sampling] Number of clipping planes 18
			 Plane 0009 T=0.005 C=0.005 B=0.000 S=0.000 D=0.000000 W=0.990155 [1.0, 0.0, 0.0](0.0, 1.0, 0.0, -28.906) 
			 Plane 0008 T=0.005 C=0.005 B=0.000 S=0.000 D=0.000000 W=0.990155 [1.0, 0.0, 0.0](0.0, 1.0, 0.0, -25.156) 

			 Best  0008 T=0.005 C=0.005 B=0.000 S=0.000 (0.0, 1.0, 0.0, -25.156)

		 [Refining] Number of clipping planes 9
			 Plane 0005 T=0.005 C=0.005 B=0.000 S=0.000 D=0.000000 W=0.990155 [1.0, 0.0, 0.0](0.0, 1.0, 0.0, -26.094) 
			 Plane 0006 T=0.005 C=0.005 B=0.000 S=0.000 D=0.000000 W=0.990155 [1.0, 0.0, 0.0](0.0, 1.0, 0.0, -27.031) 
			 Plane 0008 T=0.005 C=0.005 B=0.000 S=0.000 D=0.000000 W=0.990155 [1.0, 0.0, 0.0](0.0, 1.0, 0.0, -28.906) 

			 Best  0008 T=0.005 C=0.005 B=0.000 S=0.000 (0.0, 1.0, 0.0, -28.906)

	 -> Part[11] C = 0.014734, E = 0.0111463, VS = 5822, VC = 2, VI = 45
		 [Regular sampling] Number of clipping planes 32
			 Plane 0016 T=0.013 C=0.013 B=0.000 S=0.000 D=0.045680 W=0.045680 [1.0, 0.0, 0.0](1.0, 0.0, 0.0, -2.344) 
			 Plane 0003 T=0.012 C=0.012 B=0.000 S=0.000 D=0.045680 W=0.045680 [1.0, 0.0, 0.0](1.0, 0.0, 0.0, 46.406) 
			 Plane 0004 T=0.012 C=0.012 B=0.000 S=0.000 D=0.045680 W=0.045680 [1.0, 0.0, 0.0](1.0, 0.0, 0.0, 42.656) 
			 Plane 0028 T=0.012 C=0.012 B=0.000 S=0.000 D=0.000000 W=0.045680 [1.0, 0.0, 0.0](0.0, 0.0, 1.0, -68.321) 
			 Plane 0029 T=0.012 C=0.012 B=0.000 S=0.000 D=0.000000 W=0.045680 [1.0, 0.0, 0.0](0.0, 0.0, 1.0, -72.071) 
			 Plane 0030 T=0.011 C=0.011 B=0.000 S=0.000 D=0.000000 W=0.045680 [1.0, 0.0, 0.0](0.0, 0.0, 1.0, -75.821) 

			 Best  0030 T=0.011 C=0.011 B=0.000 S=0.000 (0.0, 0.0, 1.0, -75.821)

		 [Refining] Number of clipping planes 9
			 Plane 0005 T=0.012 C=0.012 B=0.000 S=0.000 D=0.000000 W=0.045680 [1.0, 0.0, 0.0](0.0, 0.0, 1.0, -76.758) 
			 Plane 0006 T=0.012 C=0.012 B=0.000 S=0.000 D=0.000000 W=0.045680 [1.0, 0.0, 0.0](0.0, 0.0, 1.0, -77.696) 

			 Best  0006 T=0.012 C=0.012 B=0.000 S=0.000 (0.0, 0.0, 1.0, -77.696)

	 -> Part[12] C = 0.0077045, E = 0.00422532, VS = 2207, VC = 0, VI = 0
		 [Regular sampling] Number of clipping planes 18
			 Plane 0000 T=0.007 C=0.007 B=0.000 S=0.000 D=0.000000 W=0.971306 [0.0, 1.0, 0.0](1.0, 0.0, 0.0, -25.781) 
			 Plane 0001 T=0.007 C=0.007 B=0.000 S=0.000 D=0.000000 W=0.971306 [0.0, 1.0, 0.0](1.0, 0.0, 0.0, -29.531) 
			 Plane 0002 T=0.006 C=0.006 B=0.000 S=0.000 D=0.000000 W=0.971306 [0.0, 1.0, 0.0](1.0, 0.0, 0.0, -33.281) 
			 Plane 0003 T=0.006 C=0.006 B=0.000 S=0.000 D=0.000000 W=0.971306 [0.0, 1.0, 0.0](1.0, 0.0, 0.0, -37.031) 
			 Plane 0004 T=0.005 C=0.005 B=0.000 S=0.000 D=0.000000 W=0.971306 [0.0, 1.0, 0.0](1.0, 0.0, 0.0, -40.781) 
			 Plane 0005 T=0.005 C=0.005 B=0.000 S=0.000 D=0.000000 W=0.971306 [0.0, 1.0, 0.0](1.0, 0.0, 0.0, -44.531) 

			 Best  0005 T=0.005 C=0.005 B=0.000 S=0.000 (1.0, 0.0, 0.0, -44.531)

		 [Refining] Number of clipping planes 9
			 Plane 0000 T=0.006 C=0.006 B=0.000 S=0.000 D=0.000000 W=0.971306 [0.0, 1.0, 0.0](1.0, 0.0, 0.0, -40.781) 
			 Plane 0005 T=0.005 C=0.005 B=0.000 S=0.000 D=0.000000 W=0.971306 [0.0, 1.0, 0.0](1.0, 0.0, 0.0, -45.469) 
			 Plane 0006 T=0.005 C=0.005 B=0.000 S=0.000 D=0.000000 W=0.971306 [0.0, 1.0, 0.0](1.0, 0.0, 0.0, -46.406) 

			 Best  0006 T=0.005 C=0.005 B=0.000 S=0.000 (1.0, 0.0, 0.0, -46.406)

	 -> Part[13] C = 0.00700913, E = 0.00469055, VS = 2450, VC = 1, VI = 3
		 [Regular sampling] Number of clipping planes 19
			 Plane 0010 T=0.006 C=0.006 B=0.000 S=0.000 D=0.000000 W=0.919707 [1.0, 0.0, 0.0](0.0, 1.0, 0.0, 7.656) 
			 Plane 0000 T=0.006 C=0.006 B=0.000 S=0.000 D=0.919707 W=0.919707 [1.0, 0.0, 0.0](1.0, 0.0, 0.0, -54.844) 
			 Plane 0004 T=0.006 C=0.006 B=0.000 S=0.000 D=0.000000 W=0.919707 [1.0, 0.0, 0.0](0.0, 1.0, 0.0, 30.156) 
			 Plane 0005 T=0.005 C=0.005 B=0.000 S=0.000 D=0.000000 W=0.919707 [1.0, 0.0, 0.0](0.0, 1.0, 0.0, 26.406) 
			 Plane 0006 T=0.005 C=0.005 B=0.000 S=0.000 D=0.000000 W=0.919707 [1.0, 0.0, 0.0](0.0, 1.0, 0.0, 22.656) 
			 Plane 0016 T=0.005 C=0.005 B=0.000 S=0.000 D=0.000000 W=0.919707 [1.0, 0.0, 0.0](0.0, 0.0, 1.0, -72.071) 
			 Plane 0017 T=0.005 C=0.005 B=0.000 S=0.000 D=0.000000 W=0.919707 [1.0, 0.0, 0.0](0.0, 0.0, 1.0, -75.821) 

			 Best  0017 T=0.005 C=0.005 B=0.000 S=0.000 (0.0, 0.0, 1.0, -75.821)

		 [Refining] Number of clipping planes 9
			 Plane 0000 T=0.006 C=0.006 B=0.000 S=0.000 D=0.000000 W=0.919707 [1.0, 0.0, 0.0](0.0, 0.0, 1.0, -72.071) 
			 Plane 0005 T=0.006 C=0.006 B=0.000 S=0.000 D=0.000000 W=0.919707 [1.0, 0.0, 0.0](0.0, 0.0, 1.0, -76.758) 
			 Plane 0006 T=0.006 C=0.006 B=0.000 S=0.000 D=0.000000 W=0.919707 [1.0, 0.0, 0.0](0.0, 0.0, 1.0, -77.696) 

			 Best  0006 T=0.006 C=0.006 B=0.000 S=0.000 (0.0, 0.0, 1.0, -77.696)

	 -> Part[14] C = 0.00661942, E = 0.00437082, VS = 2283, VC = 1, VI = 0
		 [Regular sampling] Number of clipping planes 17
			 Plane 0000 T=0.006 C=0.006 B=0.000 S=0.000 D=0.000000 W=0.979530 [0.0, 1.0, 0.0](1.0, 0.0, 0.0, -25.781) 
			 Plane 0001 T=0.006 C=0.006 B=0.000 S=0.000 D=0.000000 W=0.979530 [0.0, 1.0, 0.0](1.0, 0.0, 0.0, -29.531) 
			 Plane 0002 T=0.005 C=0.005 B=0.000 S=0.000 D=0.000000 W=0.979530 [0.0, 1.0, 0.0](1.0, 0.0, 0.0, -33.281) 
			 Plane 0003 T=0.005 C=0.005 B=0.000 S=0.000 D=0.000000 W=0.979530 [0.0, 1.0, 0.0](1.0, 0.0, 0.0, -37.031) 
			 Plane 0004 T=0.005 C=0.005 B=0.000 S=0.000 D=0.000000 W=0.979530 [0.0, 1.0, 0.0](1.0, 0.0, 0.0, -40.781) 
			 Plane 0005 T=0.004 C=0.004 B=0.000 S=0.000 D=0.000000 W=0.979530 [0.0, 1.0, 0.0](1.0, 0.0, 0.0, -44.531) 

			 Best  0005 T=0.004 C=0.004 B=0.000 S=0.000 (1.0, 0.0, 0.0, -44.531)

		 [Refining] Number of clipping planes 9
			 Plane 0005 T=0.005 C=0.005 B=0.000 S=0.000 D=0.000000 W=0.979530 [0.0, 1.0, 0.0](1.0, 0.0, 0.0, -45.469) 
			 Plane 0006 T=0.005 C=0.005 B=0.000 S=0.000 D=0.000000 W=0.979530 [0.0, 1.0, 0.0](1.0, 0.0, 0.0, -46.406) 

			 Best  0006 T=0.005 C=0.005 B=0.000 S=0.000 (1.0, 0.0, 0.0, -46.406)

	 -> Part[15] C = 0.0081104, E = 0.00491837, VS = 2569, VC = 0, VI = 0
		 [Regular sampling] Number of clipping planes 20
			 Plane 0000 T=0.007 C=0.007 B=0.000 S=0.000 D=0.861696 W=0.861696 [1.0, 0.0, 0.0](1.0, 0.0, 0.0, -54.844) 
			 Plane 0010 T=0.007 C=0.007 B=0.000 S=0.000 D=0.000000 W=0.861696 [1.0, 0.0, 0.0](0.0, 1.0, 0.0, -28.906) 
			 Plane 0016 T=0.007 C=0.007 B=0.000 S=0.000 D=0.000000 W=0.861696 [1.0, 0.0, 0.0](0.0, 0.0, 1.0, -68.321) 
			 Plane 0017 T=0.006 C=0.006 B=0.000 S=0.000 D=0.000000 W=0.861696 [1.0, 0.0, 0.0](0.0, 0.0, 1.0, -72.071) 
			 Plane 0018 T=0.006 C=0.006 B=0.000 S=0.000 D=0.000000 W=0.861696 [1.0, 0.0, 0.0](0.0, 0.0, 1.0, -75.821) 

			 Best  0018 T=0.006 C=0.006 B=0.000 S=0.000 (0.0, 0.0, 1.0, -75.821)

		 [Refining] Number of clipping planes 9
			 Plane 0005 T=0.006 C=0.006 B=0.000 S=0.000 D=0.000000 W=0.861696 [1.0, 0.0, 0.0](0.0, 0.0, 1.0, -76.758) 
			 Plane 0006 T=0.006 C=0.006 B=0.000 S=0.000 D=0.000000 W=0.861696 [1.0, 0.0, 0.0](0.0, 0.0, 1.0, -77.696) 

			 Best  0006 T=0.006 C=0.006 B=0.000 S=0.000 (0.0, 0.0, 1.0, -77.696)

	 Subdivision level 6
	 -> Part[0] C = 0.00013447, E = 0.00210213, VS = 1098, VC = 0, VI = 0
	 -> Part[1] C = 0.00221055, E = 0.000813666, VS = 425, VC = 0, VI = 0
	 -> Part[2] C = 0.00490267, E = 0.00301727, VS = 1576, VC = 0, VI = 0
		 [Regular sampling] Number of clipping planes 20
			 Plane 0000 T=0.005 C=0.005 B=0.000 S=0.000 D=0.000000 W=0.132805 [0.0, 1.0, 0.0](1.0, 0.0, 0.0, 58.594) 
			 Plane 0010 T=0.004 C=0.004 B=0.000 S=0.000 D=0.132805 W=0.132805 [0.0, 1.0, 0.0](0.0, 1.0, 0.0, 4.844) 
			 Plane 0011 T=0.004 C=0.004 B=0.000 S=0.000 D=0.132805 W=0.132805 [0.0, 1.0, 0.0](0.0, 1.0, 0.0, 1.094) 
			 Plane 0005 T=0.004 C=0.004 B=0.000 S=0.000 D=0.132805 W=0.132805 [0.0, 1.0, 0.0](0.0, 1.0, 0.0, 23.594) 
			 Plane 0006 T=0.004 C=0.004 B=0.000 S=0.000 D=0.132805 W=0.132805 [0.0, 1.0, 0.0](0.0, 1.0, 0.0, 19.844) 

			 Best  0006 T=0.004 C=0.004 B=0.000 S=0.000 (0.0, 1.0, 0.0, 19.844)

		 [Refining] Number of clipping planes 9
			 Plane 0005 T=0.004 C=0.004 B=0.000 S=0.000 D=0.132805 W=0.132805 [0.0, 1.0, 0.0](0.0, 1.0, 0.0, 18.906) 

			 Best  0005 T=0.004 C=0.004 B=0.000 S=0.000 (0.0, 1.0, 0.0, 18.906)

	 -> Part[3] C = 0.00222432, E = 0.0011085, VS = 579, VC = 0, VI = 0
	 -> Part[4] C = 0.00428177, E = 0.00481882, VS = 2517, VC = 0, VI = 0
	 -> Part[5] C = 0.0261508, E = 0.00667589, VS = 3487, VC = 1, VI = 5
		 [Regular sampling] Number of clipping planes 36
			 Plane 0018 T=0.015 C=0.014 B=0.000 S=0.001 D=0.513940 W=0.513940 [1.0, 0.0, 0.0](1.0, 0.0, 0.0, -27.656) 
			 Plane 0019 T=0.014 C=0.013 B=0.000 S=0.001 D=0.513940 W=0.513940 [1.0, 0.0, 0.0](1.0, 0.0, 0.0, -31.406) 
			 Plane 0020 T=0.013 C=0.012 B=0.000 S=0.001 D=0.513940 W=0.513940 [1.0, 0.0, 0.0](1.0, 0.0, 0.0, -35.156) 
			 Plane 0021 T=0.012 C=0.012 B=0.000 S=0.001 D=0.513940 W=0.513940 [1.0, 0.0, 0.0](1.0, 0.0, 0.0, -38.906) 
			 Plane 0022 T=0.012 C=0.011 B=0.000 S=0.001 D=0.513940 W=0.513940 [1.0, 0.0, 0.0](1.0, 0.0, 0.0, -42.656) 
			 Plane 0023 T=0.011 C=0.011 B=0.000 S=0.001 D=0.513940 W=0.513940 [1.0, 0.0, 0.0](1.0, 0.0, 0.0, -46.406) 

			 Best  0023 T=0.011 C=0.011 B=0.000 S=0.001 (1.0, 0.0, 0.0, -46.406)

		 [Refining] Number of clipping planes 9
			 Plane 0000 T=0.012 C=0.012 B=0.000 S=0.001 D=0.513940 W=0.513940 [1.0, 0.0, 0.0](1.0, 0.0, 0.0, -42.656) 
			 Plane 0001 T=0.012 C=0.012 B=0.000 S=0.001 D=0.513940 W=0.513940 [1.0, 0.0, 0.0](1.0, 0.0, 0.0, -43.594) 
			 Plane 0002 T=0.012 C=0.012 B=0.000 S=0.001 D=0.513940 W=0.513940 [1.0, 0.0, 0.0](1.0, 0.0, 0.0, -44.531) 
			 Plane 0003 T=0.012 C=0.011 B=0.000 S=0.001 D=0.513940 W=0.513940 [1.0, 0.0, 0.0](1.0, 0.0, 0.0, -45.469) 
			 Plane 0004 T=0.012 C=0.011 B=0.000 S=0.001 D=0.513940 W=0.513940 [1.0, 0.0, 0.0](1.0, 0.0, 0.0, -46.406) 

			 Best  0004 T=0.012 C=0.011 B=0.000 S=0.001 (1.0, 0.0, 0.0, -46.406)

	 -> Part[6] C = 0.00930974, E = 0.0061226, VS = 3198, VC = 0, VI = 0
		 [Regular sampling] Number of clipping planes 38
			 Plane 0000 T=0.009 C=0.009 B=0.000 S=0.000 D=0.010367 W=0.010367 [1.0, 0.0, 0.0](1.0, 0.0, 0.0, 39.844) 
			 Plane 0019 T=0.006 C=0.006 B=0.000 S=0.000 D=0.010367 W=0.010367 [1.0, 0.0, 0.0](1.0, 0.0, 0.0, -31.406) 
			 Plane 0008 T=0.006 C=0.006 B=0.000 S=0.000 D=0.010367 W=0.010367 [1.0, 0.0, 0.0](1.0, 0.0, 0.0, 9.844) 
			 Plane 0009 T=0.005 C=0.005 B=0.000 S=0.000 D=0.010367 W=0.010367 [1.0, 0.0, 0.0](1.0, 0.0, 0.0, 6.094) 
			 Plane 0010 T=0.005 C=0.005 B=0.000 S=0.000 D=0.010367 W=0.010367 [1.0, 0.0, 0.0](1.0, 0.0, 0.0, 2.344) 
			 Plane 0016 T=0.004 C=0.004 B=0.000 S=0.000 D=0.010367 W=0.010367 [1.0, 0.0, 0.0](1.0, 0.0, 0.0, -20.156) 
			 Plane 0037 T=0.000 C=0.000 B=0.000 S=0.000 D=0.000000 W=0.010367 [1.0, 0.0, 0.0](0.0, 0.0, 1.0, -38.321) 

			 Best  0037 T=0.000 C=0.000 B=0.000 S=0.000 (0.0, 0.0, 1.0, -38.321)

		 [Refining] Number of clipping planes 3
			 Plane 0000 T=0.000 C=0.000 B=0.000 S=0.000 D=0.000000 W=0.010367 [1.0, 0.0, 0.0](0.0, 0.0, 1.0, -38.321) 

			 Best  0000 T=0.000 C=0.000 B=0.000 S=0.000 (0.0, 0.0, 1.0, -38.321)

	 -> Part[7] C = 0.00525012, E = 0.00303067, VS = 1583, VC = 0, VI = 0
		 [Regular sampling] Number of clipping planes 18
			 Plane 0009 T=0.005 C=0.005 B=0.000 S=0.000 D=0.110602 W=0.110602 [0.0, 1.0, 0.0](0.0, 1.0, 0.0, -0.781) 
			 Plane 0001 T=0.004 C=0.004 B=0.000 S=0.000 D=0.000000 W=0.110602 [0.0, 1.0, 0.0](1.0, 0.0, 0.0, -59.531) 

			 Best  0001 T=0.004 C=0.004 B=0.000 S=0.000 (1.0, 0.0, 0.0, -59.531)

		 [Refining] Number of clipping planes 6
			 Plane 0003 T=0.005 C=0.005 B=0.000 S=0.000 D=0.000000 W=0.110602 [0.0, 1.0, 0.0](1.0, 0.0, 0.0, -58.594) 
			 Plane 0004 T=0.004 C=0.004 B=0.000 S=0.000 D=0.000000 W=0.110602 [0.0, 1.0, 0.0](1.0, 0.0, 0.0, -59.531) 

			 Best  0004 T=0.004 C=0.004 B=0.000 S=0.000 (1.0, 0.0, 0.0, -59.531)

	 -> Part[8] C = 0.00207421, E = 0.00143397, VS = 749, VC = 0, VI = 0
	 -> Part[9] C = 0.0013787, E = 0.00112765, VS = 589, VC = 0, VI = 0
	 -> Part[10] C = 0.00550274, E = 0.00587563, VS = 3069, VC = 2, VI = 40
	 -> Part[11] C = 0.00547234, E = 0.00217871, VS = 1138, VC = 0, VI = 0
		 [Regular sampling] Number of clipping planes 17
			 Plane 0000 T=0.004 C=0.004 B=0.000 S=0.000 D=0.000000 W=0.518636 [0.0, 1.0, 0.0](1.0, 0.0, 0.0, -47.344) 
			 Plane 0009 T=0.003 C=0.003 B=0.000 S=0.000 D=0.518636 W=0.518636 [0.0, 1.0, 0.0](0.0, 1.0, 0.0, -32.656) 
			 Plane 0002 T=0.003 C=0.003 B=0.000 S=0.000 D=0.000000 W=0.518636 [0.0, 1.0, 0.0](1.0, 0.0, 0.0, -54.844) 

			 Best  0002 T=0.003 C=0.003 B=0.000 S=0.000 (1.0, 0.0, 0.0, -54.844)

		 [Refining] Number of clipping planes 9
			 Plane 0005 T=0.005 C=0.005 B=0.000 S=0.000 D=0.000000 W=0.518636 [0.0, 1.0, 0.0](1.0, 0.0, 0.0, -55.781) 
			 Plane 0000 T=0.004 C=0.004 B=0.000 S=0.000 D=0.000000 W=0.518636 [0.0, 1.0, 0.0](1.0, 0.0, 0.0, -51.094) 
			 Plane 0001 T=0.003 C=0.003 B=0.000 S=0.000 D=0.000000 W=0.518636 [0.0, 1.0, 0.0](1.0, 0.0, 0.0, -52.031) 
			 Plane 0002 T=0.003 C=0.003 B=0.000 S=0.000 D=0.000000 W=0.518636 [0.0, 1.0, 0.0](1.0, 0.0, 0.0, -52.969) 
			 Plane 0003 T=0.003 C=0.003 B=0.000 S=0.000 D=0.000000 W=0.518636 [0.0, 1.0, 0.0](1.0, 0.0, 0.0, -53.906) 
			 Plane 0004 T=0.003 C=0.003 B=0.000 S=0.000 D=0.000000 W=0.518636 [0.0, 1.0, 0.0](1.0, 0.0, 0.0, -54.844) 

			 Best  0004 T=0.003 C=0.003 B=0.000 S=0.000 (1.0, 0.0, 0.0, -54.844)

	 -> Part[12] C = 0.00191347, E = 0.00160244, VS = 837, VC = 0, VI = 0
	 -> Part[13] C = 0.0130904, E = 0.00900585, VS = 4704, VC = 0, VI = 51
		 [Regular sampling] Number of clipping planes 28
			 Plane 0000 T=0.012 C=0.012 B=0.000 S=0.000 D=0.048274 W=0.048274 [1.0, 0.0, 0.0](1.0, 0.0, 0.0, 45.469) 
			 Plane 0001 T=0.012 C=0.012 B=0.000 S=0.000 D=0.048274 W=0.048274 [1.0, 0.0, 0.0](1.0, 0.0, 0.0, 41.719) 
			 Plane 0003 T=0.012 C=0.012 B=0.000 S=0.000 D=0.048274 W=0.048274 [1.0, 0.0, 0.0](1.0, 0.0, 0.0, 34.219) 
			 Plane 0004 T=0.012 C=0.012 B=0.000 S=0.000 D=0.048274 W=0.048274 [1.0, 0.0, 0.0](1.0, 0.0, 0.0, 30.469) 
			 Plane 0019 T=0.011 C=0.011 B=0.000 S=0.000 D=0.000000 W=0.048274 [1.0, 0.0, 0.0](0.0, 1.0, 0.0, 39.531) 
			 Plane 0025 T=0.011 C=0.011 B=0.000 S=0.000 D=0.000000 W=0.048274 [1.0, 0.0, 0.0](0.0, 0.0, 1.0, -72.071) 
			 Plane 0026 T=0.010 C=0.010 B=0.000 S=0.000 D=0.000000 W=0.048274 [1.0, 0.0, 0.0](0.0, 0.0, 1.0, -75.821) 

			 Best  0026 T=0.010 C=0.010 B=0.000 S=0.000 (0.0, 0.0, 1.0, -75.821)

		 [Refining] Number of clipping planes 9
			 Plane 0005 T=0.011 C=0.011 B=0.000 S=0.000 D=0.000000 W=0.048274 [1.0, 0.0, 0.0](0.0, 0.0, 1.0, -76.758) 
			 Plane 0006 T=0.011 C=0.011 B=0.000 S=0.000 D=0.000000 W=0.048274 [1.0, 0.0, 0.0](0.0, 0.0, 1.0, -77.696) 

			 Best  0006 T=0.011 C=0.011 B=0.000 S=0.000 (0.0, 0.0, 1.0, -77.696)

	 -> Part[14] C = 0.00081151, E = 0.000618386, VS = 323, VC = 0, VI = 0
	 -> Part[15] C = 0.00646248, E = 0.00459099, VS = 2398, VC = 0, VI = 6
		 [Regular sampling] Number of clipping planes 19
			 Plane 0000 T=0.005 C=0.005 B=0.000 S=0.000 D=0.905502 W=0.905502 [1.0, 0.0, 0.0](1.0, 0.0, 0.0, 59.531) 
			 Plane 0014 T=0.005 C=0.005 B=0.000 S=0.000 D=0.000000 W=0.905502 [1.0, 0.0, 0.0](0.0, 0.0, 1.0, -64.571) 
			 Plane 0015 T=0.005 C=0.005 B=0.000 S=0.000 D=0.000000 W=0.905502 [1.0, 0.0, 0.0](0.0, 0.0, 1.0, -68.321) 
			 Plane 0017 T=0.005 C=0.005 B=0.000 S=0.000 D=0.000000 W=0.905502 [1.0, 0.0, 0.0](0.0, 0.0, 1.0, -75.821) 

			 Best  0017 T=0.005 C=0.005 B=0.000 S=0.000 (0.0, 0.0, 1.0, -75.821)

		 [Refining] Number of clipping planes 9
			 Plane 0000 T=0.006 C=0.006 B=0.000 S=0.000 D=0.000000 W=0.905502 [1.0, 0.0, 0.0](0.0, 0.0, 1.0, -72.071) 
			 Plane 0005 T=0.005 C=0.005 B=0.000 S=0.000 D=0.000000 W=0.905502 [1.0, 0.0, 0.0](0.0, 0.0, 1.0, -76.758) 
			 Plane 0006 T=0.005 C=0.005 B=0.000 S=0.000 D=0.000000 W=0.905502 [1.0, 0.0, 0.0](0.0, 0.0, 1.0, -77.696) 

			 Best  0006 T=0.005 C=0.005 B=0.000 S=0.000 (0.0, 0.0, 1.0, -77.696)

	 -> Part[16] C = 0.00402517, E = 0.00335613, VS = 1753, VC = 0, VI = 4
		 [Regular sampling] Number of clipping planes 16
			 Plane 0000 T=0.003 C=0.003 B=0.000 S=0.000 D=0.965147 W=0.965147 [1.0, 0.0, 0.0](1.0, 0.0, 0.0, 59.531) 
			 Plane 0012 T=0.003 C=0.003 B=0.000 S=0.000 D=0.000000 W=0.965147 [1.0, 0.0, 0.0](0.0, 0.0, 1.0, -68.321) 
			 Plane 0013 T=0.003 C=0.003 B=0.000 S=0.000 D=0.000000 W=0.965147 [1.0, 0.0, 0.0](0.0, 0.0, 1.0, -72.071) 
			 Plane 0014 T=0.003 C=0.003 B=0.000 S=0.000 D=0.000000 W=0.965147 [1.0, 0.0, 0.0](0.0, 0.0, 1.0, -75.821) 

			 Best  0014 T=0.003 C=0.003 B=0.000 S=0.000 (0.0, 0.0, 1.0, -75.821)

		 [Refining] Number of clipping planes 9
			 Plane 0000 T=0.004 C=0.004 B=0.000 S=0.000 D=0.000000 W=0.965147 [1.0, 0.0, 0.0](0.0, 0.0, 1.0, -72.071) 
			 Plane 0005 T=0.003 C=0.003 B=0.000 S=0.000 D=0.000000 W=0.965147 [1.0, 0.0, 0.0](0.0, 0.0, 1.0, -76.758) 
			 Plane 0006 T=0.003 C=0.003 B=0.000 S=0.000 D=0.000000 W=0.965147 [1.0, 0.0, 0.0](0.0, 0.0, 1.0, -77.696) 

			 Best  0006 T=0.003 C=0.003 B=0.000 S=0.000 (0.0, 0.0, 1.0, -77.696)

	 -> Part[17] C = 0.00125102, E = 0.000926622, VS = 484, VC = 1, VI = 1
	 -> Part[18] C = 0.0101499, E = 0.00762549, VS = 3983, VC = 3, VI = 29
		 [Regular sampling] Number of clipping planes 30
			 Plane 0015 T=0.009 C=0.009 B=0.000 S=0.000 D=0.047849 W=0.047849 [1.0, 0.0, 0.0](1.0, 0.0, 0.0, -1.406) 
			 Plane 0002 T=0.008 C=0.008 B=0.000 S=0.000 D=0.047849 W=0.047849 [1.0, 0.0, 0.0](1.0, 0.0, 0.0, 47.344) 
			 Plane 0003 T=0.007 C=0.007 B=0.000 S=0.000 D=0.047849 W=0.047849 [1.0, 0.0, 0.0](1.0, 0.0, 0.0, 43.594) 

			 Best  0003 T=0.007 C=0.007 B=0.000 S=0.000 (1.0, 0.0, 0.0, 43.594)

		 [Refining] Number of clipping planes 9
			 Plane 0005 T=0.007 C=0.007 B=0.000 S=0.000 D=0.047849 W=0.047849 [1.0, 0.0, 0.0](1.0, 0.0, 0.0, 42.656) 
			 Plane 0001 T=0.007 C=0.007 B=0.000 S=0.000 D=0.047849 W=0.047849 [1.0, 0.0, 0.0](1.0, 0.0, 0.0, 46.406) 

			 Best  0001 T=0.007 C=0.007 B=0.000 S=0.000 (1.0, 0.0, 0.0, 46.406)

	 -> Part[19] C = 0.00144208, E = 0.00352078, VS = 1839, VC = 0, VI = 15
	 -> Part[20] C = 0.00374237, E = 0.0028373, VS = 1482, VC = 0, VI = 0
		 [Regular sampling] Number of clipping planes 15
			 Plane 0008 T=0.003 C=0.003 B=0.000 S=0.000 D=0.000000 W=0.900866 [0.0, 1.0, 0.0](0.0, 0.0, 1.0, -57.071) 
			 Plane 0000 T=0.003 C=0.003 B=0.000 S=0.000 D=0.000000 W=0.900866 [0.0, 1.0, 0.0](1.0, 0.0, 0.0, -25.781) 
			 Plane 0009 T=0.003 C=0.003 B=0.000 S=0.000 D=0.000000 W=0.900866 [0.0, 1.0, 0.0](0.0, 0.0, 1.0, -60.821) 
			 Plane 0010 T=0.003 C=0.003 B=0.000 S=0.000 D=0.000000 W=0.900866 [0.0, 1.0, 0.0](0.0, 0.0, 1.0, -64.571) 
			 Plane 0011 T=0.003 C=0.003 B=0.000 S=0.000 D=0.000000 W=0.900866 [0.0, 1.0, 0.0](0.0, 0.0, 1.0, -68.321) 
			 Plane 0012 T=0.003 C=0.003 B=0.000 S=0.000 D=0.000000 W=0.900866 [0.0, 1.0, 0.0](0.0, 0.0, 1.0, -72.071) 
			 Plane 0013 T=0.003 C=0.003 B=0.000 S=0.000 D=0.000000 W=0.900866 [0.0, 1.0, 0.0](0.0, 0.0, 1.0, -75.821) 

			 Best  0013 T=0.003 C=0.003 B=0.000 S=0.000 (0.0, 0.0, 1.0, -75.821)

		 [Refining] Number of clipping planes 9
			 Plane 0000 T=0.003 C=0.003 B=0.000 S=0.000 D=0.000000 W=0.900866 [0.0, 1.0, 0.0](0.0, 0.0, 1.0, -72.071) 
			 Plane 0005 T=0.003 C=0.003 B=0.000 S=0.000 D=0.000000 W=0.900866 [0.0, 1.0, 0.0](0.0, 0.0, 1.0, -76.758) 
			 Plane 0006 T=0.003 C=0.003 B=0.000 S=0.000 D=0.000000 W=0.900866 [0.0, 1.0, 0.0](0.0, 0.0, 1.0, -77.696) 

			 Best  0006 T=0.003 C=0.003 B=0.000 S=0.000 (0.0, 0.0, 1.0, -77.696)

	 -> Part[21] C = 0.00163979, E = 0.00138802, VS = 725, VC = 0, VI = 0
	 -> Part[22] C = 0.00478216, E = 0.00315894, VS = 1650, VC = 1, VI = 3
		 [Regular sampling] Number of clipping planes 18
			 Plane 0000 T=0.004 C=0.004 B=0.000 S=0.000 D=0.000000 W=0.075538 [0.0, 1.0, 0.0](1.0, 0.0, 0.0, -54.844) 
			 Plane 0005 T=0.004 C=0.004 B=0.000 S=0.000 D=0.075538 W=0.075538 [0.0, 1.0, 0.0](0.0, 1.0, 0.0, 24.531) 
			 Plane 0006 T=0.003 C=0.003 B=0.000 S=0.000 D=0.075538 W=0.075538 [0.0, 1.0, 0.0](0.0, 1.0, 0.0, 20.781) 

			 Best  0006 T=0.003 C=0.003 B=0.000 S=0.000 (0.0, 1.0, 0.0, 20.781)

		 [Refining] Number of clipping planes 9
			 Plane 0000 T=0.004 C=0.004 B=0.000 S=0.000 D=0.075538 W=0.075538 [0.0, 1.0, 0.0](0.0, 1.0, 0.0, 24.531) 
			 Plane 0001 T=0.004 C=0.004 B=0.000 S=0.000 D=0.075538 W=0.075538 [0.0, 1.0, 0.0](0.0, 1.0, 0.0, 23.594) 

			 Best  0001 T=0.004 C=0.004 B=0.000 S=0.000 (0.0, 1.0, 0.0, 23.594)

	 -> Part[23] C = 0.000771679, E = 0.00153161, VS = 800, VC = 0, VI = 0
	 -> Part[24] C = 0.00318669, E = 0.00298472, VS = 1559, VC = 0, VI = 0
		 [Regular sampling] Number of clipping planes 15
			 Plane 0000 T=0.003 C=0.003 B=0.000 S=0.000 D=0.000000 W=0.898214 [0.0, 1.0, 0.0](1.0, 0.0, 0.0, -25.781) 
			 Plane 0009 T=0.003 C=0.003 B=0.000 S=0.000 D=0.000000 W=0.898214 [0.0, 1.0, 0.0](0.0, 0.0, 1.0, -60.821) 
			 Plane 0010 T=0.002 C=0.002 B=0.000 S=0.000 D=0.000000 W=0.898214 [0.0, 1.0, 0.0](0.0, 0.0, 1.0, -64.571) 
			 Plane 0011 T=0.002 C=0.002 B=0.000 S=0.000 D=0.000000 W=0.898214 [0.0, 1.0, 0.0](0.0, 0.0, 1.0, -68.321) 
			 Plane 0012 T=0.002 C=0.002 B=0.000 S=0.000 D=0.000000 W=0.898214 [0.0, 1.0, 0.0](0.0, 0.0, 1.0, -72.071) 
			 Plane 0013 T=0.002 C=0.002 B=0.000 S=0.000 D=0.000000 W=0.898214 [0.0, 1.0, 0.0](0.0, 0.0, 1.0, -75.821) 

			 Best  0013 T=0.002 C=0.002 B=0.000 S=0.000 (0.0, 0.0, 1.0, -75.821)

		 [Refining] Number of clipping planes 9
			 Plane 0000 T=0.002 C=0.002 B=0.000 S=0.000 D=0.000000 W=0.898214 [0.0, 1.0, 0.0](0.0, 0.0, 1.0, -72.071) 
			 Plane 0005 T=0.002 C=0.002 B=0.000 S=0.000 D=0.000000 W=0.898214 [0.0, 1.0, 0.0](0.0, 0.0, 1.0, -76.758) 
			 Plane 0006 T=0.002 C=0.002 B=0.000 S=0.000 D=0.000000 W=0.898214 [0.0, 1.0, 0.0](0.0, 0.0, 1.0, -77.696) 

			 Best  0006 T=0.002 C=0.002 B=0.000 S=0.000 (0.0, 0.0, 1.0, -77.696)

	 -> Part[25] C = 0.00149404, E = 0.0013861, VS = 724, VC = 1, VI = 0
	 -> Part[26] C = 0.00541839, E = 0.0032336, VS = 1689, VC = 0, VI = 0
		 [Regular sampling] Number of clipping planes 19
			 Plane 0000 T=0.004 C=0.004 B=0.000 S=0.000 D=0.000000 W=0.070374 [0.0, 1.0, 0.0](1.0, 0.0, 0.0, -54.844) 
			 Plane 0010 T=0.004 C=0.004 B=0.000 S=0.000 D=0.070374 W=0.070374 [0.0, 1.0, 0.0](0.0, 1.0, 0.0, -28.906) 
			 Plane 0006 T=0.004 C=0.004 B=0.000 S=0.000 D=0.070374 W=0.070374 [0.0, 1.0, 0.0](0.0, 1.0, 0.0, -13.906) 
			 Plane 0007 T=0.004 C=0.004 B=0.000 S=0.000 D=0.070374 W=0.070374 [0.0, 1.0, 0.0](0.0, 1.0, 0.0, -17.656) 
			 Plane 0008 T=0.004 C=0.004 B=0.000 S=0.000 D=0.070374 W=0.070374 [0.0, 1.0, 0.0](0.0, 1.0, 0.0, -21.406) 
			 Plane 0009 T=0.004 C=0.004 B=0.000 S=0.000 D=0.070374 W=0.070374 [0.0, 1.0, 0.0](0.0, 1.0, 0.0, -25.156) 

			 Best  0009 T=0.004 C=0.004 B=0.000 S=0.000 (0.0, 1.0, 0.0, -25.156)

		 [Refining] Number of clipping planes 9
			 Plane 0000 T=0.004 C=0.004 B=0.000 S=0.000 D=0.070374 W=0.070374 [0.0, 1.0, 0.0](0.0, 1.0, 0.0, -21.406) 
			 Plane 0005 T=0.004 C=0.004 B=0.000 S=0.000 D=0.070374 W=0.070374 [0.0, 1.0, 0.0](0.0, 1.0, 0.0, -26.094) 

			 Best  0005 T=0.004 C=0.004 B=0.000 S=0.000 (0.0, 1.0, 0.0, -26.094)

	 -> Part[27] C = 0.000918459, E = 0.00168477, VS = 880, VC = 0, VI = 0
	 Subdivision level 7
	 -> Part[0] C = 0.0012204, E = 0.000951511, VS = 497, VC = 0, VI = 0
	 -> Part[1] C = 0.00317992, E = 0.00206575, VS = 1079, VC = 0, VI = 0
		 [Regular sampling] Number of clipping planes 16
			 Plane 0000 T=0.003 C=0.003 B=0.000 S=0.000 D=0.000000 W=0.128731 [0.0, 1.0, 0.0](1.0, 0.0, 0.0, 58.594) 
			 Plane 0008 T=0.002 C=0.002 B=0.000 S=0.000 D=0.128731 W=0.128731 [0.0, 1.0, 0.0](0.0, 1.0, 0.0, -4.531) 
			 Plane 0009 T=0.002 C=0.002 B=0.000 S=0.000 D=0.128731 W=0.128731 [0.0, 1.0, 0.0](0.0, 1.0, 0.0, -8.281) 

			 Best  0009 T=0.002 C=0.002 B=0.000 S=0.000 (0.0, 1.0, 0.0, -8.281)

		 [Refining] Number of clipping planes 9
			 Plane 0005 T=0.003 C=0.003 B=0.000 S=0.000 D=0.128731 W=0.128731 [0.0, 1.0, 0.0](0.0, 1.0, 0.0, -9.219) 
			 Plane 0000 T=0.003 C=0.003 B=0.000 S=0.000 D=0.128731 W=0.128731 [0.0, 1.0, 0.0](0.0, 1.0, 0.0, -4.531) 
			 Plane 0001 T=0.003 C=0.003 B=0.000 S=0.000 D=0.128731 W=0.128731 [0.0, 1.0, 0.0](0.0, 1.0, 0.0, -5.469) 

			 Best  0001 T=0.003 C=0.003 B=0.000 S=0.000 (0.0, 1.0, 0.0, -5.469)

	 -> Part[2] C = 0.00894451, E = 0.00524192, VS = 2738, VC = 0, VI = 0
		 [Regular sampling] Number of clipping planes 31
			 Plane 0000 T=0.009 C=0.009 B=0.000 S=0.000 D=0.128506 W=0.128506 [1.0, 0.0, 0.0](1.0, 0.0, 0.0, 39.844) 
			 Plane 0016 T=0.008 C=0.008 B=0.000 S=0.000 D=0.128506 W=0.128506 [1.0, 0.0, 0.0](1.0, 0.0, 0.0, -20.156) 
			 Plane 0017 T=0.008 C=0.008 B=0.000 S=0.000 D=0.128506 W=0.128506 [1.0, 0.0, 0.0](1.0, 0.0, 0.0, -23.906) 
			 Plane 0004 T=0.008 C=0.008 B=0.000 S=0.000 D=0.128506 W=0.128506 [1.0, 0.0, 0.0](1.0, 0.0, 0.0, 24.844) 
			 Plane 0029 T=0.008 C=0.008 B=0.000 S=0.000 D=0.000000 W=0.128506 [1.0, 0.0, 0.0](0.0, 0.0, 1.0, -52.383) 

			 Best  0029 T=0.008 C=0.008 B=0.000 S=0.000 (0.0, 0.0, 1.0, -52.383)

		 [Refining] Number of clipping planes 9
			 Plane 0005 T=0.009 C=0.009 B=0.000 S=0.000 D=0.000000 W=0.128506 [1.0, 0.0, 0.0](0.0, 0.0, 1.0, -53.321) 
			 Plane 0000 T=0.009 C=0.009 B=0.000 S=0.000 D=0.000000 W=0.128506 [1.0, 0.0, 0.0](0.0, 0.0, 1.0, -48.633) 

			 Best  0000 T=0.009 C=0.009 B=0.000 S=0.000 (0.0, 0.0, 1.0, -48.633)

	 -> Part[3] C = 0.00236304, E = 0.00143397, VS = 749, VC = 1, VI = 5
	 -> Part[4] C = 9.00865e-05, E = 0.00247929, VS = 1295, VC = 0, VI = 0
	 -> Part[5] C = 0.000100539, E = 0.00364331, VS = 1903, VC = 0, VI = 0
	 -> Part[6] C = 0.00413812, E = 0.00278944, VS = 1457, VC = 0, VI = 0
		 [Regular sampling] Number of clipping planes 18
			 Plane 0000 T=0.004 C=0.004 B=0.000 S=0.000 D=0.000000 W=0.100214 [0.0, 1.0, 0.0](1.0, 0.0, 0.0, -55.781) 
			 Plane 0009 T=0.004 C=0.004 B=0.000 S=0.000 D=0.100214 W=0.100214 [0.0, 1.0, 0.0](0.0, 1.0, 0.0, -0.781) 
			 Plane 0010 T=0.003 C=0.003 B=0.000 S=0.000 D=0.100214 W=0.100214 [0.0, 1.0, 0.0](0.0, 1.0, 0.0, -4.531) 

			 Best  0010 T=0.003 C=0.003 B=0.000 S=0.000 (0.0, 1.0, 0.0, -4.531)

		 [Refining] Number of clipping planes 9
			 Plane 0000 T=0.004 C=0.004 B=0.000 S=0.000 D=0.100214 W=0.100214 [0.0, 1.0, 0.0](0.0, 1.0, 0.0, -0.781) 
			 Plane 0005 T=0.004 C=0.004 B=0.000 S=0.000 D=0.100214 W=0.100214 [0.0, 1.0, 0.0](0.0, 1.0, 0.0, -5.469) 
			 Plane 0003 T=0.004 C=0.004 B=0.000 S=0.000 D=0.100214 W=0.100214 [0.0, 1.0, 0.0](0.0, 1.0, 0.0, -3.594) 
			 Plane 0004 T=0.004 C=0.004 B=0.000 S=0.000 D=0.100214 W=0.100214 [0.0, 1.0, 0.0](0.0, 1.0, 0.0, -4.531) 

			 Best  0004 T=0.004 C=0.004 B=0.000 S=0.000 (0.0, 1.0, 0.0, -4.531)

	 -> Part[7] C = 0, E = 0.000241228, VS = 126, VC = 0, VI = 0
	 -> Part[8] C = 0.00116185, E = 0.000823239, VS = 430, VC = 0, VI = 0
	 -> Part[9] C = 0.00167778, E = 0.00135547, VS = 708, VC = 0, VI = 0
	 -> Part[10] C = 0.00972386, E = 0.00589669, VS = 3080, VC = 0, VI = 0
		 [Regular sampling] Number of clipping planes 27
			 Plane 0000 T=0.009 C=0.009 B=0.000 S=0.000 D=0.059273 W=0.059273 [1.0, 0.0, 0.0](1.0, 0.0, 0.0, 45.469) 
			 Plane 0014 T=0.009 C=0.009 B=0.000 S=0.000 D=0.059273 W=0.059273 [1.0, 0.0, 0.0](1.0, 0.0, 0.0, -7.031) 
			 Plane 0015 T=0.009 C=0.009 B=0.000 S=0.000 D=0.059273 W=0.059273 [1.0, 0.0, 0.0](1.0, 0.0, 0.0, -10.781) 
			 Plane 0002 T=0.009 C=0.009 B=0.000 S=0.000 D=0.059273 W=0.059273 [1.0, 0.0, 0.0](1.0, 0.0, 0.0, 37.969) 
			 Plane 0003 T=0.009 C=0.008 B=0.000 S=0.000 D=0.059273 W=0.059273 [1.0, 0.0, 0.0](1.0, 0.0, 0.0, 34.219) 
			 Plane 0019 T=0.008 C=0.008 B=0.000 S=0.000 D=0.000000 W=0.059273 [1.0, 0.0, 0.0](0.0, 1.0, 0.0, 38.594) 
			 Plane 0006 T=0.008 C=0.008 B=0.000 S=0.000 D=0.059273 W=0.059273 [1.0, 0.0, 0.0](1.0, 0.0, 0.0, 22.969) 
			 Plane 0009 T=0.008 C=0.008 B=0.000 S=0.000 D=0.059273 W=0.059273 [1.0, 0.0, 0.0](1.0, 0.0, 0.0, 11.719) 

			 Best  0009 T=0.008 C=0.008 B=0.000 S=0.000 (1.0, 0.0, 0.0, 11.719)

		 [Refining] Number of clipping planes 9
			 Plane 0000 T=0.009 C=0.009 B=0.000 S=0.000 D=0.059273 W=0.059273 [1.0, 0.0, 0.0](1.0, 0.0, 0.0, 15.469) 
			 Plane 0005 T=0.009 C=0.009 B=0.000 S=0.000 D=0.059273 W=0.059273 [1.0, 0.0, 0.0](1.0, 0.0, 0.0, 10.781) 
			 Plane 0001 T=0.009 C=0.009 B=0.000 S=0.000 D=0.059273 W=0.059273 [1.0, 0.0, 0.0](1.0, 0.0, 0.0, 14.531) 

			 Best  0001 T=0.009 C=0.009 B=0.000 S=0.000 (1.0, 0.0, 0.0, 14.531)

	 -> Part[11] C = 0.00114112, E = 0.00310916, VS = 1624, VC = 0, VI = 51
	 -> Part[12] C = 0.00442201, E = 0.00310916, VS = 1624, VC = 1, VI = 5
		 [Regular sampling] Number of clipping planes 18
			 Plane 0000 T=0.004 C=0.004 B=0.000 S=0.000 D=0.000000 W=0.063032 [0.0, 1.0, 0.0](1.0, 0.0, 0.0, 58.594) 
			 Plane 0009 T=0.004 C=0.004 B=0.000 S=0.000 D=0.063032 W=0.063032 [0.0, 1.0, 0.0](0.0, 1.0, 0.0, 2.969) 
			 Plane 0003 T=0.003 C=0.003 B=0.000 S=0.000 D=0.063032 W=0.063032 [0.0, 1.0, 0.0](0.0, 1.0, 0.0, 25.469) 
			 Plane 0004 T=0.003 C=0.003 B=0.000 S=0.000 D=0.063032 W=0.063032 [0.0, 1.0, 0.0](0.0, 1.0, 0.0, 21.719) 

			 Best  0004 T=0.003 C=0.003 B=0.000 S=0.000 (0.0, 1.0, 0.0, 21.719)

		 [Refining] Number of clipping planes 9
			 Plane 0000 T=0.004 C=0.004 B=0.000 S=0.000 D=0.063032 W=0.063032 [0.0, 1.0, 0.0](0.0, 1.0, 0.0, 25.469) 
			 Plane 0005 T=0.004 C=0.004 B=0.000 S=0.000 D=0.063032 W=0.063032 [0.0, 1.0, 0.0](0.0, 1.0, 0.0, 20.781) 
			 Plane 0006 T=0.004 C=0.004 B=0.000 S=0.000 D=0.063032 W=0.063032 [0.0, 1.0, 0.0](0.0, 1.0, 0.0, 19.844) 

			 Best  0006 T=0.004 C=0.004 B=0.000 S=0.000 (0.0, 1.0, 0.0, 19.844)

	 -> Part[13] C = 0.000682706, E = 0.00148183, VS = 774, VC = 0, VI = 0
	 -> Part[14] C = 0.00305358, E = 0.00227061, VS = 1186, VC = 0, VI = 0
		 [Regular sampling] Number of clipping planes 15
			 Plane 0009 T=0.003 C=0.003 B=0.000 S=0.000 D=0.000000 W=0.953182 [1.0, 0.0, 0.0](0.0, 0.0, 1.0, -57.071) 
			 Plane 0010 T=0.003 C=0.003 B=0.000 S=0.000 D=0.000000 W=0.953182 [1.0, 0.0, 0.0](0.0, 0.0, 1.0, -60.821) 
			 Plane 0011 T=0.003 C=0.003 B=0.000 S=0.000 D=0.000000 W=0.953182 [1.0, 0.0, 0.0](0.0, 0.0, 1.0, -64.571) 
			 Plane 0004 T=0.002 C=0.002 B=0.000 S=0.000 D=0.000000 W=0.953182 [1.0, 0.0, 0.0](0.0, 1.0, 0.0, -13.906) 

			 Best  0004 T=0.002 C=0.002 B=0.000 S=0.000 (0.0, 1.0, 0.0, -13.906)

		 [Refining] Number of clipping planes 9
			 Plane 0000 T=0.003 C=0.003 B=0.000 S=0.000 D=0.000000 W=0.953182 [1.0, 0.0, 0.0](0.0, 1.0, 0.0, -10.156) 
			 Plane 0005 T=0.003 C=0.003 B=0.000 S=0.000 D=0.000000 W=0.953182 [1.0, 0.0, 0.0](0.0, 1.0, 0.0, -14.844) 
			 Plane 0006 T=0.003 C=0.003 B=0.000 S=0.000 D=0.000000 W=0.953182 [1.0, 0.0, 0.0](0.0, 1.0, 0.0, -15.781) 
			 Plane 0007 T=0.003 C=0.003 B=0.000 S=0.000 D=0.000000 W=0.953182 [1.0, 0.0, 0.0](0.0, 1.0, 0.0, -16.719) 
			 Plane 0004 T=0.003 C=0.003 B=0.000 S=0.000 D=0.000000 W=0.953182 [1.0, 0.0, 0.0](0.0, 1.0, 0.0, -13.906) 

			 Best  0004 T=0.003 C=0.003 B=0.000 S=0.000 (0.0, 1.0, 0.0, -13.906)

	 -> Part[15] C = 0.000333295, E = 0.00108553, VS = 567, VC = 0, VI = 4
	 -> Part[16] C = 0.000938549, E = 0.000985972, VS = 515, VC = 0, VI = 0
	 -> Part[17] C = 0.00582646, E = 0.00663952, VS = 3468, VC = 3, VI = 29
	 -> Part[18] C = 0.00257097, E = 0.00187622, VS = 980, VC = 0, VI = 0
	 -> Part[19] C = 0.000355097, E = 0.000961083, VS = 502, VC = 0, VI = 0
	 -> Part[20] C = 0.00139503, E = 0.00127698, VS = 667, VC = 1, VI = 3
	 -> Part[21] C = 0.00242623, E = 0.00188196, VS = 983, VC = 0, VI = 0
	 -> Part[22] C = 0.00151824, E = 0.00205618, VS = 1074, VC = 0, VI = 0
	 -> Part[23] C = 0.000383849, E = 0.000928537, VS = 485, VC = 0, VI = 0
	 -> Part[24] C = 0.00340219, E = 0.00214999, VS = 1123, VC = 0, VI = 0
		 [Regular sampling] Number of clipping planes 16
			 Plane 0000 T=0.003 C=0.003 B=0.000 S=0.000 D=0.924352 W=0.924352 [1.0, 0.0, 0.0](1.0, 0.0, 0.0, -55.781) 
			 Plane 0003 T=0.003 C=0.003 B=0.000 S=0.000 D=0.000000 W=0.924352 [1.0, 0.0, 0.0](0.0, 1.0, 0.0, -2.656) 
			 Plane 0012 T=0.003 C=0.003 B=0.000 S=0.000 D=0.000000 W=0.924352 [1.0, 0.0, 0.0](0.0, 0.0, 1.0, -64.571) 
			 Plane 0004 T=0.003 C=0.003 B=0.000 S=0.000 D=0.000000 W=0.924352 [1.0, 0.0, 0.0](0.0, 1.0, 0.0, -6.406) 
			 Plane 0006 T=0.002 C=0.002 B=0.000 S=0.000 D=0.000000 W=0.924352 [1.0, 0.0, 0.0](0.0, 1.0, 0.0, -13.906) 

			 Best  0006 T=0.002 C=0.002 B=0.000 S=0.000 (0.0, 1.0, 0.0, -13.906)

		 [Refining] Number of clipping planes 9
			 Plane 0000 T=0.003 C=0.003 B=0.000 S=0.000 D=0.000000 W=0.924352 [1.0, 0.0, 0.0](0.0, 1.0, 0.0, -10.156) 
			 Plane 0005 T=0.003 C=0.003 B=0.000 S=0.000 D=0.000000 W=0.924352 [1.0, 0.0, 0.0](0.0, 1.0, 0.0, -14.844) 
			 Plane 0001 T=0.003 C=0.003 B=0.000 S=0.000 D=0.000000 W=0.924352 [1.0, 0.0, 0.0](0.0, 1.0, 0.0, -11.094) 

			 Best  0001 T=0.003 C=0.003 B=0.000 S=0.000 (0.0, 1.0, 0.0, -11.094)

	 -> Part[25] C = 0.000924997, E = 0.00108361, VS = 566, VC = 0, VI = 0
	 Subdivision level 8
	 -> Part[0] C = 0.00207197, E = 0.00146268, VS = 764, VC = 0, VI = 0
	 -> Part[1] C = 0.000536397, E = 0.00060307, VS = 315, VC = 0, VI = 0
	 -> Part[2] C = 0.00488514, E = 0.00217297, VS = 1135, VC = 0, VI = 0
		 [Regular sampling] Number of clipping planes 28
			 Plane 0000 T=0.005 C=0.005 B=0.000 S=0.000 D=0.350489 W=0.350489 [1.0, 0.0, 0.0](1.0, 0.0, 0.0, 37.969) 
			 Plane 0014 T=0.004 C=0.004 B=0.000 S=0.000 D=0.350489 W=0.350489 [1.0, 0.0, 0.0](1.0, 0.0, 0.0, -14.531) 
			 Plane 0017 T=0.004 C=0.004 B=0.000 S=0.000 D=0.350489 W=0.350489 [1.0, 0.0, 0.0](1.0, 0.0, 0.0, -25.781) 
			 Plane 0026 T=0.002 C=0.002 B=0.000 S=0.000 D=0.000000 W=0.350489 [1.0, 0.0, 0.0](0.0, 0.0, 1.0, -44.883) 

			 Best  0026 T=0.002 C=0.002 B=0.000 S=0.000 (0.0, 0.0, 1.0, -44.883)

		 [Refining] Number of clipping planes 9
			 Plane 0005 T=0.005 C=0.005 B=0.000 S=0.000 D=0.000000 W=0.350489 [1.0, 0.0, 0.0](0.0, 0.0, 1.0, -45.821) 
			 Plane 0003 T=0.005 C=0.005 B=0.000 S=0.000 D=0.000000 W=0.350489 [1.0, 0.0, 0.0](0.0, 0.0, 1.0, -43.946) 
			 Plane 0004 T=0.005 C=0.005 B=0.000 S=0.000 D=0.000000 W=0.350489 [1.0, 0.0, 0.0](0.0, 0.0, 1.0, -44.883) 

			 Best  0004 T=0.005 C=0.005 B=0.000 S=0.000 (0.0, 0.0, 1.0, -44.883)

	 -> Part[3] C = 0.00365754, E = 0.00306896, VS = 1603, VC = 0, VI = 0
		 [Regular sampling] Number of clipping planes 28
			 Plane 0000 T=0.003 C=0.003 B=0.000 S=0.000 D=0.498029 W=0.498029 [1.0, 0.0, 0.0](1.0, 0.0, 0.0, 39.844) 
			 Plane 0014 T=0.003 C=0.003 B=0.000 S=0.000 D=0.498029 W=0.498029 [1.0, 0.0, 0.0](1.0, 0.0, 0.0, -12.656) 
			 Plane 0017 T=0.003 C=0.003 B=0.000 S=0.000 D=0.498029 W=0.498029 [1.0, 0.0, 0.0](1.0, 0.0, 0.0, -23.906) 
			 Plane 0004 T=0.003 C=0.003 B=0.000 S=0.000 D=0.498029 W=0.498029 [1.0, 0.0, 0.0](1.0, 0.0, 0.0, 24.844) 
			 Plane 0024 T=0.003 C=0.003 B=0.000 S=0.000 D=0.000000 W=0.498029 [1.0, 0.0, 0.0](0.0, 1.0, 0.0, 38.594) 

			 Best  0024 T=0.003 C=0.003 B=0.000 S=0.000 (0.0, 1.0, 0.0, 38.594)

		 [Refining] Number of clipping planes 5
			 Plane 0000 T=0.003 C=0.003 B=0.000 S=0.000 D=0.000000 W=0.498029 [1.0, 0.0, 0.0](0.0, 1.0, 0.0, 38.594) 

			 Best  0000 T=0.003 C=0.003 B=0.000 S=0.000 (0.0, 1.0, 0.0, 38.594)

	 -> Part[4] C = 0.00315919, E = 0.00208873, VS = 1091, VC = 0, VI = 0
		 [Regular sampling] Number of clipping planes 16
			 Plane 0000 T=0.003 C=0.003 B=0.000 S=0.000 D=0.000000 W=0.095568 [0.0, 1.0, 0.0](1.0, 0.0, 0.0, -55.781) 
			 Plane 0008 T=0.003 C=0.003 B=0.000 S=0.000 D=0.095568 W=0.095568 [0.0, 1.0, 0.0](0.0, 1.0, 0.0, 2.969) 
			 Plane 0011 T=0.002 C=0.002 B=0.000 S=0.000 D=0.000000 W=0.095568 [0.0, 1.0, 0.0](0.0, 0.0, 1.0, -40.196) 

			 Best  0011 T=0.002 C=0.002 B=0.000 S=0.000 (0.0, 0.0, 1.0, -40.196)

		 [Refining] Number of clipping planes 5
			 Plane 0000 T=0.003 C=0.003 B=0.000 S=0.000 D=0.000000 W=0.095568 [0.0, 1.0, 0.0](0.0, 0.0, 1.0, -40.196) 

			 Best  0000 T=0.003 C=0.003 B=0.000 S=0.000 (0.0, 0.0, 1.0, -40.196)

	 -> Part[5] C = 0.000754999, E = 0.00070071, VS = 366, VC = 0, VI = 0
	 -> Part[6] C = 0.00397436, E = 0.00254438, VS = 1329, VC = 0, VI = 0
		 [Regular sampling] Number of clipping planes 17
			 Plane 0000 T=0.003 C=0.003 B=0.000 S=0.000 D=0.051155 W=0.051155 [1.0, 0.0, 0.0](1.0, 0.0, 0.0, 45.469) 
			 Plane 0009 T=0.003 C=0.003 B=0.000 S=0.000 D=0.000000 W=0.051155 [1.0, 0.0, 0.0](0.0, 1.0, 0.0, 38.594) 
			 Plane 0003 T=0.003 C=0.003 B=0.000 S=0.000 D=0.051155 W=0.051155 [1.0, 0.0, 0.0](1.0, 0.0, 0.0, 34.219) 
			 Plane 0005 T=0.003 C=0.003 B=0.000 S=0.000 D=0.051155 W=0.051155 [1.0, 0.0, 0.0](1.0, 0.0, 0.0, 26.719) 
			 Plane 0006 T=0.003 C=0.003 B=0.000 S=0.000 D=0.051155 W=0.051155 [1.0, 0.0, 0.0](1.0, 0.0, 0.0, 22.969) 

			 Best  0006 T=0.003 C=0.003 B=0.000 S=0.000 (1.0, 0.0, 0.0, 22.969)

		 [Refining] Number of clipping planes 9
			 Plane 0000 T=0.004 C=0.004 B=0.000 S=0.000 D=0.051155 W=0.051155 [1.0, 0.0, 0.0](1.0, 0.0, 0.0, 26.719) 

			 Best  0000 T=0.004 C=0.004 B=0.000 S=0.000 (1.0, 0.0, 0.0, 26.719)

	 -> Part[7] C = 0.00519108, E = 0.0033523, VS = 1751, VC = 0, VI = 0
		 [Regular sampling] Number of clipping planes 19
			 Plane 0010 T=0.005 C=0.005 B=0.000 S=0.000 D=0.065398 W=0.065398 [1.0, 0.0, 0.0](1.0, 0.0, 0.0, -23.906) 
			 Plane 0011 T=0.004 C=0.004 B=0.000 S=0.000 D=0.000000 W=0.065398 [1.0, 0.0, 0.0](0.0, 1.0, 0.0, 38.594) 

			 Best  0011 T=0.004 C=0.004 B=0.000 S=0.000 (0.0, 1.0, 0.0, 38.594)

		 [Refining] Number of clipping planes 5
			 Plane 0003 T=0.005 C=0.005 B=0.000 S=0.000 D=0.000000 W=0.065398 [1.0, 0.0, 0.0](0.0, 1.0, 0.0, 35.781) 
			 Plane 0000 T=0.005 C=0.005 B=0.000 S=0.000 D=0.000000 W=0.065398 [1.0, 0.0, 0.0](0.0, 1.0, 0.0, 38.594) 

			 Best  0000 T=0.005 C=0.005 B=0.000 S=0.000 (0.0, 1.0, 0.0, 38.594)

	 -> Part[8] C = 0.00104715, E = 0.00106447, VS = 556, VC = 1, VI = 5
	 -> Part[9] C = 0.00285533, E = 0.0020447, VS = 1068, VC = 0, VI = 0
	 -> Part[10] C = 0.000927679, E = 0.000779205, VS = 407, VC = 0, VI = 0
	 -> Part[11] C = 0.0016161, E = 0.0014914, VS = 779, VC = 0, VI = 0
	 -> Part[12] C = 0.00161238, E = 0.000924708, VS = 483, VC = 0, VI = 0
	 -> Part[13] C = 0.00124835, E = 0.00122529, VS = 640, VC = 0, VI = 0
	 Subdivision level 9
	 -> Part[0] C = 0.00273587, E = 0.00118508, VS = 619, VC = 0, VI = 0
	 -> Part[1] C = 0.00214927, E = 0.000987886, VS = 516, VC = 0, VI = 0
	 -> Part[2] C = 0.000824566, E = 0.000162733, VS = 85, VC = 0, VI = 0
	 -> Part[3] C = 0.0026212, E = 0.00290622, VS = 1518, VC = 0, VI = 0
	 -> Part[4] C = 7.57997e-05, E = 0.000227827, VS = 119, VC = 0, VI = 0
	 -> Part[5] C = 0.00264012, E = 0.0018609, VS = 972, VC = 0, VI = 0
	 -> Part[6] C = 0.00244297, E = 0.00159861, VS = 835, VC = 0, VI = 0
	 -> Part[7] C = 0.00107181, E = 0.000945767, VS = 494, VC = 0, VI = 0
	 -> Part[8] C = 0.000769595, E = 0.000235485, VS = 123, VC = 0, VI = 0
	 -> Part[9] C = 0.00388178, E = 0.00311682, VS = 1628, VC = 0, VI = 0
		 [Regular sampling] Number of clipping planes 18
			 Plane 0000 T=0.004 C=0.004 B=0.000 S=0.000 D=0.050937 W=0.050937 [1.0, 0.0, 0.0](1.0, 0.0, 0.0, 13.594) 
			 Plane 0009 T=0.003 C=0.003 B=0.000 S=0.000 D=0.050937 W=0.050937 [1.0, 0.0, 0.0](1.0, 0.0, 0.0, -20.156) 
			 Plane 0011 T=0.003 C=0.003 B=0.000 S=0.000 D=0.000000 W=0.050937 [1.0, 0.0, 0.0](0.0, 1.0, 0.0, 37.656) 
			 Plane 0014 T=0.003 C=0.003 B=0.000 S=0.000 D=0.000000 W=0.050937 [1.0, 0.0, 0.0](0.0, 0.0, 1.0, -64.571) 

			 Best  0014 T=0.003 C=0.003 B=0.000 S=0.000 (0.0, 0.0, 1.0, -64.571)

		 [Refining] Number of clipping planes 9
			 Plane 0005 T=0.004 C=0.004 B=0.000 S=0.000 D=0.000000 W=0.050937 [1.0, 0.0, 0.0](0.0, 0.0, 1.0, -65.508) 

			 Best  0005 T=0.004 C=0.004 B=0.000 S=0.000 (0.0, 0.0, 1.0, -65.508)

	 Subdivision level 10
	 -> Part[0] C = 0.00134155, E = 0.00142057, VS = 742, VC = 0, VI = 0
	 -> Part[1] C = 0.00220744, E = 0.00169625, VS = 886, VC = 0, VI = 0
+ Generate 56 convex-hulls 
	 time 8.04504s
+ Merge Convex Hulls
		 Cost (0, 1) 0.000112661
		 Cost (12, 34) 9.61646e-06
		 Cost (24, 30) 6.95889e-06
		 Cost (45, 46) 0
		 Merging (45, 46) 0

		 Cost (0, 1) 0.000112661
		 Cost (12, 34) 9.61646e-06
		 Cost (24, 30) 6.95889e-06
		 Merging (24, 30) 6.95889e-06

		 Cost (0, 1) 0.000112661
		 Cost (12, 34) 9.61646e-06
		 Merging (12, 34) 9.61646e-06

		 Cost (0, 1) 0.000112661
		 Cost (20, 49) 4.25534e-05
		 Cost (25, 26) 1.44789e-05
		 Merging (25, 26) 1.44789e-05

		 Cost (0, 1) 0.000112661
		 Cost (20, 49) 4.25534e-05
		 Merging (20, 49) 4.25534e-05

		 Cost (0, 1) 0.000112661
		 Cost (37, 41) 0.00010383
		 Merging (37, 41) 0.00010383

		 Cost (0, 1) 0.000112661
		 Merging (0, 1) 0.000112661

		 Cost (0, 2) 0.0158471
		 Cost (0, 19) 0.00725723
		 Cost (2, 3) 0.00101745
		 Cost (9, 10) 0.00052354
		 Cost (14, 16) 0.000342417
		 Cost (36, 40) 0.00026172
		 Cost (47, 48) 0.000211577
		 Merging (47, 48) 0.000211577

		 Cost (0, 2) 0.0158471
		 Cost (0, 19) 0.00725723
		 Cost (2, 3) 0.00101745
		 Cost (9, 10) 0.00052354
		 Cost (14, 16) 0.000342417
		 Cost (36, 40) 0.00026172
		 Merging (36, 40) 0.00026172

		 Cost (0, 2) 0.0158471
		 Cost (0, 19) 0.00725723
		 Cost (2, 3) 0.00101745
		 Cost (9, 10) 0.00052354
		 Cost (14, 16) 0.000342417
		 Cost (54, 55) 0.000332849
		 Merging (54, 55) 0.000332849

		 Cost (0, 2) 0.0158471
		 Cost (0, 19) 0.00725723
		 Cost (2, 3) 0.00101745
		 Cost (9, 10) 0.00052354
		 Cost (14, 16) 0.000342417
		 Cost (52, 54) 0.000175111
		 Merging (52, 54) 0.000175111

		 Cost (0, 2) 0.0158471
		 Cost (0, 19) 0.00725723
		 Cost (2, 3) 0.00101745
		 Cost (9, 10) 0.00052354
		 Cost (14, 16) 0.000342417
		 Merging (14, 16) 0.000342417

		 Cost (0, 2) 0.0158471
		 Cost (0, 19) 0.00725723
		 Cost (2, 3) 0.00101745
		 Cost (9, 10) 0.00052354
		 Cost (28, 33) 0.00044455
		 Cost (45, 47) 0.000402154
		 Merging (45, 47) 0.000402154

		 Cost (0, 2) 0.0158471
		 Cost (0, 19) 0.00725723
		 Cost (2, 3) 0.00101745
		 Cost (9, 10) 0.00052354
		 Cost (28, 33) 0.00044455
		 Merging (28, 33) 0.00044455

		 Cost (0, 2) 0.0158471
		 Cost (0, 19) 0.00725723
		 Cost (2, 3) 0.00101745
		 Cost (8, 28) 0.000310215
		 Merging (8, 28) 0.000310215

		 Cost (0, 2) 0.0158471
		 Cost (0, 19) 0.00725723
		 Cost (2, 3) 0.00101745
		 Cost (9, 10) 0.00052354
		 Merging (9, 10) 0.00052354

		 Cost (0, 2) 0.0158471
		 Cost (0, 19) 0.00725723
		 Cost (2, 3) 0.00101745
		 Cost (15, 22) 0.00059452
		 Cost (23, 38) 0.000569414
		 Cost (43, 44) 0.000541372
		 Merging (43, 44) 0.000541372

		 Cost (0, 2) 0.0158471
		 Cost (0, 19) 0.00725723
		 Cost (2, 3) 0.00101745
		 Cost (15, 22) 0.00059452
		 Cost (23, 38) 0.000569414
		 Merging (23, 38) 0.000569414

		 Cost (0, 2) 0.0158471
		 Cost (0, 19) 0.00725723
		 Cost (2, 3) 0.00101745
		 Cost (15, 22) 0.00059452
		 Cost (23, 50) 0.000589394
		 Merging (23, 50) 0.000589394

		 Cost (0, 2) 0.0158471
		 Cost (0, 19) 0.00725723
		 Cost (2, 3) 0.00101745
		 Cost (15, 22) 0.00059452
		 Merging (15, 22) 0.00059452

		 Cost (0, 2) 0.0158471
		 Cost (0, 19) 0.00725723
		 Cost (2, 3) 0.00101745
		 Cost (17, 39) 0.000639714
		 Merging (17, 39) 0.000639714

		 Cost (0, 2) 0.0158471
		 Cost (0, 19) 0.00725723
		 Cost (2, 3) 0.00101745
		 Cost (17, 36) 0.000761899
		 Merging (17, 36) 0.000761899

		 Cost (0, 2) 0.0158471
		 Cost (0, 19) 0.00725723
		 Cost (2, 3) 0.00101745
		 Cost (31, 32) 0.000961035
		 Cost (32, 43) 0.000847256
		 Merging (32, 43) 0.000847256

		 Cost (0, 2) 0.0158471
		 Cost (0, 19) 0.00725723
		 Cost (2, 3) 0.00101745
		 Cost (52, 53) 0.000860162
		 Merging (52, 53) 0.000860162

		 Cost (0, 2) 0.0158471
		 Cost (0, 19) 0.00725723
		 Cost (2, 3) 0.00101745
		 Cost (29, 52) 0.00056344
		 Cost (51, 52) 0.000522107
		 Merging (51, 52) 0.000522107

		 Cost (0, 2) 0.0158471
		 Cost (0, 19) 0.00725723
		 Cost (2, 3) 0.00101745
		 Cost (29, 51) 0.000563454
		 Merging (29, 51) 0.000563454

		 Cost (0, 2) 0.0158471
		 Cost (0, 19) 0.00725723
		 Cost (2, 3) 0.00101745
		 Cost (29, 45) 0.000508053
		 Merging (29, 45) 0.000508053

		 Cost (0, 2) 0.0158471
		 Cost (0, 19) 0.00725723
		 Cost (2, 3) 0.00101745
		 Merging (2, 3) 0.00101745

		 Cost (0, 2) 0.0179019
		 Cost (0, 19) 0.00725723
		 Cost (2, 19) 0.00690205
		 Cost (4, 9) 0.00194998
		 Cost (6, 42) 0.00114157
		 Cost (7, 27) 0.00110318
		 Cost (11, 27) 0.00105695
		 Merging (11, 27) 0.00105695

		 Cost (0, 2) 0.0179019
		 Cost (0, 19) 0.00725723
		 Cost (2, 19) 0.00690205
		 Cost (4, 9) 0.00194998
		 Cost (6, 42) 0.00114157
		 Merging (6, 42) 0.00114157

		 Cost (0, 2) 0.0179019
		 Cost (0, 19) 0.00725723
		 Cost (2, 19) 0.00690205
		 Cost (4, 9) 0.00194998
		 Cost (6, 37) 0.00100641
		 Merging (6, 37) 0.00100641

		 Cost (0, 2) 0.0179019
		 Cost (0, 19) 0.00725723
		 Cost (2, 19) 0.00690205
		 Cost (4, 9) 0.00194998
		 Cost (21, 23) 0.0017005
		 Cost (23, 32) 0.00127636
		 Merging (23, 32) 0.00127636

		 Cost (0, 2) 0.0179019
		 Cost (0, 19) 0.00725723
		 Cost (2, 19) 0.00690205
		 Cost (4, 9) 0.00194998
		 Cost (23, 35) 0.00141399
		 Merging (23, 35) 0.00141399

		 Cost (0, 2) 0.0179019
		 Cost (0, 19) 0.00725723
		 Cost (2, 19) 0.00690205
		 Cost (4, 9) 0.00194998
	 time 0.896681s
+ Simplify 23 convex-hulls 
		 Simplify CH[00000] 24 V, 44 T
		 Simplify CH[00001] 19 V, 34 T
		 Simplify CH[00002] 30 V, 56 T
		 Simplify CH[00003] 18 V, 32 T
		 Simplify CH[00004] 29 V, 54 T
		 Simplify CH[00005] 20 V, 36 T
		 Simplify CH[00006] 24 V, 44 T
		 Simplify CH[00007] 28 V, 52 T
		 Simplify CH[00008] 25 V, 46 T
		 Simplify CH[00009] 14 V, 24 T
		 Simplify CH[00010] 17 V, 30 T
		 Simplify CH[00011] 27 V, 50 T
		 Simplify CH[00012] 24 V, 44 T
		 Simplify CH[00013] 31 V, 58 T
		 Simplify CH[00014] 25 V, 46 T
		 Simplify CH[00015] 16 V, 28 T
		 Simplify CH[00016] 22 V, 40 T
		 Simplify CH[00017] 8 V, 12 T
		 Simplify CH[00018] 34 V, 64 T
		 Simplify CH[00019] 8 V, 12 T
		 Simplify CH[00020] 14 V, 24 T
		 Simplify CH[00021] 31 V, 58 T
		 Simplify CH[00022] 25 V, 46 T
	 time 0.00133024s
+ Generate output: 23 convex-hulls 
	 CH[00000] 24 V, 44 T
	 CH[00001] 19 V, 34 T
	 CH[00002] 30 V, 56 T
	 CH[00003] 18 V, 32 T
	 CH[00004] 29 V, 54 T
	 CH[00005] 20 V, 36 T
	 CH[00006] 24 V, 44 T
	 CH[00007] 28 V, 52 T
	 CH[00008] 25 V, 46 T
	 CH[00009] 14 V, 24 T
	 CH[00010] 17 V, 30 T
	 CH[00011] 27 V, 50 T
	 CH[00012] 24 V, 44 T
	 CH[00013] 31 V, 58 T
	 CH[00014] 25 V, 46 T
	 CH[00015] 16 V, 28 T
	 CH[00016] 22 V, 40 T
	 CH[00017] 8 V, 12 T
	 CH[00018] 34 V, 64 T
	 CH[00019] 8 V, 12 T
	 CH[00020] 14 V, 24 T
	 CH[00021] 31 V, 58 T
	 CH[00022] 25 V, 46 T
