<?xml version="1.0"?>
<robot name="physics">
 
  <link name="tennis_stuff">
    <contact>
      <lateral_friction value="1.0"/>
      <rolling_friction value="0.0"/>
      <contact_cfm value="0.0"/>
      <contact_erp value="1.0"/>
    </contact>
    <inertial>
      <origin rpy="1.57 0 0" xyz="0.0 0.02 0.15"/>
       <mass value="0.000000000001"/>
       <inertia ixx="1e-9" ixy="0" ixz="0" iyy="1e-9" iyz="0" izz="1e-9"/>
    </inertial>
    <visual>
      <origin rpy="1.57 0 0" xyz="0 0.01 0.15"/>
      <geometry>
        <mesh filename="10540_Tennis_racket_V2_L3.obj" scale="0.006 0.006 0.006"/>
      </geometry>
       <material name="gray">
        <color rgba="0.8 0.8 0.8 1"/>
      </material>
    </visual>
    <collision>
      <origin rpy="1.57 0 0" xyz="0 0.01 0.15"/>
      <geometry>
    <mesh filename="10540_Tennis_racket_V2_L3.obj" scale="0.006 0.006 0.006"/>
      </geometry>
    </collision>
  </link>

</robot>
