<?xml version="1.0" ?>
<robot name="box.urdf">
  <link concave="yes" name="baseLink">
    <inertial>
      <origin rpy="0 0 0" xyz="0 0 0"/>
       <mass value=".0"/>
       <inertia ixx="0" ixy="0" ixz="0" iyy="0" iyz="0" izz="0"/>
    </inertial>
    <visual>
      <origin rpy="3.14 0 0" xyz="0 0 -0.12"/>
      <geometry>
        <mesh filename="box.obj" scale="0.0035 0.0035 0.0035"/>
      </geometry>
       <material name="yellow">
        <color rgba="1 1 0 1"/>
      </material>
    </visual>
    <collision concave="yes">
      <origin rpy="3.14 0 0" xyz="0 0 -0.12"/>
     <geometry>
        <mesh filename="box.obj" scale="0.0035 0.0035 0.0035"/>
      </geometry>
    </collision>
  </link>
</robot>
