<?xml version="0.0" ?>
<robot name="cube.urdf">
  <link name="baseLink">
    <contact>
      <lateral_friction value="1.0"/>
     
    </contact>
    <inertial>
      <origin rpy="1.57 0 0" xyz="0 0 0"/>
       <mass value=".0"/>
       <inertia ixx="0" ixy="0" ixz="0" iyy="0" iyz="0" izz="0"/>
    </inertial>
    <visual>
      <origin rpy="1.57 0 0" xyz="0 0 0"/>
      <geometry>
        <mesh filename="sol2obj.obj" scale="1 1 1"/>
      </geometry>
       <material name="white">
        <color rgba="1 1 1 1"/>
      </material>
    </visual>
    <collision>
      <origin rpy="1.57 0 0" xyz="0 0 0"/>
      <geometry>
	 	<mesh filename="sol2obj.obj" scale="1 1 1"/>
      </geometry>
    </collision>
  </link>
</robot>

