<?xml version="1.0" ?>
<robot name="cube.urdf">
  <link concave="yes" name="baseLink">
    <inertial>
      <origin rpy="0 0 0" xyz="0 0 0.05"/>
       <mass value=".0"/>
       <inertia ixx="0" ixy="0" ixz="0" iyy="0" iyz="0" izz="0"/>
    </inertial>
    <visual>
      <origin rpy="1.5707963 0 0" xyz="0 0 0.05"/>
      <geometry>
        <mesh filename="box.obj" scale=".15 .1 .2"/>
      </geometry>
       <material name="brown">
        <color rgba="0.4 0.2 0.1 1"/>
      </material>
    </visual>
    <collision concave="yes">
      <origin rpy="1.5707963 0 0" xyz="0 0 0.05"/>
     <geometry>
        <mesh filename="box.obj" scale=".15 .1 .2"/>
      </geometry>
    </collision>
  </link>
</robot>
