+ OpenMP (ON)
+ Parameters
	 input                                       Cardboard_box.obj
	 resolution                                  100000
	 max. depth                                  20
	 max. concavity                              0.003
	 plane down-sampling                         4
	 convex-hull down-sampling                   4
	 alpha                                       0.05
	 beta                                        0.05
	 gamma                                       0.0015
	 pca                                         0
	 mode                                        0
	 max. vertices per convex-hull               256
	 min. volume to add vertices to convex-hulls 0
	 output                                      tmp.wrl
+ Load mesh 

+ Voxelization
	 dim = 64	-> 4651 voxels
	 dim = 176	-> 31737 voxels
	 time 0.0350969s
+ Compute primitive set
	 # primitives               31737
	 # inside surface           0
	 # on surface               31737
	 time 0.00221139s
+ Approximate Convex Decomposition
	 Subdivision level 1
	 -> Part[0] C = 0.956024, E = 0.0444156, VS = 31737, VC = 0, VI = 0
		 [Regular sampling] Number of clipping planes 84
			 Plane 0000 T=0.997 C=0.948 B=0.002 S=0.047 D=0.980454 W=0.980454 [1.0, 0.0, 0.0](1.0, 0.0, 0.0, 1.698) 
			 Plane 0042 T=0.973 C=0.924 B=0.002 S=0.047 D=0.980454 W=0.980454 [1.0, 0.0, 0.0](1.0, 0.0, 0.0, -1.581) 
			 Plane 0002 T=0.967 C=0.918 B=0.002 S=0.047 D=0.980454 W=0.980454 [1.0, 0.0, 0.0](1.0, 0.0, 0.0, 1.542) 
			 Plane 0044 T=0.946 C=0.945 B=0.002 S=0.000 D=0.000000 W=0.980454 [1.0, 0.0, 0.0](0.0, 1.0, 0.0, 0.490) 
			 Plane 0045 T=0.923 C=0.921 B=0.001 S=0.000 D=0.000000 W=0.980454 [1.0, 0.0, 0.0](0.0, 1.0, 0.0, 0.412) 
			 Plane 0046 T=0.901 C=0.899 B=0.001 S=0.000 D=0.000000 W=0.980454 [1.0, 0.0, 0.0](0.0, 1.0, 0.0, 0.334) 
			 Plane 0047 T=0.879 C=0.878 B=0.001 S=0.000 D=0.000000 W=0.980454 [1.0, 0.0, 0.0](0.0, 1.0, 0.0, 0.256) 
			 Plane 0048 T=0.856 C=0.855 B=0.001 S=0.000 D=0.000000 W=0.980454 [1.0, 0.0, 0.0](0.0, 1.0, 0.0, 0.178) 
			 Plane 0049 T=0.833 C=0.832 B=0.001 S=0.000 D=0.000000 W=0.980454 [1.0, 0.0, 0.0](0.0, 1.0, 0.0, 0.100) 
			 Plane 0050 T=0.810 C=0.809 B=0.001 S=0.000 D=0.000000 W=0.980454 [1.0, 0.0, 0.0](0.0, 1.0, 0.0, 0.022) 
			 Plane 0051 T=0.786 C=0.786 B=0.000 S=0.000 D=0.000000 W=0.980454 [1.0, 0.0, 0.0](0.0, 1.0, 0.0, -0.056) 
			 Plane 0052 T=0.764 C=0.764 B=0.000 S=0.000 D=0.000000 W=0.980454 [1.0, 0.0, 0.0](0.0, 1.0, 0.0, -0.134) 
			 Plane 0053 T=0.741 C=0.741 B=0.000 S=0.000 D=0.000000 W=0.980454 [1.0, 0.0, 0.0](0.0, 1.0, 0.0, -0.212) 
			 Plane 0054 T=0.718 C=0.718 B=0.000 S=0.000 D=0.000000 W=0.980454 [1.0, 0.0, 0.0](0.0, 1.0, 0.0, -0.290) 
			 Plane 0055 T=0.696 C=0.696 B=0.000 S=0.000 D=0.000000 W=0.980454 [1.0, 0.0, 0.0](0.0, 1.0, 0.0, -0.368) 
			 Plane 0056 T=0.675 C=0.675 B=0.000 S=0.000 D=0.000000 W=0.980454 [1.0, 0.0, 0.0](0.0, 1.0, 0.0, -0.447) 

			 Best  0056 T=0.675 C=0.675 B=0.000 S=0.000 (0.0, 1.0, 0.0, -0.447)

		 [Refining] Number of clipping planes 9
			 Plane 0000 T=0.698 C=0.698 B=0.000 S=0.000 D=0.000000 W=0.980454 [1.0, 0.0, 0.0](0.0, 1.0, 0.0, -0.368) 
			 Plane 0005 T=0.672 C=0.671 B=0.000 S=0.000 D=0.000000 W=0.980454 [1.0, 0.0, 0.0](0.0, 1.0, 0.0, -0.466) 
			 Plane 0006 T=0.670 C=0.669 B=0.000 S=0.000 D=0.000000 W=0.980454 [1.0, 0.0, 0.0](0.0, 1.0, 0.0, -0.486) 

			 Best  0006 T=0.670 C=0.669 B=0.000 S=0.000 (0.0, 1.0, 0.0, -0.486)

	 Subdivision level 2
	 -> Part[0] C = 0.43693, E = 0.0263426, VS = 18823, VC = 0, VI = 0
		 [Regular sampling] Number of clipping planes 58
			 Plane 0000 T=0.456 C=0.436 B=0.000 S=0.020 D=0.893146 W=0.893146 [1.0, 0.0, 0.0](1.0, 0.0, 0.0, 1.210) 
			 Plane 0029 T=0.456 C=0.436 B=0.000 S=0.020 D=0.893146 W=0.893146 [1.0, 0.0, 0.0](1.0, 0.0, 0.0, -1.054) 
			 Plane 0001 T=0.455 C=0.435 B=0.000 S=0.020 D=0.893146 W=0.893146 [1.0, 0.0, 0.0](1.0, 0.0, 0.0, 1.132) 
			 Plane 0003 T=0.455 C=0.435 B=0.000 S=0.020 D=0.893146 W=0.893146 [1.0, 0.0, 0.0](1.0, 0.0, 0.0, 0.976) 
			 Plane 0004 T=0.454 C=0.434 B=0.000 S=0.020 D=0.893146 W=0.893146 [1.0, 0.0, 0.0](1.0, 0.0, 0.0, 0.898) 
			 Plane 0032 T=0.437 C=0.437 B=0.000 S=0.000 D=0.000000 W=0.893146 [1.0, 0.0, 0.0](0.0, 1.0, 0.0, 0.490) 
			 Plane 0033 T=0.437 C=0.437 B=0.000 S=0.000 D=0.000000 W=0.893146 [1.0, 0.0, 0.0](0.0, 1.0, 0.0, 0.412) 
			 Plane 0034 T=0.437 C=0.437 B=0.000 S=0.000 D=0.000000 W=0.893146 [1.0, 0.0, 0.0](0.0, 1.0, 0.0, 0.334) 
			 Plane 0036 T=0.437 C=0.437 B=0.000 S=0.000 D=0.000000 W=0.893146 [1.0, 0.0, 0.0](0.0, 1.0, 0.0, 0.178) 
			 Plane 0037 T=0.437 C=0.437 B=0.000 S=0.000 D=0.000000 W=0.893146 [1.0, 0.0, 0.0](0.0, 1.0, 0.0, 0.100) 
			 Plane 0045 T=0.436 C=0.436 B=0.000 S=0.000 D=0.000000 W=0.893146 [1.0, 0.0, 0.0](0.0, 0.0, 1.0, 0.492) 
			 Plane 0048 T=0.436 C=0.436 B=0.000 S=0.000 D=0.000000 W=0.893146 [1.0, 0.0, 0.0](0.0, 0.0, 1.0, 0.258) 
			 Plane 0049 T=0.434 C=0.434 B=0.000 S=0.000 D=0.000000 W=0.893146 [1.0, 0.0, 0.0](0.0, 0.0, 1.0, 0.180) 

			 Best  0049 T=0.434 C=0.434 B=0.000 S=0.000 (0.0, 0.0, 1.0, 0.180)

		 [Refining] Number of clipping planes 9
			 Plane 0000 T=0.436 C=0.436 B=0.000 S=0.000 D=0.000000 W=0.893146 [1.0, 0.0, 0.0](0.0, 0.0, 1.0, 0.258) 
			 Plane 0005 T=0.436 C=0.436 B=0.000 S=0.000 D=0.000000 W=0.893146 [1.0, 0.0, 0.0](0.0, 0.0, 1.0, 0.160) 

			 Best  0005 T=0.436 C=0.436 B=0.000 S=0.000 (0.0, 0.0, 1.0, 0.160)

	 -> Part[1] C = 0.232458, E = 0.018073, VS = 12914, VC = 0, VI = 0
		 [Regular sampling] Number of clipping planes 71
			 Plane 0000 T=0.232 C=0.231 B=0.000 S=0.000 D=0.040680 W=0.040680 [1.0, 0.0, 0.0](1.0, 0.0, 0.0, 1.698) 
			 Plane 0036 T=0.224 C=0.224 B=0.000 S=0.000 D=0.040680 W=0.040680 [1.0, 0.0, 0.0](1.0, 0.0, 0.0, -1.113) 
			 Plane 0001 T=0.222 C=0.221 B=0.000 S=0.000 D=0.040680 W=0.040680 [1.0, 0.0, 0.0](1.0, 0.0, 0.0, 1.620) 
			 Plane 0002 T=0.219 C=0.218 B=0.000 S=0.000 D=0.040680 W=0.040680 [1.0, 0.0, 0.0](1.0, 0.0, 0.0, 1.542) 
			 Plane 0038 T=0.212 C=0.211 B=0.000 S=0.000 D=0.040680 W=0.040680 [1.0, 0.0, 0.0](1.0, 0.0, 0.0, -1.269) 
			 Plane 0006 T=0.210 C=0.210 B=0.000 S=0.000 D=0.040680 W=0.040680 [1.0, 0.0, 0.0](1.0, 0.0, 0.0, 1.229) 
			 Plane 0066 T=0.208 C=0.208 B=0.000 S=0.000 D=0.000000 W=0.040680 [1.0, 0.0, 0.0](0.0, 0.0, 1.0, -0.523) 

			 Best  0066 T=0.208 C=0.208 B=0.000 S=0.000 (0.0, 0.0, 1.0, -0.523)

		 [Refining] Number of clipping planes 9
			 Plane 0000 T=0.233 C=0.232 B=0.000 S=0.000 D=0.000000 W=0.040680 [1.0, 0.0, 0.0](0.0, 0.0, 1.0, -0.445) 
			 Plane 0005 T=0.210 C=0.210 B=0.000 S=0.000 D=0.000000 W=0.040680 [1.0, 0.0, 0.0](0.0, 0.0, 1.0, -0.542) 
			 Plane 0003 T=0.207 C=0.207 B=0.000 S=0.000 D=0.000000 W=0.040680 [1.0, 0.0, 0.0](0.0, 0.0, 1.0, -0.503) 

			 Best  0003 T=0.207 C=0.207 B=0.000 S=0.000 (0.0, 0.0, 1.0, -0.503)

	 Subdivision level 3
	 -> Part[0] C = 0.147632, E = 0.0118565, VS = 8472, VC = 0, VI = 0
		 [Regular sampling] Number of clipping planes 50
			 Plane 0000 T=0.122 C=0.121 B=0.000 S=0.001 D=0.163849 W=0.163849 [1.0, 0.0, 0.0](1.0, 0.0, 0.0, 1.210) 
			 Plane 0025 T=0.111 C=0.110 B=0.000 S=0.001 D=0.163849 W=0.163849 [1.0, 0.0, 0.0](1.0, 0.0, 0.0, -0.742) 
			 Plane 0026 T=0.110 C=0.109 B=0.000 S=0.001 D=0.163849 W=0.163849 [1.0, 0.0, 0.0](1.0, 0.0, 0.0, -0.820) 
			 Plane 0027 T=0.109 C=0.107 B=0.000 S=0.001 D=0.163849 W=0.163849 [1.0, 0.0, 0.0](1.0, 0.0, 0.0, -0.898) 
			 Plane 0028 T=0.108 C=0.107 B=0.000 S=0.001 D=0.163849 W=0.163849 [1.0, 0.0, 0.0](1.0, 0.0, 0.0, -0.976) 

			 Best  0028 T=0.108 C=0.107 B=0.000 S=0.001 (1.0, 0.0, 0.0, -0.976)

		 [Refining] Number of clipping planes 9
			 Plane 0000 T=0.114 C=0.113 B=0.000 S=0.001 D=0.163849 W=0.163849 [1.0, 0.0, 0.0](1.0, 0.0, 0.0, -0.898) 
			 Plane 0001 T=0.114 C=0.112 B=0.000 S=0.001 D=0.163849 W=0.163849 [1.0, 0.0, 0.0](1.0, 0.0, 0.0, -0.917) 

			 Best  0001 T=0.114 C=0.112 B=0.000 S=0.001 (1.0, 0.0, 0.0, -0.917)

	 -> Part[1] C = 0.288162, E = 0.0144861, VS = 10351, VC = 0, VI = 0
		 [Regular sampling] Number of clipping planes 54
			 Plane 0000 T=0.245 C=0.236 B=0.000 S=0.009 D=0.620326 W=0.620326 [1.0, 0.0, 0.0](1.0, 0.0, 0.0, 1.210) 
			 Plane 0027 T=0.232 C=0.223 B=0.000 S=0.009 D=0.620326 W=0.620326 [1.0, 0.0, 0.0](1.0, 0.0, 0.0, -0.898) 
			 Plane 0010 T=0.231 C=0.222 B=0.000 S=0.009 D=0.620326 W=0.620326 [1.0, 0.0, 0.0](1.0, 0.0, 0.0, 0.429) 
			 Plane 0011 T=0.227 C=0.218 B=0.000 S=0.009 D=0.620326 W=0.620326 [1.0, 0.0, 0.0](1.0, 0.0, 0.0, 0.351) 

			 Best  0011 T=0.227 C=0.218 B=0.000 S=0.009 (1.0, 0.0, 0.0, 0.351)

		 [Refining] Number of clipping planes 9
			 Plane 0000 T=0.236 C=0.227 B=0.000 S=0.009 D=0.620326 W=0.620326 [1.0, 0.0, 0.0](1.0, 0.0, 0.0, 0.429) 
			 Plane 0001 T=0.236 C=0.227 B=0.000 S=0.009 D=0.620326 W=0.620326 [1.0, 0.0, 0.0](1.0, 0.0, 0.0, 0.410) 

			 Best  0001 T=0.236 C=0.227 B=0.000 S=0.009 (1.0, 0.0, 0.0, 0.410)

	 -> Part[2] C = 0.201365, E = 0.0126122, VS = 9012, VC = 0, VI = 0
		 [Regular sampling] Number of clipping planes 66
			 Plane 0000 T=0.201 C=0.200 B=0.000 S=0.001 D=0.077702 W=0.077702 [1.0, 0.0, 0.0](1.0, 0.0, 0.0, 1.698) 
			 Plane 0033 T=0.158 C=0.157 B=0.000 S=0.001 D=0.077702 W=0.077702 [1.0, 0.0, 0.0](1.0, 0.0, 0.0, -0.878) 
			 Plane 0034 T=0.158 C=0.157 B=0.000 S=0.001 D=0.077702 W=0.077702 [1.0, 0.0, 0.0](1.0, 0.0, 0.0, -0.956) 
			 Plane 0035 T=0.156 C=0.155 B=0.000 S=0.001 D=0.077702 W=0.077702 [1.0, 0.0, 0.0](1.0, 0.0, 0.0, -1.035) 
			 Plane 0005 T=0.155 C=0.154 B=0.000 S=0.001 D=0.077702 W=0.077702 [1.0, 0.0, 0.0](1.0, 0.0, 0.0, 1.307) 
			 Plane 0006 T=0.151 C=0.150 B=0.000 S=0.001 D=0.077702 W=0.077702 [1.0, 0.0, 0.0](1.0, 0.0, 0.0, 1.229) 

			 Best  0006 T=0.151 C=0.150 B=0.000 S=0.001 (1.0, 0.0, 0.0, 1.229)

		 [Refining] Number of clipping planes 9
			 Plane 0000 T=0.159 C=0.158 B=0.000 S=0.001 D=0.077702 W=0.077702 [1.0, 0.0, 0.0](1.0, 0.0, 0.0, 1.307) 
			 Plane 0001 T=0.159 C=0.158 B=0.000 S=0.001 D=0.077702 W=0.077702 [1.0, 0.0, 0.0](1.0, 0.0, 0.0, 1.288) 
			 Plane 0002 T=0.156 C=0.155 B=0.000 S=0.001 D=0.077702 W=0.077702 [1.0, 0.0, 0.0](1.0, 0.0, 0.0, 1.268) 
			 Plane 0003 T=0.153 C=0.152 B=0.000 S=0.001 D=0.077702 W=0.077702 [1.0, 0.0, 0.0](1.0, 0.0, 0.0, 1.249) 
			 Plane 0004 T=0.152 C=0.152 B=0.000 S=0.001 D=0.077702 W=0.077702 [1.0, 0.0, 0.0](1.0, 0.0, 0.0, 1.229) 

			 Best  0004 T=0.152 C=0.152 B=0.000 S=0.001 (1.0, 0.0, 0.0, 1.229)

	 -> Part[3] C = 0.00603215, E = 0.00546081, VS = 3902, VC = 0, VI = 0
		 [Regular sampling] Number of clipping planes 41
			 Plane 0021 T=0.006 C=0.006 B=0.000 S=0.000 D=0.008432 W=0.008432 [1.0, 0.0, 0.0](1.0, 0.0, 0.0, -0.430) 
			 Plane 0022 T=0.006 C=0.006 B=0.000 S=0.000 D=0.008432 W=0.008432 [1.0, 0.0, 0.0](1.0, 0.0, 0.0, -0.508) 
			 Plane 0005 T=0.006 C=0.006 B=0.000 S=0.000 D=0.008432 W=0.008432 [1.0, 0.0, 0.0](1.0, 0.0, 0.0, 0.819) 
			 Plane 0033 T=0.005 C=0.005 B=0.000 S=0.000 D=0.000000 W=0.008432 [1.0, 0.0, 0.0](0.0, 1.0, 0.0, -0.583) 
			 Plane 0034 T=0.005 C=0.005 B=0.000 S=0.000 D=0.000000 W=0.008432 [1.0, 0.0, 0.0](0.0, 1.0, 0.0, -0.661) 

			 Best  0034 T=0.005 C=0.005 B=0.000 S=0.000 (0.0, 1.0, 0.0, -0.661)

		 [Refining] Number of clipping planes 9
			 Plane 0000 T=0.005 C=0.005 B=0.000 S=0.000 D=0.000000 W=0.008432 [1.0, 0.0, 0.0](0.0, 1.0, 0.0, -0.583) 
			 Plane 0005 T=0.005 C=0.005 B=0.000 S=0.000 D=0.000000 W=0.008432 [1.0, 0.0, 0.0](0.0, 1.0, 0.0, -0.681) 
			 Plane 0004 T=0.005 C=0.005 B=0.000 S=0.000 D=0.000000 W=0.008432 [1.0, 0.0, 0.0](0.0, 1.0, 0.0, -0.661) 

			 Best  0004 T=0.005 C=0.005 B=0.000 S=0.000 (0.0, 1.0, 0.0, -0.661)

	 Subdivision level 4
	 -> Part[0] C = 0.0995042, E = 0.00962568, VS = 6878, VC = 0, VI = 0
		 [Regular sampling] Number of clipping planes 46
			 Plane 0000 T=0.063 C=0.063 B=0.000 S=0.001 D=0.127330 W=0.127330 [1.0, 0.0, 0.0](1.0, 0.0, 0.0, 1.210) 
			 Plane 0041 T=0.060 C=0.060 B=0.000 S=0.000 D=0.000000 W=0.127330 [1.0, 0.0, 0.0](0.0, 0.0, 1.0, 0.492) 

			 Best  0041 T=0.060 C=0.060 B=0.000 S=0.000 (0.0, 0.0, 1.0, 0.492)

		 [Refining] Number of clipping planes 5
			 Plane 0000 T=0.063 C=0.063 B=0.000 S=0.000 D=0.000000 W=0.127330 [1.0, 0.0, 0.0](0.0, 0.0, 1.0, 0.492) 

			 Best  0000 T=0.063 C=0.063 B=0.000 S=0.000 (0.0, 0.0, 1.0, 0.492)

	 -> Part[1] C = 0.012991, E = 0.00223079, VS = 1594, VC = 0, VI = 0
		 [Regular sampling] Number of clipping planes 22
			 Plane 0000 T=0.012 C=0.012 B=0.000 S=0.000 D=0.000000 W=0.592154 [0.0, 1.0, 0.0](1.0, 0.0, 0.0, -0.937) 
			 Plane 0011 T=0.011 C=0.010 B=0.000 S=0.000 D=0.592154 W=0.592154 [0.0, 1.0, 0.0](0.0, 1.0, 0.0, -0.056) 
			 Plane 0002 T=0.010 C=0.010 B=0.000 S=0.000 D=0.000000 W=0.592154 [0.0, 1.0, 0.0](1.0, 0.0, 0.0, -1.093) 
			 Plane 0003 T=0.009 C=0.009 B=0.000 S=0.000 D=0.000000 W=0.592154 [0.0, 1.0, 0.0](1.0, 0.0, 0.0, -1.171) 
			 Plane 0017 T=0.008 C=0.008 B=0.000 S=0.000 D=0.000000 W=0.592154 [0.0, 1.0, 0.0](0.0, 0.0, 1.0, 0.492) 

			 Best  0017 T=0.008 C=0.008 B=0.000 S=0.000 (0.0, 0.0, 1.0, 0.492)

		 [Refining] Number of clipping planes 5
			 Plane 0003 T=0.009 C=0.009 B=0.000 S=0.000 D=0.000000 W=0.592154 [0.0, 1.0, 0.0](0.0, 0.0, 1.0, 0.433) 
			 Plane 0000 T=0.009 C=0.009 B=0.000 S=0.000 D=0.000000 W=0.592154 [0.0, 1.0, 0.0](0.0, 0.0, 1.0, 0.492) 

			 Best  0000 T=0.009 C=0.009 B=0.000 S=0.000 (0.0, 0.0, 1.0, 0.492)

	 -> Part[2] C = 0.0763208, E = 0.00594223, VS = 4246, VC = 0, VI = 0
		 [Regular sampling] Number of clipping planes 33
			 Plane 0017 T=0.059 C=0.059 B=0.000 S=0.000 D=0.000000 W=0.958474 [0.0, 0.0, 1.0](0.0, 1.0, 0.0, 0.022) 
			 Plane 0000 T=0.046 C=0.046 B=0.000 S=0.000 D=0.000000 W=0.958474 [0.0, 0.0, 1.0](1.0, 0.0, 0.0, 1.210) 

			 Best  0000 T=0.046 C=0.046 B=0.000 S=0.000 (1.0, 0.0, 0.0, 1.210)

		 [Refining] Number of clipping planes 5
			 Plane 0000 T=0.048 C=0.048 B=0.000 S=0.000 D=0.000000 W=0.958474 [0.0, 0.0, 1.0](1.0, 0.0, 0.0, 1.210) 

			 Best  0000 T=0.048 C=0.048 B=0.000 S=0.000 (1.0, 0.0, 0.0, 1.210)

	 -> Part[3] C = 0.150329, E = 0.00854388, VS = 6105, VC = 0, VI = 0
		 [Regular sampling] Number of clipping planes 43
			 Plane 0022 T=0.101 C=0.101 B=0.000 S=0.000 D=0.000000 W=0.505365 [1.0, 0.0, 0.0](0.0, 1.0, 0.0, 0.412) 
			 Plane 0020 T=0.100 C=0.096 B=0.000 S=0.004 D=0.505365 W=0.505365 [1.0, 0.0, 0.0](1.0, 0.0, 0.0, -1.171) 
			 Plane 0042 T=0.095 C=0.095 B=0.000 S=0.000 D=0.000000 W=0.505365 [1.0, 0.0, 0.0](0.0, 0.0, 1.0, -0.484) 

			 Best  0042 T=0.095 C=0.095 B=0.000 S=0.000 (0.0, 0.0, 1.0, -0.484)

		 [Refining] Number of clipping planes 6
			 Plane 0000 T=0.103 C=0.103 B=0.000 S=0.000 D=0.000000 W=0.505365 [1.0, 0.0, 0.0](0.0, 0.0, 1.0, -0.406) 
			 Plane 0003 T=0.098 C=0.098 B=0.000 S=0.000 D=0.000000 W=0.505365 [1.0, 0.0, 0.0](0.0, 0.0, 1.0, -0.464) 
			 Plane 0004 T=0.096 C=0.096 B=0.000 S=0.000 D=0.000000 W=0.505365 [1.0, 0.0, 0.0](0.0, 0.0, 1.0, -0.484) 

			 Best  0004 T=0.096 C=0.096 B=0.000 S=0.000 (0.0, 0.0, 1.0, -0.484)

	 -> Part[4] C = 0.00309036, E = 0.00284236, VS = 2031, VC = 0, VI = 0
		 [Regular sampling] Number of clipping planes 24
			 Plane 0000 T=0.003 C=0.003 B=0.000 S=0.000 D=0.000000 W=0.014345 [0.0, 0.0, 1.0](1.0, 0.0, 0.0, 1.698) 
			 Plane 0012 T=0.003 C=0.003 B=0.000 S=0.000 D=0.014345 W=0.014345 [0.0, 0.0, 1.0](0.0, 0.0, 1.0, 0.414) 
			 Plane 0013 T=0.003 C=0.003 B=0.000 S=0.000 D=0.014345 W=0.014345 [0.0, 0.0, 1.0](0.0, 0.0, 1.0, 0.336) 
			 Plane 0001 T=0.003 C=0.003 B=0.000 S=0.000 D=0.000000 W=0.014345 [0.0, 0.0, 1.0](1.0, 0.0, 0.0, 1.620) 
			 Plane 0002 T=0.003 C=0.003 B=0.000 S=0.000 D=0.000000 W=0.014345 [0.0, 0.0, 1.0](1.0, 0.0, 0.0, 1.542) 
			 Plane 0003 T=0.003 C=0.003 B=0.000 S=0.000 D=0.000000 W=0.014345 [0.0, 0.0, 1.0](1.0, 0.0, 0.0, 1.463) 
			 Plane 0008 T=0.003 C=0.003 B=0.000 S=0.000 D=0.000000 W=0.014345 [0.0, 0.0, 1.0](0.0, 1.0, 0.0, -0.583) 

			 Best  0008 T=0.003 C=0.003 B=0.000 S=0.000 (0.0, 1.0, 0.0, -0.583)

		 [Refining] Number of clipping planes 9
			 Plane 0000 T=0.003 C=0.003 B=0.000 S=0.000 D=0.000000 W=0.014345 [0.0, 0.0, 1.0](0.0, 1.0, 0.0, -0.505) 
			 Plane 0005 T=0.003 C=0.003 B=0.000 S=0.000 D=0.000000 W=0.014345 [0.0, 0.0, 1.0](0.0, 1.0, 0.0, -0.603) 
			 Plane 0003 T=0.003 C=0.003 B=0.000 S=0.000 D=0.000000 W=0.014345 [0.0, 0.0, 1.0](0.0, 1.0, 0.0, -0.564) 
			 Plane 0004 T=0.003 C=0.003 B=0.000 S=0.000 D=0.000000 W=0.014345 [0.0, 0.0, 1.0](0.0, 1.0, 0.0, -0.583) 

			 Best  0004 T=0.003 C=0.003 B=0.000 S=0.000 (0.0, 1.0, 0.0, -0.583)

	 -> Part[5] C = 0.14845, E = 0.00976983, VS = 6981, VC = 0, VI = 0
		 [Regular sampling] Number of clipping planes 60
			 Plane 0000 T=0.146 C=0.146 B=0.000 S=0.001 D=0.096787 W=0.096787 [1.0, 0.0, 0.0](1.0, 0.0, 0.0, 1.210) 
			 Plane 0030 T=0.091 C=0.090 B=0.000 S=0.001 D=0.096787 W=0.096787 [1.0, 0.0, 0.0](1.0, 0.0, 0.0, -1.132) 
			 Plane 0031 T=0.091 C=0.090 B=0.000 S=0.001 D=0.096787 W=0.096787 [1.0, 0.0, 0.0](1.0, 0.0, 0.0, -1.210) 

			 Best  0031 T=0.091 C=0.090 B=0.000 S=0.001 (1.0, 0.0, 0.0, -1.210)

		 [Refining] Number of clipping planes 9
			 Plane 0000 T=0.094 C=0.093 B=0.000 S=0.001 D=0.096787 W=0.096787 [1.0, 0.0, 0.0](1.0, 0.0, 0.0, -1.132) 
			 Plane 0005 T=0.084 C=0.083 B=0.000 S=0.001 D=0.096787 W=0.096787 [1.0, 0.0, 0.0](1.0, 0.0, 0.0, -1.230) 

			 Best  0005 T=0.084 C=0.083 B=0.000 S=0.001 (1.0, 0.0, 0.0, -1.230)

	 -> Part[6] C = 0.00296817, E = 0.00352531, VS = 2519, VC = 0, VI = 0
	 -> Part[7] C = 0.00227259, E = 0.00193549, VS = 1383, VC = 0, VI = 0
	 Subdivision level 5
	 -> Part[0] C = 0.00139669, E = 0.00642645, VS = 4592, VC = 0, VI = 0
	 -> Part[1] C = 0.0613662, E = 0.00319923, VS = 2286, VC = 0, VI = 0
		 [Regular sampling] Number of clipping planes 46
			 Plane 0023 T=0.054 C=0.053 B=0.000 S=0.001 D=0.316062 W=0.316062 [1.0, 0.0, 0.0](1.0, 0.0, 0.0, -0.586) 
			 Plane 0000 T=0.001 C=0.000 B=0.000 S=0.001 D=0.316062 W=0.316062 [1.0, 0.0, 0.0](1.0, 0.0, 0.0, 1.210) 
			 Plane 0028 T=0.000 C=0.000 B=0.000 S=0.000 D=0.000000 W=0.316062 [1.0, 0.0, 0.0](0.0, 1.0, 0.0, 0.490) 

			 Best  0028 T=0.000 C=0.000 B=0.000 S=0.000 (0.0, 1.0, 0.0, 0.490)

		 [Refining] Number of clipping planes 5
			 Plane 0003 T=0.004 C=0.004 B=0.000 S=0.000 D=0.000000 W=0.316062 [1.0, 0.0, 0.0](0.0, 1.0, 0.0, 0.432) 
			 Plane 0000 T=0.000 C=0.000 B=0.000 S=0.000 D=0.000000 W=0.316062 [1.0, 0.0, 0.0](0.0, 1.0, 0.0, 0.490) 

			 Best  0000 T=0.000 C=0.000 B=0.000 S=0.000 (0.0, 1.0, 0.0, 0.490)

	 -> Part[2] C = 0.000193286, E = 0.000943256, VS = 674, VC = 0, VI = 0
	 -> Part[3] C = 0.00837841, E = 0.00128753, VS = 920, VC = 0, VI = 0
		 [Regular sampling] Number of clipping planes 22
			 Plane 0000 T=0.007 C=0.007 B=0.000 S=0.000 D=0.000000 W=0.646494 [0.0, 1.0, 0.0](1.0, 0.0, 0.0, -0.937) 
			 Plane 0011 T=0.005 C=0.004 B=0.000 S=0.000 D=0.646494 W=0.646494 [0.0, 1.0, 0.0](0.0, 1.0, 0.0, -0.056) 
			 Plane 0002 T=0.004 C=0.004 B=0.000 S=0.000 D=0.000000 W=0.646494 [0.0, 1.0, 0.0](1.0, 0.0, 0.0, -1.093) 
			 Plane 0003 T=0.001 C=0.001 B=0.000 S=0.000 D=0.000000 W=0.646494 [0.0, 1.0, 0.0](1.0, 0.0, 0.0, -1.171) 
			 Plane 0004 T=0.000 C=0.000 B=0.000 S=0.000 D=0.646494 W=0.646494 [0.0, 1.0, 0.0](0.0, 1.0, 0.0, 0.490) 

			 Best  0004 T=0.000 C=0.000 B=0.000 S=0.000 (0.0, 1.0, 0.0, 0.490)

		 [Refining] Number of clipping planes 5
			 Plane 0000 T=0.000 C=0.000 B=0.000 S=0.000 D=0.646494 W=0.646494 [0.0, 1.0, 0.0](0.0, 1.0, 0.0, 0.490) 

			 Best  0000 T=0.000 C=0.000 B=0.000 S=0.000 (0.0, 1.0, 0.0, 0.490)

	 -> Part[4] C = 0.000493044, E = 0.0019271, VS = 1377, VC = 0, VI = 0
	 -> Part[5] C = 0.0470108, E = 0.00401513, VS = 2869, VC = 0, VI = 0
		 [Regular sampling] Number of clipping planes 33
			 Plane 0017 T=0.024 C=0.023 B=0.000 S=0.002 D=0.654027 W=0.654027 [0.0, 1.0, 0.0](0.0, 1.0, 0.0, 0.022) 
			 Plane 0011 T=0.002 C=0.001 B=0.000 S=0.002 D=0.654027 W=0.654027 [0.0, 1.0, 0.0](0.0, 1.0, 0.0, 0.490) 
			 Plane 0032 T=0.001 C=0.001 B=0.000 S=0.000 D=0.000000 W=0.654027 [0.0, 1.0, 0.0](0.0, 0.0, 1.0, -0.484) 

			 Best  0032 T=0.001 C=0.001 B=0.000 S=0.000 (0.0, 0.0, 1.0, -0.484)

		 [Refining] Number of clipping planes 6
			 Plane 0003 T=0.002 C=0.002 B=0.000 S=0.000 D=0.000000 W=0.654027 [0.0, 1.0, 0.0](0.0, 0.0, 1.0, -0.464) 
			 Plane 0004 T=0.001 C=0.001 B=0.000 S=0.000 D=0.000000 W=0.654027 [0.0, 1.0, 0.0](0.0, 0.0, 1.0, -0.484) 

			 Best  0004 T=0.001 C=0.001 B=0.000 S=0.000 (0.0, 0.0, 1.0, -0.484)

	 -> Part[6] C = 0.0947797, E = 0.00402773, VS = 2878, VC = 0, VI = 0
		 [Regular sampling] Number of clipping planes 43
			 Plane 0000 T=0.097 C=0.093 B=0.000 S=0.004 D=0.872891 W=0.872891 [1.0, 0.0, 0.0](1.0, 0.0, 0.0, 0.390) 
			 Plane 0022 T=0.009 C=0.009 B=0.000 S=0.000 D=0.000000 W=0.872891 [1.0, 0.0, 0.0](0.0, 1.0, 0.0, 0.412) 
			 Plane 0020 T=0.008 C=0.004 B=0.000 S=0.004 D=0.872891 W=0.872891 [1.0, 0.0, 0.0](1.0, 0.0, 0.0, -1.171) 
			 Plane 0021 T=0.002 C=0.002 B=0.000 S=0.000 D=0.000000 W=0.872891 [1.0, 0.0, 0.0](0.0, 1.0, 0.0, 0.490) 

			 Best  0021 T=0.002 C=0.002 B=0.000 S=0.000 (0.0, 1.0, 0.0, 0.490)

		 [Refining] Number of clipping planes 5
			 Plane 0000 T=0.002 C=0.002 B=0.000 S=0.000 D=0.000000 W=0.872891 [1.0, 0.0, 0.0](0.0, 1.0, 0.0, 0.490) 

			 Best  0000 T=0.002 C=0.002 B=0.000 S=0.000 (0.0, 1.0, 0.0, 0.490)

	 -> Part[7] C = 0.00145534, E = 0.00451615, VS = 3227, VC = 0, VI = 0
	 -> Part[8] C = 0.000529264, E = 0.00084809, VS = 606, VC = 0, VI = 0
	 -> Part[9] C = 0.00220448, E = 0.00199427, VS = 1425, VC = 0, VI = 0
	 -> Part[10] C = 0.0804855, E = 0.00669096, VS = 4781, VC = 0, VI = 0
		 [Regular sampling] Number of clipping planes 54
			 Plane 0000 T=0.080 C=0.080 B=0.000 S=0.000 D=0.073836 W=0.073836 [1.0, 0.0, 0.0](1.0, 0.0, 0.0, 1.210) 
			 Plane 0027 T=0.078 C=0.078 B=0.000 S=0.000 D=0.073836 W=0.073836 [1.0, 0.0, 0.0](1.0, 0.0, 0.0, -0.898) 
			 Plane 0028 T=0.078 C=0.077 B=0.000 S=0.000 D=0.073836 W=0.073836 [1.0, 0.0, 0.0](1.0, 0.0, 0.0, -0.976) 
			 Plane 0033 T=0.036 C=0.036 B=0.000 S=0.000 D=0.000000 W=0.073836 [1.0, 0.0, 0.0](0.0, 1.0, 0.0, -0.583) 
			 Plane 0040 T=0.031 C=0.031 B=0.000 S=0.000 D=0.000000 W=0.073836 [1.0, 0.0, 0.0](0.0, 0.0, 1.0, 0.570) 
			 Plane 0041 T=0.023 C=0.023 B=0.000 S=0.000 D=0.000000 W=0.073836 [1.0, 0.0, 0.0](0.0, 0.0, 1.0, 0.492) 

			 Best  0041 T=0.023 C=0.023 B=0.000 S=0.000 (0.0, 0.0, 1.0, 0.492)

		 [Refining] Number of clipping planes 9
			 Plane 0000 T=0.032 C=0.032 B=0.000 S=0.000 D=0.000000 W=0.073836 [1.0, 0.0, 0.0](0.0, 0.0, 1.0, 0.570) 
			 Plane 0005 T=0.024 C=0.024 B=0.000 S=0.000 D=0.000000 W=0.073836 [1.0, 0.0, 0.0](0.0, 0.0, 1.0, 0.472) 
			 Plane 0003 T=0.023 C=0.023 B=0.000 S=0.000 D=0.000000 W=0.073836 [1.0, 0.0, 0.0](0.0, 0.0, 1.0, 0.511) 

			 Best  0003 T=0.023 C=0.023 B=0.000 S=0.000 (0.0, 0.0, 1.0, 0.511)

	 -> Part[11] C = 0.00289401, E = 0.00307888, VS = 2200, VC = 0, VI = 0
	 Subdivision level 6
	 -> Part[0] C = 0.000396281, E = 0.00206145, VS = 1473, VC = 0, VI = 0
	 -> Part[1] C = 4.29434e-05, E = 0.00113778, VS = 813, VC = 0, VI = 0
	 -> Part[2] C = 3.46411e-05, E = 0.000307888, VS = 220, VC = 0, VI = 0
	 -> Part[3] C = 0.00019327, E = 0.000979642, VS = 700, VC = 0, VI = 0
	 -> Part[4] C = 0.000566508, E = 0.00129873, VS = 928, VC = 0, VI = 0
	 -> Part[5] C = 0.000188929, E = 0.00271641, VS = 1941, VC = 0, VI = 0
	 -> Part[6] C = 0.00169526, E = 0.00204885, VS = 1464, VC = 0, VI = 0
	 -> Part[7] C = 0.000320751, E = 0.00197888, VS = 1414, VC = 0, VI = 0
	 -> Part[8] C = 0.00568554, E = 0.00580508, VS = 4148, VC = 0, VI = 0
	 -> Part[9] C = 0.0172802, E = 0.000885876, VS = 633, VC = 0, VI = 0
		 [Regular sampling] Number of clipping planes 46
			 Plane 0000 T=0.017 C=0.017 B=0.000 S=0.000 D=0.001715 W=0.001715 [1.0, 0.0, 0.0](1.0, 0.0, 0.0, 1.210) 
			 Plane 0023 T=0.016 C=0.016 B=0.000 S=0.000 D=0.001715 W=0.001715 [1.0, 0.0, 0.0](1.0, 0.0, 0.0, -0.586) 
			 Plane 0002 T=0.016 C=0.016 B=0.000 S=0.000 D=0.001715 W=0.001715 [1.0, 0.0, 0.0](1.0, 0.0, 0.0, 1.054) 
			 Plane 0004 T=0.016 C=0.016 B=0.000 S=0.000 D=0.001715 W=0.001715 [1.0, 0.0, 0.0](1.0, 0.0, 0.0, 0.898) 
			 Plane 0005 T=0.015 C=0.015 B=0.000 S=0.000 D=0.001715 W=0.001715 [1.0, 0.0, 0.0](1.0, 0.0, 0.0, 0.819) 
			 Plane 0006 T=0.015 C=0.015 B=0.000 S=0.000 D=0.001715 W=0.001715 [1.0, 0.0, 0.0](1.0, 0.0, 0.0, 0.741) 
			 Plane 0016 T=0.015 C=0.015 B=0.000 S=0.000 D=0.001715 W=0.001715 [1.0, 0.0, 0.0](1.0, 0.0, 0.0, -0.039) 

			 Best  0016 T=0.015 C=0.015 B=0.000 S=0.000 (1.0, 0.0, 0.0, -0.039)

		 [Refining] Number of clipping planes 9
			 Plane 0005 T=0.017 C=0.017 B=0.000 S=0.000 D=0.001715 W=0.001715 [1.0, 0.0, 0.0](1.0, 0.0, 0.0, -0.059) 
			 Plane 0000 T=0.017 C=0.017 B=0.000 S=0.000 D=0.001715 W=0.001715 [1.0, 0.0, 0.0](1.0, 0.0, 0.0, 0.039) 

			 Best  0000 T=0.017 C=0.017 B=0.000 S=0.000 (1.0, 0.0, 0.0, 0.039)

	 Subdivision level 7
	 -> Part[0] C = 0.00810169, E = 0.000433842, VS = 310, VC = 0, VI = 0
		 [Regular sampling] Number of clipping planes 30
			 Plane 0016 T=0.005 C=0.004 B=0.000 S=0.000 D=0.940431 W=0.940431 [0.0, 1.0, 0.0](0.0, 1.0, 0.0, -0.505) 
			 Plane 0017 T=0.004 C=0.004 B=0.000 S=0.000 D=0.000000 W=0.940431 [0.0, 1.0, 0.0](0.0, 0.0, 1.0, 0.492) 
			 Plane 0018 T=0.003 C=0.003 B=0.000 S=0.000 D=0.000000 W=0.940431 [0.0, 1.0, 0.0](0.0, 0.0, 1.0, 0.414) 
			 Plane 0024 T=0.003 C=0.003 B=0.000 S=0.000 D=0.000000 W=0.940431 [0.0, 1.0, 0.0](0.0, 0.0, 1.0, -0.055) 
			 Plane 0025 T=0.003 C=0.003 B=0.000 S=0.000 D=0.000000 W=0.940431 [0.0, 1.0, 0.0](0.0, 0.0, 1.0, -0.133) 
			 Plane 0026 T=0.003 C=0.003 B=0.000 S=0.000 D=0.000000 W=0.940431 [0.0, 1.0, 0.0](0.0, 0.0, 1.0, -0.211) 
			 Plane 0027 T=0.003 C=0.003 B=0.000 S=0.000 D=0.000000 W=0.940431 [0.0, 1.0, 0.0](0.0, 0.0, 1.0, -0.289) 
			 Plane 0028 T=0.003 C=0.003 B=0.000 S=0.000 D=0.000000 W=0.940431 [0.0, 1.0, 0.0](0.0, 0.0, 1.0, -0.367) 
			 Plane 0029 T=0.003 C=0.003 B=0.000 S=0.000 D=0.000000 W=0.940431 [0.0, 1.0, 0.0](0.0, 0.0, 1.0, -0.445) 

			 Best  0029 T=0.003 C=0.003 B=0.000 S=0.000 (0.0, 0.0, 1.0, -0.445)

		 [Refining] Number of clipping planes 8
			 Plane 0000 T=0.004 C=0.004 B=0.000 S=0.000 D=0.000000 W=0.940431 [0.0, 1.0, 0.0](0.0, 0.0, 1.0, -0.367) 
			 Plane 0004 T=0.004 C=0.004 B=0.000 S=0.000 D=0.000000 W=0.940431 [0.0, 1.0, 0.0](0.0, 0.0, 1.0, -0.445) 
			 Plane 0005 T=0.004 C=0.004 B=0.000 S=0.000 D=0.000000 W=0.940431 [0.0, 1.0, 0.0](0.0, 0.0, 1.0, -0.464) 
			 Plane 0006 T=0.004 C=0.004 B=0.000 S=0.000 D=0.000000 W=0.940431 [0.0, 1.0, 0.0](0.0, 0.0, 1.0, -0.484) 

			 Best  0006 T=0.004 C=0.004 B=0.000 S=0.000 (0.0, 0.0, 1.0, -0.484)

	 -> Part[1] C = 0.00889571, E = 0.000452035, VS = 323, VC = 0, VI = 0
		 [Regular sampling] Number of clipping planes 31
			 Plane 0000 T=0.008 C=0.008 B=0.000 S=0.000 D=0.000000 W=0.992622 [0.0, 1.0, 0.0](1.0, 0.0, 0.0, 0.019) 
			 Plane 0017 T=0.007 C=0.006 B=0.000 S=0.000 D=0.992622 W=0.992622 [0.0, 1.0, 0.0](0.0, 1.0, 0.0, -0.505) 
			 Plane 0001 T=0.006 C=0.006 B=0.000 S=0.000 D=0.000000 W=0.992622 [0.0, 1.0, 0.0](1.0, 0.0, 0.0, -0.059) 
			 Plane 0018 T=0.004 C=0.004 B=0.000 S=0.000 D=0.000000 W=0.992622 [0.0, 1.0, 0.0](0.0, 0.0, 1.0, 0.492) 
			 Plane 0019 T=0.004 C=0.004 B=0.000 S=0.000 D=0.000000 W=0.992622 [0.0, 1.0, 0.0](0.0, 0.0, 1.0, 0.414) 
			 Plane 0020 T=0.004 C=0.004 B=0.000 S=0.000 D=0.000000 W=0.992622 [0.0, 1.0, 0.0](0.0, 0.0, 1.0, 0.336) 
			 Plane 0021 T=0.004 C=0.004 B=0.000 S=0.000 D=0.000000 W=0.992622 [0.0, 1.0, 0.0](0.0, 0.0, 1.0, 0.258) 
			 Plane 0022 T=0.004 C=0.004 B=0.000 S=0.000 D=0.000000 W=0.992622 [0.0, 1.0, 0.0](0.0, 0.0, 1.0, 0.180) 
			 Plane 0023 T=0.004 C=0.004 B=0.000 S=0.000 D=0.000000 W=0.992622 [0.0, 1.0, 0.0](0.0, 0.0, 1.0, 0.102) 
			 Plane 0024 T=0.004 C=0.004 B=0.000 S=0.000 D=0.000000 W=0.992622 [0.0, 1.0, 0.0](0.0, 0.0, 1.0, 0.024) 
			 Plane 0028 T=0.004 C=0.004 B=0.000 S=0.000 D=0.000000 W=0.992622 [0.0, 1.0, 0.0](0.0, 0.0, 1.0, -0.289) 

			 Best  0028 T=0.004 C=0.004 B=0.000 S=0.000 (0.0, 0.0, 1.0, -0.289)

		 [Refining] Number of clipping planes 9
			 Plane 0000 T=0.004 C=0.004 B=0.000 S=0.000 D=0.000000 W=0.992622 [0.0, 1.0, 0.0](0.0, 0.0, 1.0, -0.211) 
			 Plane 0005 T=0.004 C=0.004 B=0.000 S=0.000 D=0.000000 W=0.992622 [0.0, 1.0, 0.0](0.0, 0.0, 1.0, -0.308) 
			 Plane 0006 T=0.004 C=0.004 B=0.000 S=0.000 D=0.000000 W=0.992622 [0.0, 1.0, 0.0](0.0, 0.0, 1.0, -0.328) 
			 Plane 0007 T=0.004 C=0.004 B=0.000 S=0.000 D=0.000000 W=0.992622 [0.0, 1.0, 0.0](0.0, 0.0, 1.0, -0.347) 

			 Best  0007 T=0.004 C=0.004 B=0.000 S=0.000 (0.0, 0.0, 1.0, -0.347)

	 Subdivision level 8
	 -> Part[0] C = 0.00393134, E = 0.000267302, VS = 191, VC = 0, VI = 0
		 [Regular sampling] Number of clipping planes 30
			 Plane 0016 T=0.003 C=0.003 B=0.000 S=0.000 D=0.000000 W=0.007136 [1.0, 0.0, 0.0](0.0, 1.0, 0.0, -0.505) 
			 Plane 0000 T=0.000 C=0.000 B=0.000 S=0.000 D=0.007136 W=0.007136 [1.0, 0.0, 0.0](1.0, 0.0, 0.0, 1.210) 
			 Plane 0017 T=0.000 C=0.000 B=0.000 S=0.000 D=0.000000 W=0.007136 [1.0, 0.0, 0.0](0.0, 0.0, 1.0, 0.492) 

			 Best  0017 T=0.000 C=0.000 B=0.000 S=0.000 (0.0, 0.0, 1.0, 0.492)

		 [Refining] Number of clipping planes 5
			 Plane 0000 T=0.000 C=0.000 B=0.000 S=0.000 D=0.000000 W=0.007136 [1.0, 0.0, 0.0](0.0, 0.0, 1.0, 0.492) 

			 Best  0000 T=0.000 C=0.000 B=0.000 S=0.000 (0.0, 0.0, 1.0, 0.492)

	 -> Part[1] C = 4.12365e-06, E = 0.000166539, VS = 119, VC = 0, VI = 0
	 -> Part[2] C = 0.0037687, E = 0.000258905, VS = 185, VC = 0, VI = 0
		 [Regular sampling] Number of clipping planes 29
			 Plane 0000 T=0.003 C=0.003 B=0.000 S=0.000 D=0.008194 W=0.008194 [1.0, 0.0, 0.0](1.0, 0.0, 0.0, 0.019) 
			 Plane 0015 T=0.000 C=0.000 B=0.000 S=0.000 D=0.008194 W=0.008194 [1.0, 0.0, 0.0](1.0, 0.0, 0.0, -1.152) 
			 Plane 0018 T=0.000 C=0.000 B=0.000 S=0.000 D=0.000000 W=0.008194 [1.0, 0.0, 0.0](0.0, 0.0, 1.0, 0.492) 

			 Best  0018 T=0.000 C=0.000 B=0.000 S=0.000 (0.0, 0.0, 1.0, 0.492)

		 [Refining] Number of clipping planes 5
			 Plane 0000 T=0.000 C=0.000 B=0.000 S=0.000 D=0.000000 W=0.008194 [1.0, 0.0, 0.0](0.0, 0.0, 1.0, 0.492) 

			 Best  0000 T=0.000 C=0.000 B=0.000 S=0.000 (0.0, 0.0, 1.0, 0.492)

	 -> Part[3] C = 0.00059818, E = 0.000193129, VS = 138, VC = 0, VI = 0
	 Subdivision level 9
	 -> Part[0] C = 2.49348e-05, E = 0.000130152, VS = 93, VC = 0, VI = 0
	 -> Part[1] C = 2.7711e-06, E = 0.00013715, VS = 98, VC = 0, VI = 0
	 -> Part[2] C = 3.32521e-05, E = 0.000146946, VS = 105, VC = 0, VI = 0
	 -> Part[3] C = 6.23446e-06, E = 0.000111959, VS = 80, VC = 0, VI = 0
+ Generate 24 convex-hulls 
	 time 4.61153s
+ Merge Convex Hulls
		 Cost (0, 1) 0.000781696
		 Cost (0, 18) 0.000307716
		 Cost (2, 3) 1.73542e-05
		 Cost (20, 22) 1.66368e-05
		 Merging (20, 22) 1.66368e-05

		 Cost (0, 1) 0.000781696
		 Cost (0, 18) 0.000307716
		 Cost (2, 3) 1.73542e-05
		 Merging (2, 3) 1.73542e-05

		 Cost (0, 1) 0.000781696
		 Cost (0, 18) 0.000307716
		 Cost (2, 20) -5.33234e-10
		 Merging (2, 20) -5.33234e-10

		 Cost (0, 1) 0.000781696
		 Cost (0, 18) 0.000307716
		 Cost (4, 10) 2.16193e-05
		 Cost (12, 16) 2.08312e-05
		 Merging (12, 16) 2.08312e-05

		 Cost (0, 1) 0.000781696
		 Cost (0, 18) 0.000307716
		 Cost (4, 10) 2.16193e-05
		 Cost (12, 23) 7.61358e-06
		 Merging (12, 23) 7.61358e-06

		 Cost (0, 1) 0.000781696
		 Cost (0, 18) 0.000307716
		 Cost (4, 10) 2.16193e-05
		 Merging (4, 10) 2.16193e-05

		 Cost (0, 1) 0.000781696
		 Cost (0, 18) 0.000307716
		 Cost (4, 21) 1.40552e-06
		 Merging (4, 21) 1.40552e-06

		 Cost (0, 1) 0.000781696
		 Cost (0, 18) 0.000307716
		 Cost (5, 14) 2.5596e-05
		 Merging (5, 14) 2.5596e-05

		 Cost (0, 1) 0.000781696
		 Cost (0, 18) 0.000307716
		 Cost (5, 18) 0.00012515
		 Merging (5, 18) 0.00012515

		 Cost (0, 1) 0.000781696
		 Cost (6, 7) 0.000357695
		 Cost (9, 11) 0.000191225
		 Cost (13, 15) 0.000138966
		 Merging (13, 15) 0.000138966

		 Cost (0, 1) 0.000781696
		 Cost (6, 7) 0.000357695
		 Cost (9, 11) 0.000191225
		 Merging (9, 11) 0.000191225

		 Cost (0, 1) 0.000781696
		 Cost (6, 7) 0.000357695
		 Cost (9, 13) 2.2883e-05
		 Merging (9, 13) 2.2883e-05

		 Cost (0, 1) 0.000781696
		 Cost (6, 7) 0.000357695
		 Merging (6, 7) 0.000357695

		 Cost (0, 1) 0.000781696
		 Merging (0, 1) 0.000781696

		 Cost (0, 2) 0.327672
		 Cost (0, 4) 0.254246
		 Cost (0, 5) 0.086785
		 Cost (0, 19) 0.00441088
	 time 0.0447657s
+ Simplify 10 convex-hulls 
		 Simplify CH[00000] 26 V, 48 T
		 Simplify CH[00001] 8 V, 12 T
		 Simplify CH[00002] 12 V, 20 T
		 Simplify CH[00003] 12 V, 20 T
		 Simplify CH[00004] 26 V, 48 T
		 Simplify CH[00005] 30 V, 56 T
		 Simplify CH[00006] 12 V, 20 T
		 Simplify CH[00007] 10 V, 16 T
		 Simplify CH[00008] 18 V, 32 T
		 Simplify CH[00009] 12 V, 20 T
	 time 0.000299363s
+ Generate output: 10 convex-hulls 
	 CH[00000] 26 V, 48 T
	 CH[00001] 8 V, 12 T
	 CH[00002] 12 V, 20 T
	 CH[00003] 12 V, 20 T
	 CH[00004] 26 V, 48 T
	 CH[00005] 30 V, 56 T
	 CH[00006] 12 V, 20 T
	 CH[00007] 10 V, 16 T
	 CH[00008] 18 V, 32 T
	 CH[00009] 12 V, 20 T
