# Blender MTL File: 'None'
# Material Count: 1

newmtl 10436_Cactus_v1
Ns 9.803922
Ka 0.588200 0.588200 0.588200
Kd 0.588200 0.588200 0.588200
Ks 0.090000 0.090000 0.090000
Ke 0.000000 0.000000 0.000000
Ni 1.500000
d 1.000000
illum 2
map_Kd 10436_Cactus_v1_Diffuse.jpg
map_Ka 10436_Cactus_v1_Diffuse.jpg
